{
    "@class": "com.kony.gen.viz.model.component.KVizBrowser",
    "DNDConfig": null,
    "__parentReadjusting__": false,
    "_height_": {
        "type": "string",
        "value": "100%"
    },
    "_left_": {
        "type": "string",
        "value": "0dp"
    },
    "_margin_": [
        0,
        0,
        0,
        0
    ],
    "_padding_": [
        0,
        0,
        0,
        0
    ],
    "_top_": {
        "type": "string",
        "value": "0dp"
    },
    "_type_": 5,
    "_width_": {
        "type": "string",
        "value": "100%"
    },
    "bounces": false,
    "browserType": 1,
    "canUpdateUI": true,
    "containerweight": 69,
    "detecttelnumber": true,
    "htmlstring": "Browser",
    "id": "browserChart",
    "info": null,
    "iphone": {
        "psp": {
            "bounces": false,
            "browserType": 1
        }
    },
    "iscustomlayout": false,
    "isvisible": true,
    "kuid": "i874034a76e24206af719e19bee15782",
    "localurl": "wb9cf6b8d4ff4d4dbd0a1f91b155980a",
    "margininpixel": false,
    "method": "get",
    "name": "kony.ui.Browser",
    "paddinginpixel": false,
    "parent": "flxGraph",
    "pf": "frmUnifiedDashboard",
    "requesturlconfig": {
        "URL": "",
        "requestMethod": "get"
    },
    "retaincontentalignment": false,
    "retainflexpositionproperties": false,
    "screenlevelwidget": false,
    "url": "",
    "wType": "Browser",
    "zindex": 2
}