{
    "@class": "com.kony.gen.viz.model.component.KVizUserWidget",
    "DNDConfig": null,
    "__parentReadjusting__": false,
    "_children_": [],
    "_height_": {
        "type": "string",
        "value": "60dp"
    },
    "_left_": {
        "type": "string",
        "value": "0dp"
    },
    "_margin_": [
        0,
        0,
        0,
        0
    ],
    "_orientation_": 1,
    "_padding_": [
        0,
        0,
        0,
        0
    ],
    "_percent_": true,
    "_render_": true,
    "_skin_": "s7b436962d6a4647b197083ac7d03d38",
    "_top_": {
        "type": "string",
        "value": "0dp"
    },
    "_width_": {
        "type": "string",
        "value": "100%"
    },
    "areflexpropsreferenced": false,
    "canUpdateUI": true,
    "clipbounds": false,
    "containerweight": 0,
    "dataDiffs": {
        "customFooter": {
            "__events__": {},
            "__info__": {
                "isRoot": true,
                "kuid": "b06c49000f1f46fea5da72c0842dddd2",
                "srcKUID": "ee365a90ac944dd08f3a7b71c16c0fb3",
                "wType": "FlexContainer"
            }
        },
        "flxAccSelect": {
            "__events__": {},
            "__info__": {
                "kuid": "a1ef7ad0d668488c8bb5be57e609aff4",
                "srcKUID": "edd3ca8c3bbc43fdb471136dff93a1dc",
                "wType": "FlexContainer"
            }
        },
        "flxAccounts": {
            "__events__": {},
            "__info__": {
                "kuid": "j8f10e4b2f46418091646cd5d05209cd",
                "srcKUID": "f897ae694949489f80a3e5ada858a8bc",
                "wType": "FlexContainer"
            }
        },
        "flxBillPay": {
            "__events__": {},
            "__info__": {
                "kuid": "jb8a791c4efc41acaa99faa6c474e74c",
                "srcKUID": "ad2f337e4c7d47a29e6004285b17075f",
                "wType": "FlexContainer"
            }
        },
        "flxBillSelected": {
            "__events__": {},
            "__info__": {
                "kuid": "ga0d374c35b74a7a96241f3b5cc6c61b",
                "srcKUID": "efa5006af84141faabfb6ba4e77f39b3",
                "wType": "FlexContainer"
            },
            "isVisible": false
        },
        "flxContainer": {
            "__events__": {},
            "__info__": {
                "kuid": "f05b49af3af74c23bb0e8a05be5510ea",
                "srcKUID": "a2bdd76f897f4700947cdc5831d025fb",
                "wType": "FlexContainer"
            }
        },
        "flxMore": {
            "__events__": {
                "ide_onClick": "AS_FlexContainer_i770d8443e3f45ddaab58257c32cff87"
            },
            "__info__": {
                "kuid": "ace140517e5f45658f9c3ad0a8c4f73a",
                "srcKUID": "c57c812244d44cd6a22a386b817983cc",
                "wType": "FlexContainer"
            }
        },
        "flxMoreSelect": {
            "__events__": {},
            "__info__": {
                "kuid": "b5670491e0f74cc7a4536f735cffeb81",
                "srcKUID": "d44abf5d36bb4f798a3a74997c3d431b",
                "wType": "FlexContainer"
            },
            "isVisible": false
        },
        "flxTransfer": {
            "__events__": {
                "ide_onClick": "AS_FlexContainer_f5b09e6930c444848c6ee6aae4b475de"
            },
            "__info__": {
                "kuid": "gfa17ce85b6e480d9eb01faa18db2bc5",
                "srcKUID": "gefcd6fa81094c219787659bb633513f",
                "wType": "FlexContainer"
            }
        },
        "flxTransferSel": {
            "__events__": {},
            "__info__": {
                "kuid": "af5dc9f8080e4cc5b2bff3d4277bc693",
                "srcKUID": "j47f2ec2c9aa4769a5a5a5f391c4eccf",
                "wType": "FlexContainer"
            },
            "isVisible": false
        },
        "flxTypeOneShadow": {
            "__events__": {},
            "__info__": {
                "kuid": "be0a6c0b41e74cd69467769c8b104797",
                "srcKUID": "idc4e825cff344e7a6f70eb33e68e813",
                "wType": "FlexContainer"
            }
        },
        "imgAccounts": {
            "__events__": {},
            "__info__": {
                "kuid": "f6aa63c726204d688b0981ab85602f0c",
                "srcKUID": "d8607e26bc8e4bdeb7f28ff6cbc0a353",
                "wType": "Image"
            },
            "src": "accounts.png"
        },
        "imgBillPay": {
            "__events__": {},
            "__info__": {
                "kuid": "cdee1ad6a7874f3d87f1cda7812b42c0",
                "srcKUID": "c311ac836ed6441787c0364555e1aa9b",
                "wType": "Image"
            },
            "src": "billpay.png"
        },
        "imgMore": {
            "__events__": {},
            "__info__": {
                "kuid": "daafdb7863a14f1b986a9e15e6323a38",
                "srcKUID": "daf0d4a66d064a329f49163b460efe1f",
                "wType": "Image"
            },
            "src": "more.png"
        },
        "imgTransfer": {
            "__events__": {},
            "__info__": {
                "kuid": "ca8bd22d6e804961af972aa0b59c6471",
                "srcKUID": "abd4eccaab1c4bda89c7807c17e5fbe1",
                "wType": "Image"
            },
            "src": "transfer.png"
        },
        "lblAccounts": {
            "__events__": {},
            "__info__": {
                "kuid": "e3c9392f5a9b4bf4adf9d977bf35b99a",
                "srcKUID": "aaf2ab35d432473b9c1a4dac93cbebe6",
                "wType": "Label"
            }
        },
        "lblBillPay": {
            "__events__": {},
            "__info__": {
                "kuid": "dbbf82fc2f42495f9aa6f945ea61de73",
                "srcKUID": "d12314c85bfc428f9a77a1e1bd91c3a8",
                "wType": "Label"
            }
        },
        "lblMore": {
            "__events__": {},
            "__info__": {
                "kuid": "g1f2c47f07b542f78e2b520cfdea6d53",
                "srcKUID": "h7fd0beae4ec4b3cb6ad5f00a6eff4a5",
                "wType": "Label"
            }
        },
        "lblTransfer": {
            "__events__": {},
            "__info__": {
                "kuid": "d264217c07c042b7bb9a28d93a505dac",
                "srcKUID": "ffebf87580944641b9b87adbfbdd6023",
                "wType": "Label"
            }
        }
    },
    "id": "customFooter",
    "info": null,
    "iscustomlayout": false,
    "isdatareferenced": false,
    "isvisible": true,
    "kuid": "b06c49000f1f46fea5da72c0842dddd2",
    "layouttype": 2,
    "masterType": 0,
    "name": "kony.ui.UserWidgetInstance",
    "parent": "flxMenu",
    "pf": "frmUnifiedDashboard",
    "retaincontentalignment": false,
    "retainflexpositionproperties": false,
    "snaptogrid": true,
    "sourceUserWidget": "ee365a90ac944dd08f3a7b71c16c0fb3",
    "wType": "UserWidgetInstance",
    "zindex": 300
}