{
    "@class": "com.kony.gen.viz.model.component.KVizRichText",
    "DNDConfig": null,
    "__parentReadjusting__": false,
    "_height_": {
        "type": "ref",
        "value": "preferred"
    },
    "_margin_": [
        0,
        0,
        0,
        0
    ],
    "_padding_": [
        0,
        0,
        0,
        0
    ],
    "_skin_": "s11e3640ea844799b4b593538b5636e2",
    "_text_": "Get Home Loans from ANZ Bank with 4.95 per <br/> annum  interest rates and get free... <a href=\"\"> <b>Learn More </b></a>",
    "_width_": {
        "type": "string",
        "value": "80%"
    },
    "_wrapping_": 2,
    "accessibilityconfig": {
        "a11yLabel": "Get Home Loans from ANZ Bank with 4.95 per <br/> annum  interest rates and get free... <a href=\"\"> <b>Learn More </b></a>"
    },
    "canUpdateUI": true,
    "centerx": {
        "type": "string",
        "value": "50%"
    },
    "centery": {
        "type": "string",
        "value": "50%"
    },
    "containerweight": 100,
    "contentalignment": 4,
    "id": "rtxDetails",
    "info": null,
    "isvisible": true,
    "kuid": "j2531ae847834099b7f267d2541bce67",
    "linkskin": "s458e5df2af14c7d9ec19bde9e2836b4",
    "name": "kony.ui.RichText",
    "parent": "flxAdInfo",
    "pf": "frmUnifiedDashboard",
    "wType": "RichText",
    "widgetalignment": 5,
    "zindex": 1
}