{
    "@class": "com.kony.gen.viz.model.component.KVizLabel",
    "DNDConfig": null,
    "__parentReadjusting__": false,
    "_height_": {
        "type": "string",
        "value": "75dp"
    },
    "_margin_": [
        1,
        1,
        1,
        1
    ],
    "_padding_": [
        0,
        0,
        0,
        0
    ],
    "_skin_": "s1f247f9cd264156a469917fd2ae0963",
    "_text_": "You have reached the payment cut off for today",
    "_top_": {
        "type": "string",
        "value": "86dp"
    },
    "_width_": {
        "type": "string",
        "value": "284dp"
    },
    "_wrapping_": 2,
    "android": {
        "textStyle": {
            "letterSpacing": 0,
            "strikeThrough": false
        }
    },
    "canUpdateUI": true,
    "centerx": {
        "type": "string",
        "value": "50%"
    },
    "containerweight": 100,
    "contentalignment": 5,
    "id": "lblCutOff",
    "info": null,
    "ipad": {
        "psp": {
            "wrapping": 2
        }
    },
    "iphone": {
        "psp": {
            "wrapping": 2
        }
    },
    "iscustomlayout": false,
    "isvisible": true,
    "kuid": "j4d66a2d1cf44a1eb8a083fe5f23f103",
    "name": "kony.ui.Label",
    "parent": "flxWarning",
    "pf": "frmTransfersPaymentMedium",
    "retaincontentalignment": false,
    "retainflexpositionproperties": false,
    "texti18n": "kony.mb.Europe.paymentCutOff",
    "textstyle": {},
    "tooltip": "",
    "wType": "Label",
    "zindex": 1
}