{
    "DNDConfig": null,
    "__parentReadjusting__": false,
    "_height_": {
        "type": "string",
        "value": "2%"
    },
    "_margin_": [
        0,
        0,
        0,
        0
    ],
    "_orientation_": 6,
    "_padding_": [
        0,
        0,
        0,
        0
    ],
    "_percent_": true,
    "_skin_": "s39a7b0d7371420db6cc0c74b5805950",
    "_width_": {
        "type": "string",
        "value": "90%"
    },
    "allboxes": [],
    "canUpdateUI": true,
    "centerx": {
        "type": "string",
        "value": "50%"
    },
    "children": [],
    "clipbounds": true,
    "containerweight": 100,
    "enablescrolling": true,
    "id": "flxLine8",
    "info": null,
    "iphone": {
        "autogrowMode": 0,
        "height": {
            "type": "string",
            "value": "2%"
        }
    },
    "iscustomlayout": false,
    "isvisible": true,
    "kuid": "b658ed02b984438bb108f1cb45d6467f",
    "layouttype": 2,
    "name": "kony.ui.FlexContainer",
    "parent": "flxDescription",
    "pf": "frmCMConfirmation",
    "retaincontentalignment": false,
    "retainflexpositionproperties": false,
    "retainflowhorizontalalignment": false,
    "snapgridsize": 10,
    "snaptogrid": true,
    "wType": "FlexContainer",
    "widgetalignment": 1,
    "zindex": 1
}