{
  "type" : "svcdriven",
  "custom" : false,
  "junction" : false,
  "customizable" : false,
  "verbs" : {
    "resetPassword" : "resetPasswordMapping",
    "updatePreferredBillPayAccount" : "updatePreferredBillPayAccountMapping",
    "updateCustomerDetails" : "updateCustomerDetailsMapping",
    "createCoreUser" : "createCoreUserMapping",
    "updateAddress" : "updateAddressMapping",
    "createUserFeedback" : "createUserFeedbackMapping",
    "getNewBrowserCheck" : "getNewBrowserCheckMapping",
    "getUserStatus" : "getUserStatusMapping",
    "lockUnlockDbxUser" : "lockUnlockDbxUserMapping",
    "activateBillPaymentForUser" : "activateBillPaymentForUserMapping",
    "verifyOTP" : "verifyOTPMapping",
    "create" : "createMapping",
    "checkSecurityQuestionStatus" : "checkSecurityQuestionStatusMapping",
    "verifyCoreUserName" : "verifyCoreUserNameMapping",
    "checkDbxUserEnrolled" : "checkDbxUserEnrolledMapping",
    "checkBillPayEligibilityForUser" : "checkBillPayEligibilityForUserMapping",
    "createAddress" : "createAddressMapping",
    "verifyDbxExistingPassword" : "verifyDbxExistingPasswordMapping",
    "requestOTP" : "requestOTPMapping",
    "deleteAddress" : "deleteAddressMapping",
    "getUserDetailsToAdmin" : "getUserDetailsToAdminMapping",
    "updateSecureAccessCode" : "updateSecureAccessCodeMapping",
    "getCustomerContact" : "getCustomerContactMapping",
    "verifyPin" : "verifyPinMapping",
    "activateDbxP2PForUser" : "activateDbxP2PForUserMapping",
    "updatePreferredP2PAccounts" : "updatePreferredP2PAccountsMapping",
    "verifyCVV" : "verifyCVVMapping",
    "createOLBUser" : "createOLBUserMapping",
    "checkP2PEligibilityForUser" : "checkP2PEligibilityForUserMapping",
    "verifyExternalBankAccount" : "verifyExternalBankAccountMapping",
    "verifyDbxPin" : "verifyDbxPinMapping",
    "getAllAddress" : "getAllAddressMapping",
    "partialupdate" : "partialupdateMapping",
    "delete" : "deleteMapping",
    "getUsername" : "getUsernameMapping",
    "verifyCoreUser" : "verifyCoreUserMapping",
    "deactivateP2P" : "deactivateP2PMapping",
    "updateOrganizationEmployee" : "updateOrganizationEmployeeMapping",
    "get" : "getMapping",
    "customUpdate" : "customUpdateMapping",
    "updateCustomerDetailsOnboarding" : "updateCustomerDetailsOnboardingMapping",
    "updatePreferredDbxP2PAccounts" : "updatePreferredDbxP2PAccountsMapping",
    "checkSecureAccessCode" : "checkSecureAccessCodeMapping",
    "getPasswordPolicies" : "getPasswordPoliciesMapping",
    "checkUserEnrolled" : "checkUserEnrolledMapping",
    "lockUnlockUser" : "lockUnlockUserMapping",
    "activateP2PForUser" : "activateP2PForUserMapping",
    "verifyExistingPassword" : "verifyExistingPasswordMapping",
    "getAllEntitlements" : "getAllEntitlementsMapping"
  },
  "entityProperties" : {
    "BatchMode" : "buffer",
    "backendMeta" : { },
    "designTimeBackendMeta" : { }
  }
}