{
    "@class": "com.kony.gen.viz.model.component.KVizButton",
    "DNDConfig": null,
    "__parentReadjusting__": false,
    "_height_": {
        "type": "string",
        "value": "50%"
    },
    "_left_": {
        "type": "string",
        "value": "0dp"
    },
    "_margin_": [
        6,
        6,
        6,
        6
    ],
    "_padding_": [
        0,
        0,
        0,
        0
    ],
    "_skin_": "s7e0442e558b44139cbb56994b882ea2",
    "_text_": "TAKE A PICTURE",
    "_top_": {
        "type": "string",
        "value": "0dp"
    },
    "_width_": {
        "type": "string",
        "value": "100%"
    },
    "accessibilityconfig": {
        "a11yLabel": "TAKE A PICTURE"
    },
    "canUpdateUI": true,
    "containerweight": 100,
    "contentalignment": 5,
    "disabledSkins": {},
    "displaytext": true,
    "focusskin": "s95fdc214e754758a478364273bd696b",
    "id": "btnTakeAPicture",
    "info": null,
    "iphone": {
        "psp": {
            "showProgressIndicator": false
        }
    },
    "iscustomlayout": false,
    "isvisible": true,
    "kuid": "j0cc6b12a41049cda4f842468de8a4df",
    "name": "kony.ui.Button",
    "parent": "flxPopupActions",
    "pf": "frmNewMessage",
    "retaincontentalignment": false,
    "retainflexpositionproperties": false,
    "texti18n": "kony.mb.Messages.TakeAPicture",
    "wType": "Button",
    "zindex": 1
}