{
  "serviceType" : "integration",
  "jars" : [ {
    "name" : "TransactionAdviceBackendDelegateAPIImpl.jar",
    "type" : "servicejar"
  }, {
    "name" : "dbp-productservices.jar",
    "type" : "servicejar"
  } ]
}