{
    "@class": "com.kony.gen.viz.model.component.KVizLabel",
    "DNDConfig": null,
    "__parentReadjusting__": false,
    "_height_": {
        "type": "ref",
        "value": "preferred"
    },
    "_left_": {
        "type": "string",
        "value": "20dp"
    },
    "_margin_": [
        1,
        1,
        1,
        1
    ],
    "_padding_": [
        0,
        0,
        0,
        0
    ],
    "_skin_": "s6b971faef844351a1e2f8228ca6f163",
    "_text_": "Saturday - Monday:",
    "_width_": {
        "type": "string",
        "value": "36%"
    },
    "_wrapping_": 2,
    "accessibilityconfig": {
        "a11yLabel": "Saturday:"
    },
    "android": {
        "textStyle": {
            "letterSpacing": 0,
            "strikeThrough": false
        }
    },
    "canUpdateUI": true,
    "centery": {
        "type": "string",
        "value": "50%"
    },
    "containerId": true,
    "containerweight": 100,
    "contentalignment": 4,
    "id": "lblTimingTitle",
    "info": null,
    "ipad": {
        "psp": {
            "wrapping": 2
        }
    },
    "iphone": {
        "psp": {
            "wrapping": 2
        }
    },
    "isvisible": true,
    "kuid": "ed30d00f63604c7fb8e1451f60dd452a",
    "name": "kony.ui.Label",
    "parent": "flxBankTimings",
    "pf": "segBankTimings",
    "textstyle": {},
    "tooltip": "",
    "wType": "Label",
    "zindex": 1
}