{
    "@class": "com.kony.gen.viz.model.component.KVizTextBox2",
    "DNDConfig": null,
    "__parentReadjusting__": false,
    "_height_": {
        "type": "string",
        "value": "40dp"
    },
    "_margin_": [
        0,
        0,
        0,
        0
    ],
    "_padding_": [
        10,
        3,
        1,
        3
    ],
    "_placeholder_": "Last Cheque no.",
    "_skin_": "sdc14f85f7984e13bb5ed2544fe80fe6",
    "_text_": "",
    "_top_": {
        "type": "string",
        "value": "10dp"
    },
    "_width_": {
        "type": "string",
        "value": "42%"
    },
    "accessibilityconfig": {
        "a11yLabel": "Enter here"
    },
    "android": {
        "bottom": "",
        "centerX": {
            "type": "string",
            "value": ""
        },
        "centerY": "",
        "left": {
            "type": "string",
            "value": "5dp"
        },
        "maxHeight": "",
        "maxWidth": "",
        "minHeight": "",
        "minWidth": "",
        "padding": [
            0,
            0,
            0,
            0
        ],
        "paddingInPixel": true
    },
    "autocapitalize": "none",
    "autocomplete": false,
    "autocorrect": false,
    "autofilter": false,
    "canUpdateUI": true,
    "containerheight": "",
    "containerheightmode": 1,
    "containerweight": 100,
    "contentalignment": 4,
    "focusskin": "s2688670ed0f4789900f7368aeda469c",
    "id": "txtLastCheque",
    "info": null,
    "iphone": {
        "padding": [
            10,
            3,
            1,
            3
        ],
        "paddingInPixel": true
    },
    "isvisible": true,
    "keyboardstyle": "A",
    "keyboardtype": "A",
    "kuid": "i9202e13cf0e403fac266bb0d239085a",
    "maxtextlength": "",
    "mode": "N",
    "name": "kony.ui.TextBox2",
    "paddingLocked": false,
    "paddinginpixel": false,
    "parent": "flxChequeNumber",
    "pf": "frmSeriesCheque",
    "placeholderi18n": "kony.mb.CM.lastCheque",
    "placeholderskin": "s38a3fe90f7547a3809343bf938b77d1",
    "securetextentry": false,
    "textinputmode": "N",
    "tooltip": "",
    "viewtype": "default",
    "wType": "TextField",
    "zindex": 20
}