{
    "@class": "com.kony.gen.viz.model.component.KVizButton",
    "DNDConfig": null,
    "__parentReadjusting__": false,
    "_height_": {
        "type": "string",
        "value": "57dp"
    },
    "_left_": {
        "type": "string",
        "value": "0.00%"
    },
    "_margin_": [
        6,
        6,
        6,
        6
    ],
    "_padding_": [
        0,
        0,
        0,
        0
    ],
    "_skin_": "sea972a1801849c29b5b91d3ed1079f2",
    "_text_": "Document",
    "_top_": {
        "type": "string",
        "value": "0dp"
    },
    "_width_": {
        "type": "string",
        "value": "100%"
    },
    "canUpdateUI": true,
    "containerweight": 100,
    "contentalignment": 5,
    "disabledSkins": {
        "focusSkin": "s3f9b09aa2a449a2a210dfe4f8ec3845"
    },
    "displaytext": true,
    "id": "btnDocument",
    "info": null,
    "isvisible": true,
    "kuid": "a9962fe74b344d1fac10939f937113ca",
    "name": "kony.ui.Button",
    "parent": "flxDocument",
    "pf": "frmEuropeVerifyTransferDetails",
    "wType": "Button",
    "zindex": 1
}