{
    "@class": "com.kony.gen.viz.model.component.KVizTextBox2",
    "DNDConfig": null,
    "_bottom_": {
        "type": "string",
        "value": "0dp"
    },
    "_height_": {
        "type": "string",
        "value": "48dp"
    },
    "_left_": {
        "type": "string",
        "value": "20dp"
    },
    "_margin_": [
        0,
        0,
        0,
        0
    ],
    "_padding_": [
        3,
        0,
        0,
        0
    ],
    "_placeholder_": "Re-enter PIN",
    "_right_": {
        "type": "string",
        "value": "20dp"
    },
    "_skin_": "s5088eaae521414cbb3f061ad18edfa7",
    "_text_": "",
    "accessibilityconfig": {
        "a11yLabel": "Password"
    },
    "activeNativeBorderCornerRadiusControl": "centerControl",
    "autocapitalize": "none",
    "autocomplete": false,
    "autocorrect": false,
    "autofilter": false,
    "canUpdateUI": true,
    "containerheight": "",
    "containerheightmode": 1,
    "containerweight": 100,
    "contentalignment": 4,
    "disabledSkins": {},
    "focusskin": "s8ff159538184123b0b5fa6f5d4b20ef",
    "id": "tbxReEnterPin",
    "info": null,
    "iphone": {
        "psp": {
            "closeButtonText": "Cancel",
            "keyboardActionLabel": 2,
            "showClearButton": false,
            "showCloseButton": true
        }
    },
    "isvisible": true,
    "keyboardstyle": "digitpad",
    "keyboardtype": "A",
    "kuid": "d0bab9f91bfa4166ae3b2523858fcb2b",
    "mode": "N",
    "name": "kony.ui.TextBox2",
    "parent": "flxReEnterPin",
    "pf": "userwidgetmodel",
    "placeholderskin": "sfec89a64dc5411f8d7c1ca367030625",
    "securetextentry": false,
    "textinputmode": "N",
    "tooltip": "",
    "viewtype": "default",
    "wType": "TextField",
    "zindex": 3
}