{
    "@class": "com.kony.gen.viz.model.container.KVizSegment2",
    "DNDConfig": null,
    "__parentReadjusting__": false,
    "_bottom_": {
        "type": "string",
        "value": "0dp"
    },
    "_bounces_": false,
    "_data_": [
        [
            {
                "imgUpArrow": {
                    "@class": "com.viz.ide.model.segment.ImageSegmentData",
                    "src": "arrowdown.png"
                },
                "lblHeader": {
                    "@class": "com.viz.ide.model.segment.SimpleTextSegmentData",
                    "text": "Transactions"
                }
            },
            [
                {
                    "accountTypeIcon": {
                        "@class": "com.viz.ide.model.segment.ImageSegmentData",
                        "src": ""
                    },
                    "imgBankIcon": {
                        "@class": "com.viz.ide.model.segment.ImageSegmentData",
                        "src": ""
                    },
                    "imgBankIconType": {
                        "@class": "com.viz.ide.model.segment.ImageSegmentData",
                        "src": ""
                    },
                    "imgDelete": {
                        "@class": "com.viz.ide.model.segment.ImageSegmentData",
                        "src": ""
                    },
                    "imgTick": {
                        "@class": "com.viz.ide.model.segment.ImageSegmentData",
                        "src": ""
                    },
                    "lblAccountBal": {
                        "@class": "com.viz.ide.model.segment.SimpleTextSegmentData",
                        "text": ""
                    },
                    "lblAccountBalValue": {
                        "@class": "com.viz.ide.model.segment.SimpleTextSegmentData",
                        "text": ""
                    },
                    "lblAccountName": {
                        "@class": "com.viz.ide.model.segment.SimpleTextSegmentData",
                        "text": ""
                    },
                    "lblAccountNumber": {
                        "@class": "com.viz.ide.model.segment.SimpleTextSegmentData",
                        "text": ""
                    },
                    "lblBankName": {
                        "@class": "com.viz.ide.model.segment.SimpleTextSegmentData",
                        "text": ""
                    },
                    "lblDelete": {
                        "@class": "com.viz.ide.model.segment.SimpleTextSegmentData",
                        "text": ""
                    }
                }
            ]
        ],
        [
            {
                "imgUpArrow": {
                    "@class": "com.viz.ide.model.segment.ImageSegmentData",
                    "src": "arrowdown.png"
                },
                "lblHeader": {
                    "@class": "com.viz.ide.model.segment.SimpleTextSegmentData",
                    "text": "Transactions"
                }
            },
            [
                {
                    "accountTypeIcon": {
                        "@class": "com.viz.ide.model.segment.ImageSegmentData",
                        "src": ""
                    },
                    "imgBankIcon": {
                        "@class": "com.viz.ide.model.segment.ImageSegmentData",
                        "src": ""
                    },
                    "imgBankIconType": {
                        "@class": "com.viz.ide.model.segment.ImageSegmentData",
                        "src": ""
                    },
                    "imgDelete": {
                        "@class": "com.viz.ide.model.segment.ImageSegmentData",
                        "src": ""
                    },
                    "imgTick": {
                        "@class": "com.viz.ide.model.segment.ImageSegmentData",
                        "src": ""
                    },
                    "lblAccountBal": {
                        "@class": "com.viz.ide.model.segment.SimpleTextSegmentData",
                        "text": ""
                    },
                    "lblAccountBalValue": {
                        "@class": "com.viz.ide.model.segment.SimpleTextSegmentData",
                        "text": ""
                    },
                    "lblAccountName": {
                        "@class": "com.viz.ide.model.segment.SimpleTextSegmentData",
                        "text": ""
                    },
                    "lblAccountNumber": {
                        "@class": "com.viz.ide.model.segment.SimpleTextSegmentData",
                        "text": ""
                    },
                    "lblBankName": {
                        "@class": "com.viz.ide.model.segment.SimpleTextSegmentData",
                        "text": ""
                    },
                    "lblDelete": {
                        "@class": "com.viz.ide.model.segment.SimpleTextSegmentData",
                        "text": ""
                    }
                }
            ]
        ]
    ],
    "_height_": {
        "type": "string",
        "value": ""
    },
    "_indicator_": "none",
    "_left_": {
        "type": "string",
        "value": "0dp"
    },
    "_margin_": [
        0,
        0,
        0,
        0
    ],
    "_orientation_": 2,
    "_padding_": [
        0,
        0,
        0,
        0
    ],
    "_top_": {
        "type": "string",
        "value": "0dp"
    },
    "_width_": {
        "type": "string",
        "value": "100%"
    },
    "android": {
        "psp": {
            "dockSectionHeaders": true
        }
    },
    "canUpdateUI": true,
    "containerweight": 100,
    "counter": "10",
    "enabledictionary": true,
    "focusedindex": null,
    "focuseditem": null,
    "groupcells": false,
    "hasSections": true,
    "id": "segTransactions",
    "ide_onRowClick": "AS_Segment_i5d29c43fce1405abcbbf3e61ce2ae4a",
    "info": null,
    "ipad": {
        "psp": {
            "indicator": "rowselect"
        }
    },
    "iphone": {
        "height": {
            "type": "string",
            "value": "100%"
        },
        "psp": {
            "bounces": false,
            "enableDictionary": true,
            "indicator": "none"
        }
    },
    "iscustomlayout": false,
    "isvisible": true,
    "kuid": "f6a0b088572b4027bf1cf6cb46d7f1b3",
    "masterdata": {},
    "minheight": {
        "type": "string",
        "value": "85%"
    },
    "name": "kony.ui.SegmentedUI2",
    "needpageindicator": true,
    "pageoffdotimage": "pageoffdot.png",
    "pageondotimage": "pageondot.png",
    "paginationconfig": {
        "position": "bottom"
    },
    "parent": "flxMainContainer",
    "pf": "frmManageNewCardAccounts",
    "retaincontentalignment": false,
    "retainflexpositionproperties": false,
    "retainselection": false,
    "rowTemplateId": "c94ae77837714e0d93409a48f7dbafe3",
    "rowcounter": 0,
    "rowfocusskin": "s02d7ca459a74168b4573e79b9d8efec",
    "rowskin": "s69f28c050df43fb9bf92e79f4534943",
    "rowtemplate": "flxAccountsNoImageTransfers",
    "screenlevelwidget": false,
    "seccounter": 1,
    "sectionHeaderTemplateId": "b03f45aac486491a95c007aa96cecb1e",
    "sectionheaderskin": "s69f28c050df43fb9bf92e79f4534943",
    "sectionheadertemplate": "flxTransHeader",
    "selectedRows": null,
    "selectedState": false,
    "selectedindex": null,
    "selectedindices": null,
    "selecteditems": null,
    "selectedsectionindex": null,
    "selectionbehavior": "default",
    "separatorrequired": false,
    "showscrollbars": false,
    "viewtype": "tableview",
    "vizProps": {},
    "wType": "Segment",
    "widgetalignment": 5,
    "widgetdatamap": {
        "flxAccountName": "flxAccountName",
        "flxAccountsNoImageTransfers": "flxAccountsNoImageTransfers",
        "flxDelete": "flxDelete",
        "flxMain": "flxMain",
        "flxSeparator": "flxSeparator",
        "flxShadowBottom": "flxShadowBottom",
        "flxTransHeader": "flxTransHeader",
        "flxTypeOneShadow": "flxTypeOneShadow",
        "flximgUp": "flximgUp",
        "imgDelete": "imgDelete",
        "imgTick": "imgTick",
        "imgUpArrow": "imgUpArrow",
        "lblAccountBal": "lblAccountBal",
        "lblAccountBalValue": "lblAccountBalValue",
        "lblAccountName": "lblAccountName",
        "lblAccountNumber": "lblAccountNumber",
        "lblBankName": "lblBankName",
        "lblDelete": "lblDelete",
        "lblHeader": "lblHeader"
    },
    "widgetskin": "s69f28c050df43fb9bf92e79f4534943",
    "zindex": 1
}