{
    "ModuleName": "AccountServicesManager",
    "BusinessControllerConfig": {
        "CommandHandler": [],
        "BusinessControllerClass": "AccountServicesManager/BusinessControllers/BusinessController"
    }
}