{
    "@class": "com.kony.gen.viz.model.container.KVizScrollFlexForm",
    "DNDConfig": null,
    "_margin_": [
        0,
        0,
        0,
        0
    ],
    "_orientation_": 1,
    "_padding_": [
        0,
        0,
        0,
        0
    ],
    "_percent_": true,
    "_skin_": "s6c1771750c54d6fa6c7ce582c117624",
    "_title_": "Support",
    "addWidgetsdone": false,
    "allboxes": [],
    "android": {
        "psp": {
            "windowSoftInputMode": 2
        }
    },
    "canUpdateUI": true,
    "children": [
        "flxSupportMain",
        "flxAppVersion",
        "flxPopup",
        "flxHamburger",
        "flxFooter"
    ],
    "containerweight": 100,
    "controllerInfo": {
        "default": {
            "channel": "mobile",
            "name": "frmSupportController"
        }
    },
    "currentLocale": "default",
    "desktopweb": {
        "needAppMenu": false
    },
    "device": "iPhoneXR",
    "displayorientation": 1,
    "enabledforidletimeout": true,
    "friendlyName": "frmSupport",
    "id": "frmSupport",
    "ide_init": "AS_Form_hdedb5c748b04643a3fa32f841560020",
    "ide_preShow": "AS_Form_a9b17a108586468d98ee88f097af2c2f",
    "info": null,
    "initdone": false,
    "inputaccessoryviewtype": 4,
    "ipad": {
        "psp": {
            "inputAccessoryViewType": 4
        }
    },
    "iphone": {
        "psp": {
            "inputAccessoryViewType": 4,
            "titleBarAttributes": {
                "backBarButtonItem": {
                    "enabled": true,
                    "info": {
                        "title": ""
                    },
                    "kuid": "h166149791014435a0d90c99bbeacecb",
                    "style": 0,
                    "tintColor": "ffffff00",
                    "type": 1
                },
                "backIndicatorImage": "backbutton.png",
                "barStyle": 0,
                "hidesBackButton": true,
                "kuid": "bb58d41156114469b1e70b5fbf54d127",
                "leftBarButtonItems": [
                    {
                        "enabled": true,
                        "ide_onClick": "AS_BarButtonItem_a978f01fea2044beb36efb7b220b7cd6",
                        "info": {
                            "image": "backbutton.png"
                        },
                        "kuid": "dd07aa58a8a74d279e0554c869f87eb6",
                        "style": 0,
                        "tintColor": "ffffff00",
                        "type": 0
                    }
                ],
                "leftItemsSupplementBackButton": true,
                "prompt": "",
                "renderTitleText": true,
                "rightBarButtonItems": [
                    {
                        "enabled": true,
                        "info": {
                            "title": ""
                        },
                        "kuid": "c28648817bb841b8967bbcb7c946d7b6",
                        "style": 0,
                        "tintColor": "ffffff00",
                        "type": 1
                    }
                ],
                "tintColor": "ffffff00",
                "translucent": false
            }
        },
        "titleBar": true
    },
    "isvisible": true,
    "kuid": "c52da8048a9242e98ce7a09cf62abd71",
    "layouttype": 2,
    "name": "kony.ui.Form2",
    "needappmenu": true,
    "paddinginpixel": false,
    "platform": "iphone",
    "prevDevice": "iPhone7",
    "prevPlatform": "android",
    "retainscrollposition": false,
    "shellCSS": "iOS_iPhoneXR",
    "snapgridsize": 10,
    "snaptogrid": true,
    "texti18n": "kony.mb.Hamburger.Contactus",
    "titleBarSkin": "scb8fcbdebb649d1b5900564018c8da5",
    "titlebar": false,
    "type": 3,
    "wType": "Form"
}