{
    "@class": "com.kony.gen.viz.model.component.KVizLabel",
    "DNDConfig": null,
    "__parentReadjusting__": false,
    "_height_": {
        "type": "ref",
        "value": "preferred"
    },
    "_margin_": [
        1,
        1,
        1,
        1
    ],
    "_padding_": [
        0,
        0,
        0,
        0
    ],
    "_skin_": "s172b7322f1d4c8787966493dc925fd8",
    "_text_": "Cancel",
    "_width_": {
        "type": "ref",
        "value": "preferred"
    },
    "_wrapping_": 2,
    "accessibilityconfig": {
        "a11yLabel": "ADD OR EDIT ADDRESS"
    },
    "android": {
        "textStyle": {
            "letterSpacing": 0,
            "strikeThrough": false
        }
    },
    "canUpdateUI": true,
    "centerx": {
        "type": "string",
        "value": "50.04%"
    },
    "centery": {
        "type": "string",
        "value": "50.00%"
    },
    "containerweight": 100,
    "contentalignment": 4,
    "id": "lblCancel",
    "info": null,
    "ipad": {
        "psp": {
            "wrapping": 2
        }
    },
    "iphone": {
        "psp": {
            "wrapping": 2
        }
    },
    "iscustomlayout": false,
    "isvisible": true,
    "kuid": "h115c16a477b44998ee9c7c424d8e54a",
    "name": "kony.ui.Label",
    "parent": "flxCancel",
    "pf": "frmAccountDetails",
    "retaincontentalignment": false,
    "retainflexpositionproperties": false,
    "texti18n": "kony.tab.common.CANCEL",
    "textstyle": {},
    "tooltip": "",
    "wType": "Label",
    "zindex": 1070
}