{
    "DNDConfig": null,
    "__parentReadjusting__": false,
    "_height_": {
        "type": "string",
        "value": "40dp"
    },
    "_left_": {
        "type": "string",
        "value": "20dp"
    },
    "_margin_": [
        0,
        0,
        0,
        0
    ],
    "_orientation_": 6,
    "_padding_": [
        0,
        0,
        0,
        0
    ],
    "_percent_": true,
    "_right_": {
        "type": "string",
        "value": "20dp"
    },
    "_skin_": "s196a5eae048463cacc7e9cdd13cd4e8",
    "_top_": {
        "type": "string",
        "value": "38dp"
    },
    "allboxes": [],
    "autogrowmode": 0,
    "canUpdateUI": true,
    "children": [
        "lblDollar",
        "lblAmount"
    ],
    "clipbounds": true,
    "containerweight": 100,
    "enablescrolling": true,
    "id": "flxAmountWrapper",
    "info": null,
    "iscustomlayout": false,
    "isvisible": true,
    "kuid": "f021f97286714e97a1481f6f89bb3d48",
    "layouttype": 3,
    "name": "kony.ui.FlexContainer",
    "parent": "flxAmountMain",
    "pf": "frmTransferAmountEurope",
    "retaincontentalignment": false,
    "retainflexpositionproperties": false,
    "snapgridsize": 10,
    "snaptogrid": true,
    "wType": "FlexContainer",
    "widgetalignment": 1,
    "zindex": 1
}