{
    "DNDConfig": null,
    "__parentReadjusting__": false,
    "_bottom_": {
        "type": "string",
        "value": "0dp"
    },
    "_left_": {
        "type": "string",
        "value": "0dp"
    },
    "_margin_": [
        0,
        0,
        0,
        0
    ],
    "_orientation_": 6,
    "_padding_": [
        0,
        0,
        0,
        0
    ],
    "_percent_": true,
    "_skin_": "sf9159f2a6c64cecba0c14c3fe3af05a",
    "_top_": {
        "type": "string",
        "value": "0%"
    },
    "_width_": {
        "type": "string",
        "value": "100%"
    },
    "allboxes": [],
    "allowhorizontalbounce": false,
    "allowverticalbounce": true,
    "bounces": false,
    "canUpdateUI": true,
    "children": [
        "imgResidentialAddressIcon",
        "lblResidentialAddressNickName",
        "flxResidentialAddressNickName",
        "lblResidentialAddressLineOne",
        "flxResidentialAddressLineone",
        "lblResidentialAddressCity",
        "flxResidentialAddressCity",
        "lblResidentialAddressState",
        "flxResidentialAddressState",
        "lblResidentialAddressZipCode",
        "flxResidentialAddressZipCode",
        "lblResidentialAddressCountry",
        "flxResidentialAddressDummy",
        "flxSpaceResidentialAddress",
        "btnContinueResidentialAddress"
    ],
    "clipbounds": true,
    "containerweight": 100,
    "decelerat": false,
    "dragg": false,
    "enablescrolling": true,
    "horizontalscrollindicator": true,
    "id": "flxResidentialAddressWrapper",
    "info": null,
    "iscustomlayout": false,
    "isvisible": true,
    "kuid": "f04d9ed591fa4dbaa252ad2c248c7194",
    "layouttype": 4,
    "name": "kony.ui.FlexScrollContainer",
    "pagingenabled": false,
    "parent": "flxResidentialAddress",
    "pf": "frmBenAddressEurope",
    "retaincontentalignment": false,
    "retainflexpositionproperties": false,
    "scrolldirection": 2,
    "snapgridsize": 10,
    "snaptogrid": true,
    "track": false,
    "verticalscrollindicator": true,
    "vizProps": {},
    "wType": "FlexScrollContainer",
    "widgetalignment": 1,
    "zindex": 1
}