{
    "@class": "com.kony.gen.viz.model.component.KVizTextBox2",
    "DNDConfig": null,
    "__parentReadjusting__": false,
    "_height_": {
        "type": "string",
        "value": "48dp"
    },
    "_left_": {
        "type": "string",
        "value": "20dp"
    },
    "_margin_": [
        0,
        0,
        0,
        0
    ],
    "_padding_": [
        10,
        3,
        1,
        3
    ],
    "_placeholder_": "Enter here",
    "_right_": {
        "type": "string",
        "value": "20dp"
    },
    "_skin_": "sdf964446b0346618dd1125a5e6b3540",
    "_text_": "",
    "_top_": {
        "type": "string",
        "value": "0dp"
    },
    "accessibilityconfig": {
        "a11yLabel": "Enter here"
    },
    "android": {
        "padding": [
            10,
            3,
            1,
            3
        ],
        "paddingInPixel": true
    },
    "autocapitalize": "none",
    "autocomplete": false,
    "autocorrect": false,
    "autofilter": false,
    "canUpdateUI": true,
    "centerx": {
        "type": "string",
        "value": "50.00%"
    },
    "containerheight": "",
    "containerheightmode": 1,
    "containerweight": 100,
    "contentalignment": 4,
    "focusskin": "s2688670ed0f4789900f7368aeda469c",
    "id": "txtResidentialAddressDummy",
    "info": null,
    "iphone": {
        "padding": [
            10,
            3,
            1,
            3
        ],
        "paddingInPixel": true,
        "psp": {
            "showClearButton": true
        }
    },
    "isvisible": true,
    "keyboardtype": "A",
    "kuid": "ccdb031f970b422d986a804afcfdbf7e",
    "mode": "A",
    "name": "kony.ui.TextBox2",
    "paddinginpixel": false,
    "parent": "flxResidentialAddressDummy",
    "pf": "frmBenAddressEurope",
    "placeholderi18n": "kony.mb.TransfersEurope.enterCountry",
    "placeholderskin": "s1bcf8b78d1649a9a56fc498f08472f8",
    "securetextentry": false,
    "showclearbutton": false,
    "textinputmode": "A",
    "tooltip": "",
    "viewtype": "default",
    "wType": "TextField",
    "zindex": 3
}