{
    "@class": "com.kony.gen.viz.model.component.KVizSwitch",
    "DNDConfig": null,
    "__parentReadjusting__": false,
    "_height_": {
        "type": "string",
        "value": "32dp"
    },
    "_left_": {
        "type": "string",
        "value": "20dp"
    },
    "_margin_": [
        0,
        0,
        0,
        0
    ],
    "_padding_": [
        0,
        0,
        0,
        0
    ],
    "_right_": {
        "type": "string",
        "value": "0dp"
    },
    "_skin_": "s8764efb1edc47e1aabe259cb11d344e",
    "_width_": {
        "type": "string",
        "value": "55dp"
    },
    "canUpdateUI": true,
    "centery": {
        "type": "string",
        "value": "50%"
    },
    "containerweight": 100,
    "id": "switchRememberMe",
    "info": null,
    "iphone": {
        "psp": {
            "nativeThumbLook": true
        }
    },
    "iscustomlayout": false,
    "isvisible": true,
    "kiosk": {
        "render": false
    },
    "kuid": "ade5aeb11bb5492594720199de746b14",
    "leftsidetext": "     ",
    "name": "kony.ui.Switch",
    "osPlatform": "android",
    "osVersion": "iOS7",
    "parent": "flxAddRecipient",
    "pf": "frmTransfersRecipientNameEurope",
    "retaincontentalignment": false,
    "retainflexpositionproperties": false,
    "rightsidetext": "     ",
    "selectedindex": 0,
    "wType": "Switch",
    "widgetalignment": 5,
    "zindex": 1
}