{
    "@class": "com.kony.gen.viz.model.container.KVizSegment2",
    "DNDConfig": null,
    "__parentReadjusting__": false,
    "_data_": [
        {
            "lblOption": {
                "@class": "com.viz.ide.model.segment.SimpleTextSegmentData",
                "text": "Cheque Destroyed"
            }
        },
        {
            "lblOption": {
                "@class": "com.viz.ide.model.segment.SimpleTextSegmentData",
                "text": "Cheque Stolen"
            }
        },
        {
            "lblOption": {
                "@class": "com.viz.ide.model.segment.SimpleTextSegmentData",
                "text": "Cheque Lost"
            }
        },
        {
            "lblOption": {
                "@class": "com.viz.ide.model.segment.SimpleTextSegmentData",
                "text": "Others"
            }
        }
    ],
    "_height_": {
        "type": "ref",
        "value": "preferred"
    },
    "_indicator_": "none",
    "_left_": {
        "type": "string",
        "value": "0dp"
    },
    "_margin_": [
        0,
        0,
        0,
        0
    ],
    "_orientation_": 2,
    "_padding_": [
        0,
        0,
        0,
        0
    ],
    "_top_": {
        "type": "string",
        "value": "5dp"
    },
    "_width_": {
        "type": "string",
        "value": "100%"
    },
    "android": {
        "psp": {
            "dockSectionHeaders": true
        }
    },
    "autogrowmode": 1,
    "canUpdateUI": true,
    "containerweight": 100,
    "counter": "03",
    "disabledSkins": {
        "rowFocusSkin": "s02d7ca459a74168b4573e79b9d8efec"
    },
    "enabledictionary": true,
    "focusedindex": null,
    "focuseditem": null,
    "groupcells": false,
    "hasSections": false,
    "id": "segOptions",
    "info": null,
    "ipad": {
        "psp": {
            "indicator": "rowselect"
        }
    },
    "iphone": {
        "psp": {
            "enableDictionary": true,
            "indicator": "none"
        }
    },
    "iscustomlayout": false,
    "isvisible": true,
    "kuid": "hf124e87b60446aba237fbd0804bb232",
    "masterdata": {},
    "name": "kony.ui.SegmentedUI2",
    "needpageindicator": true,
    "pageoffdotimage": "pageoffdot.png",
    "pageondotimage": "pageondot.png",
    "paginationconfig": {
        "position": "bottom"
    },
    "parent": "flxMainContainer",
    "pf": "frmSCReason",
    "retaincontentalignment": false,
    "retainflexpositionproperties": false,
    "retainselection": false,
    "rowTemplateId": "fa4ccb2fab9043fdbb9e54a780deaac1",
    "rowcounter": 3,
    "rowskin": "s7edd442a0b84fcf8effd2349b7c3044",
    "rowtemplate": "flxCheque",
    "screenlevelwidget": false,
    "seccounter": 0,
    "sectionHeaderTemplateId": null,
    "sectionheaderskin": "s65e8b0a8be54624ac979cda71a22cac",
    "selectedRows": null,
    "selectedState": false,
    "selectedindex": null,
    "selectedindices": null,
    "selecteditems": null,
    "selectedsectionindex": 0,
    "selectionbehavior": "default",
    "separatorrequired": false,
    "showscrollbars": false,
    "viewtype": "tableview",
    "vizProps": {},
    "wType": "Segment",
    "widgetalignment": 5,
    "widgetdatamap": {
        "flxCheque": "flxCheque",
        "flxMain": "flxMain",
        "lblOption": "lblOption"
    },
    "widgetskin": "s7edd442a0b84fcf8effd2349b7c3044",
    "zindex": 1
}