{
    "@class": "com.kony.gen.viz.model.container.KVizScrollFlexForm",
    "DNDConfig": null,
    "_margin_": [
        0,
        0,
        0,
        0
    ],
    "_orientation_": 1,
    "_padding_": [
        0,
        0,
        0,
        0
    ],
    "_percent_": true,
    "_skin_": "sfd374011f8943daa0815da0aecd0408",
    "_title_": "Edit Email Id's",
    "addWidgetsdone": false,
    "allboxes": [],
    "android": {
        "needAppMenu": false,
        "psp": {
            "windowSoftInputMode": 2
        }
    },
    "canUpdateUI": true,
    "children": [
        "flxHeader",
        "flxPopup",
        "flxMainContainer",
        "btnContinue",
        "flxConfirmationPopUp"
    ],
    "containerweight": 100,
    "controllerInfo": {
        "default": {
            "channel": "mobile",
            "name": "frmProfileEditEmailsController"
        }
    },
    "currentLocale": "default",
    "desktopweb": {
        "needAppMenu": false
    },
    "device": "Pixel3",
    "displayorientation": 1,
    "enabledforidletimeout": true,
    "friendlyName": "frmProfileEditEmails",
    "id": "frmProfileEditEmails",
    "ide_init": "AS_Form_g7b585ac58064fc4b296330eb8d3fcbc",
    "ide_preShow": "AS_Form_ifd6db70de3e4756bc7e9bf564846041",
    "info": null,
    "initdone": false,
    "inputaccessoryviewtype": 4,
    "ipad": {
        "needAppMenu": false,
        "psp": {
            "inputAccessoryViewType": 4
        },
        "titleBar": false
    },
    "iphone": {
        "needAppMenu": false,
        "psp": {
            "inputAccessoryViewType": 4,
            "titleBarAttributes": {
                "backBarButtonItem": {
                    "enabled": true,
                    "info": {
                        "title": ""
                    },
                    "kuid": "d1233b5e05504e7584717225f165f3e6",
                    "style": 0,
                    "tintColor": "ffffff00",
                    "type": 1
                },
                "barStyle": 0,
                "hidesBackButton": false,
                "kuid": "h440e6dc0ba548f0943b376c6957684b",
                "leftBarButtonItems": [],
                "leftItemsSupplementBackButton": true,
                "prompt": "",
                "renderTitleText": true,
                "rightBarButtonItems": [
                    {
                        "enabled": true,
                        "ide_onClick": "AS_BarButtonItem_de82b28f307e4c9983cc6034d4c3dcde",
                        "info": {
                            "title": "Cancel"
                        },
                        "kuid": "icefc277a7f5468e8b294ee63e761afa",
                        "onClick": "AS_BarButtonItem_de82b28f307e4c9983cc6034d4c3dcde",
                        "style": 0,
                        "tintColor": "ffffff00",
                        "type": 1
                    }
                ],
                "tintColor": "ffffff00",
                "translucent": false
            }
        },
        "titleBar": true
    },
    "iscustomlayout": false,
    "isvisible": true,
    "kiosk": {
        "needAppMenu": false
    },
    "kuid": "fe5ac63bec2f409da54baace771774a4",
    "layouttype": 2,
    "name": "kony.ui.Form2",
    "needappmenu": false,
    "paddinginpixel": false,
    "platform": "android",
    "prevDevice": "iPhone8Zoomed",
    "prevPlatform": "iphone",
    "retaincontentalignment": false,
    "retainflexpositionproperties": false,
    "retainscrollposition": false,
    "shellCSS": "and_Pixel3",
    "snapgridsize": 10,
    "snaptogrid": true,
    "spaan": {
        "needAppMenu": false
    },
    "spaandroidtablet": {
        "needAppMenu": false
    },
    "spabb": {
        "needAppMenu": false
    },
    "spaip": {
        "needAppMenu": false
    },
    "spaipad": {
        "needAppMenu": false
    },
    "spawindowstablet": {
        "needAppMenu": false
    },
    "spawinphone8": {
        "needAppMenu": false
    },
    "texti18n": "kony.mb.ProfileEditEmails.Title",
    "titleBarSkin": "scb8fcbdebb649d1b5900564018c8da5",
    "titlebar": false,
    "type": 3,
    "wType": "Form",
    "windows8": {
        "needAppMenu": false
    },
    "winphone8": {
        "needAppMenu": false
    }
}