{
    "@class": "com.kony.gen.viz.model.container.KVizScrollFlexForm",
    "DNDConfig": null,
    "_margin_": [
        0,
        0,
        0,
        0
    ],
    "_orientation_": 1,
    "_padding_": [
        0,
        0,
        0,
        0
    ],
    "_percent_": true,
    "_skin_": "s566790d0ee0487183e0cb45da52b7ae",
    "_title_": "Family Checking Account",
    "addWidgetsdone": false,
    "allboxes": [],
    "android": {
        "needAppMenu": false,
        "psp": {
            "windowSoftInputMode": 2
        }
    },
    "canUpdateUI": true,
    "children": [
        "flxContainer",
        "flxPopupNickName"
    ],
    "containerweight": 100,
    "controllerInfo": {
        "default": {
            "channel": "mobile",
            "name": "frmAccountInfoController"
        }
    },
    "currentLocale": "default",
    "desktopweb": {
        "needAppMenu": false
    },
    "device": "GalaxyNote",
    "displayorientation": 1,
    "enabledforidletimeout": true,
    "friendlyName": "frmAccountInfo",
    "id": "frmAccountInfo",
    "ide_init": "AS_Form_i66ea33b044345b09089a7d5197fd2ca",
    "ide_preShow": "AS_Form_f896c8a84f9a44568ac73b6c305fb9cc",
    "info": null,
    "initdone": false,
    "inputaccessoryviewtype": 4,
    "ipad": {
        "needAppMenu": false,
        "psp": {
            "inputAccessoryViewType": 4
        },
        "titleBar": false
    },
    "iphone": {
        "needAppMenu": false,
        "psp": {
            "inputAccessoryViewType": 4,
            "titleBarAttributes": {
                "backBarButtonItem": {
                    "enabled": true,
                    "info": {
                        "title": ""
                    },
                    "kuid": "h6422753015944538c400cf2fd45895b",
                    "style": 0,
                    "tintColor": "ffffff00",
                    "type": 1
                },
                "barStyle": 0,
                "hidesBackButton": false,
                "kuid": "e5f02c99dfa54855b2eac8a5cbe1d164",
                "leftBarButtonItems": [],
                "leftItemsSupplementBackButton": true,
                "prompt": "",
                "renderTitleText": true,
                "rightBarButtonItems": [
                    {
                        "enabled": true,
                        "ide_onClick": "AS_BarButtonItem_e3a32e80874c420facb54bd9bbd6cdd9",
                        "info": {
                            "title": "Edit"
                        },
                        "kuid": "dc8285cc2f884cb7b1fe84c26aae6487",
                        "onClick": "AS_BarButtonItem_e3a32e80874c420facb54bd9bbd6cdd9",
                        "style": 0,
                        "tintColor": "ffffff00",
                        "type": 1
                    }
                ],
                "tintColor": "ffffff00",
                "translucent": false
            }
        },
        "titleBar": true
    },
    "iscustomlayout": false,
    "isvisible": true,
    "kiosk": {
        "needAppMenu": false
    },
    "kuid": "i0704124596049e4b96782b0c2122a00",
    "layouttype": 2,
    "name": "kony.ui.Form2",
    "needappmenu": false,
    "paddinginpixel": false,
    "platform": "android",
    "prevDevice": "iPhone11",
    "prevPlatform": "iphone",
    "retaincontentalignment": false,
    "retainflexpositionproperties": false,
    "retainscrollposition": false,
    "shellCSS": "and_GalaxyNote",
    "snapgridsize": 10,
    "snaptogrid": true,
    "spaan": {
        "needAppMenu": false
    },
    "spaandroidtablet": {
        "needAppMenu": false
    },
    "spabb": {
        "needAppMenu": false
    },
    "spaip": {
        "needAppMenu": false
    },
    "spaipad": {
        "needAppMenu": false
    },
    "spawindowstablet": {
        "needAppMenu": false
    },
    "spawinphone8": {
        "needAppMenu": false
    },
    "titleBarSkin": "scb8fcbdebb649d1b5900564018c8da5",
    "titlebar": false,
    "type": 3,
    "wType": "Form",
    "windows8": {
        "needAppMenu": false
    },
    "winphone8": {
        "needAppMenu": false
    }
}