{
  "customCode" : {
    "responseProcessorName" : "com.kony.transaction.postprocessors.GetScheduledTransactionsPostProcessor"
  },
  "operationConfig" : {
    "name" : "getUserScheduledTransactions7582",
    "type" : "MappedToBackend",
    "cachable" : false,
    "smsEnabled" : false,
    "security" : "authorized_app_user",
    "responseEncoding" : "UTF-8",
    "httpMethod" : "GET",
    "decodeResponseBody" : false,
    "iMapping" : "<?xml version=\"1.0\" encoding=\"UTF-8\" standalone=\"yes\"?><mapper xmlns=\"http://www.kony.com/ns/mapper\"><map inputpath=\"request_in\" outputpath=\"request_out\"><set-param inputpath=\"lastRecordNumber\" outputpath=\"lastRecordNumber\"/><set-param inputpath=\"firstRecordNumber\" outputpath=\"firstRecordNumber\"/><set-param inputpath=\"sortBy\" outputpath=\"sortBy\"/><set-param inputpath=\"order\" outputpath=\"order\"/></map></mapper>",
    "oMapping" : "<?xml version=\"1.0\" encoding=\"UTF-8\" standalone=\"yes\"?><mapper xmlns=\"http://www.kony.com/ns/mapper\">                                  <map inputpath=\"response_in\" outputpath=\"response_out\">                                                                    <map inputpath=\"accountransactionview\" outputpath=\"Transactions\">                                                                                                      <set-param inputpath=\"amount\" outputpath=\"amount\"/>                                                                                                      <set-param inputpath=\"cashlessEmail\" outputpath=\"cashlessEmail\"/>                                                                                                      <set-param inputpath=\"cashlessMode\" outputpath=\"cashlessMode\"/>                                                                                                      <set-param inputpath=\"cashlessOTP\" outputpath=\"cashlessOTP\"/>                                                                                                      <set-param inputpath=\"cashlessOTPValidDate\" outputpath=\"cashlessOTPValidDate\"/>                                                                                                      <set-param inputpath=\"cashlessPersonName\" outputpath=\"cashlessPersonName\"/>                                                                                                      <set-param inputpath=\"cashlessPhone\" outputpath=\"cashlessPhone\"/>                                                                                                      <set-param inputpath=\"cashlessSecurityCode\" outputpath=\"cashlessSecurityCode\"/>                                                                                                      <set-param inputpath=\"cashWithdrawalTransactionStatus\" outputpath=\"cashWithdrawalTransactionStatus\"/>                                                                                                      <set-param inputpath=\"category\" outputpath=\"category\"/>                                                                                                      <set-param inputpath=\"description\" outputpath=\"description\"/>                                                                                                      <set-param inputpath=\"toExternalAccountNumber\" outputpath=\"ExternalAccountNumber\"/>                                                                                                      <set-param inputpath=\"frequencyEndDate\" outputpath=\"frequencyEndDate\"/>                                                                                                      <set-param inputpath=\"frequencyStartDate\" outputpath=\"frequencyStartDate\"/>                                                                                                      <set-param inputpath=\"frequencyType\" outputpath=\"frequencyType\"/>                                                                                                      <set-param inputpath=\"fromAccountBalance\" outputpath=\"fromAccountBalance\"/>                                                                                                      <set-param inputpath=\"fromAccountName\" outputpath=\"fromAccountName\"/>                                                                                                      <set-param inputpath=\"fromAccountNumber\" outputpath=\"fromAccountNumber\"/>                                                                                                      <set-param inputpath=\"fromAccountType\" outputpath=\"fromAccountType\"/>                                                                                                      <set-param inputpath=\"fromAccountNickName\" outputpath=\"fromNickName\"/>                                                                                                      <set-param inputpath=\"hasDepositImage\" outputpath=\"hasDepositImage\"/>                                                                                                      <set-param inputpath=\"isScheduled\" outputpath=\"isScheduled\"/>                                                                                                      <set-param inputpath=\"numberOfRecurrences\" outputpath=\"numberOfRecurrences\"/>                                                                                                      <set-param inputpath=\"Payee_id\" outputpath=\"payeeId\"/>                                                                                                      <set-param inputpath=\"payeeNickName\" outputpath=\"payeeNickName\"/>                                                                              <set-param inputpath=\"payeeAddressLine1\" outputpath=\"payeeAddressLine1\"/>                                                                              <set-param inputpath=\"payeeAddressLine2\" outputpath=\"payeeAddressLine2\"/>                                                                              <set-param inputpath=\"email\" outputpath=\"payPersonEmail\"/>                                                                                                      <set-param inputpath=\"name\" outputpath=\"payPersonName\"/>                                                                                                      <set-param inputpath=\"phone\" outputpath=\"payPersonPhone\"/>                                                                                                      <set-param inputpath=\"recurrenceDesc\" outputpath=\"recurrenceDesc\"/>                                                                                                      <set-param inputpath=\"scheduledDate\" outputpath=\"scheduledDate\"/>                                                                                                      <set-param inputpath=\"statusDesc\" outputpath=\"statusDescription\"/>                                                                                                      <set-param inputpath=\"toAccountName\" outputpath=\"toAccountName\"/>                                                                                                      <set-param inputpath=\"toAccountNumber\" outputpath=\"toAccountNumber\"/>                                                                                                      <set-param inputpath=\"toAccountType\" outputpath=\"toAccountType\"/>                                                                                                      <set-param inputpath=\"transactionComments\" outputpath=\"transactionComments\"/>                                                                                                      <set-param inputpath=\"transactionDate\" outputpath=\"transactionDate\"/>                                                                                                      <set-param inputpath=\"Id\" outputpath=\"transactionId\"/>                                                                                                      <set-param inputpath=\"transactionsNotes\" outputpath=\"transactionsNotes\"/>                                                                                                      <set-param inputpath=\"transactionType\" outputpath=\"transactionType\"/>                                                                                                      <set-param inputpath=\"viewReportLink\" outputpath=\"viewReportLink\"/>    \t                                                                    <set-param inputpath=\"IBAN\" outputpath=\"IBAN\"/>                                                                                                                        <set-param inputpath=\"sortCode\" outputpath=\"sortCode\"/>                                                                                    <set-param inputpath=\"fee\" outputpath=\"fee\"/>                                                                                            <set-param inputpath=\"feeCurrency\" outputpath=\"feeCurrency\"/>                                                                                                                        <set-param inputpath=\"feePaidByReceipent\" outputpath=\"feePaidByReceipent\"/>                                                                                                                        <set-param inputpath=\"convertedAmount\" outputpath=\"convertedAmount\"/>                                                                                                                  <set-param inputpath=\"transactionCurrency\" outputpath=\"transactionCurrency\"/>                                                                                                                        <set-param inputpath=\"baseCurrency\" outputpath=\"baseCurrency\"/>                                                                    <set-param inputpath=\"isInternationalAccount\" outputpath=\"isInternationalAccount\"/>                                                        <set-param inputpath=\"swiftCode\" outputpath=\"swiftCode\"/>                                                      <set-param inputpath=\"bankName\" outputpath=\"bankName\"/>                              <set-param inputpath=\"serviceName\" outputpath=\"serviceName\"/>             <set-param inputpath=\"billerId\" outputpath=\"billerId\"/>       <set-param inputpath=\"isBusinessPayee\" outputpath=\"isBusinessPayee\"/>    </map>                                  </map></mapper>",
    "oVisualMappingData" : "{\"nodeDataArray\":[{\"isGroup\":true,\"key\":\"response_out\",\"text\":\"Transactions\",\"xy\":\"770 100\"},{\"isGroup\":true,\"key\":\"response_in\",\"text\":\"dbpNonProductServices (1.0).getUserScheduledTransactions\",\"xy\":\"150 100\"}],\"linkDataArray\":[{\"category\":\"Mapping\",\"from\":\"source:Transactions:amount:\",\"to\":\"target:Transactions:amount:\",\"fromPort\":\"source:Transactions:amount:\",\"toPort\":\"target:Transactions:amount:\",\"visible\":true,\"common\":true},{\"category\":\"Mapping\",\"from\":\"source:Transactions:cashlessEmail:\",\"to\":\"target:Transactions:cashlessEmail:\",\"fromPort\":\"source:Transactions:cashlessEmail:\",\"toPort\":\"target:Transactions:cashlessEmail:\",\"visible\":true,\"common\":true},{\"category\":\"Mapping\",\"from\":\"source:Transactions:cashlessMode:\",\"to\":\"target:Transactions:cashlessMode:\",\"fromPort\":\"source:Transactions:cashlessMode:\",\"toPort\":\"target:Transactions:cashlessMode:\",\"visible\":true,\"common\":true},{\"category\":\"Mapping\",\"from\":\"source:Transactions:cashlessOTP:\",\"to\":\"target:Transactions:cashlessOTP:\",\"fromPort\":\"source:Transactions:cashlessOTP:\",\"toPort\":\"target:Transactions:cashlessOTP:\",\"visible\":true,\"common\":true},{\"category\":\"Mapping\",\"from\":\"source:Transactions:cashlessOTPValidDate:\",\"to\":\"target:Transactions:cashlessOTPValidDate:\",\"fromPort\":\"source:Transactions:cashlessOTPValidDate:\",\"toPort\":\"target:Transactions:cashlessOTPValidDate:\",\"visible\":true,\"common\":true},{\"category\":\"Mapping\",\"from\":\"source:Transactions:cashlessPersonName:\",\"to\":\"target:Transactions:cashlessPersonName:\",\"fromPort\":\"source:Transactions:cashlessPersonName:\",\"toPort\":\"target:Transactions:cashlessPersonName:\",\"visible\":true,\"common\":true},{\"category\":\"Mapping\",\"from\":\"source:Transactions:cashlessPhone:\",\"to\":\"target:Transactions:cashlessPhone:\",\"fromPort\":\"source:Transactions:cashlessPhone:\",\"toPort\":\"target:Transactions:cashlessPhone:\",\"visible\":true,\"common\":true},{\"category\":\"Mapping\",\"from\":\"source:Transactions:cashlessSecurityCode:\",\"to\":\"target:Transactions:cashlessSecurityCode:\",\"fromPort\":\"source:Transactions:cashlessSecurityCode:\",\"toPort\":\"target:Transactions:cashlessSecurityCode:\",\"visible\":true,\"common\":true},{\"category\":\"Mapping\",\"from\":\"source:Transactions:cashWithdrawalTransactionStatus:\",\"to\":\"target:Transactions:cashWithdrawalTransactionStatus:\",\"fromPort\":\"source:Transactions:cashWithdrawalTransactionStatus:\",\"toPort\":\"target:Transactions:cashWithdrawalTransactionStatus:\",\"visible\":true,\"common\":true},{\"category\":\"Mapping\",\"from\":\"source:Transactions:category:\",\"to\":\"target:Transactions:category:\",\"fromPort\":\"source:Transactions:category:\",\"toPort\":\"target:Transactions:category:\",\"visible\":true,\"common\":true},{\"category\":\"Mapping\",\"from\":\"source:Transactions:description:\",\"to\":\"target:Transactions:description:\",\"fromPort\":\"source:Transactions:description:\",\"toPort\":\"target:Transactions:description:\",\"visible\":true,\"common\":true},{\"category\":\"Mapping\",\"from\":\"source:Transactions:ExternalAccountNumber:\",\"to\":\"target:Transactions:ExternalAccountNumber:\",\"fromPort\":\"source:Transactions:ExternalAccountNumber:\",\"toPort\":\"target:Transactions:ExternalAccountNumber:\",\"visible\":true,\"common\":true},{\"category\":\"Mapping\",\"from\":\"source:Transactions:frequencyEndDate:\",\"to\":\"target:Transactions:frequencyEndDate:\",\"fromPort\":\"source:Transactions:frequencyEndDate:\",\"toPort\":\"target:Transactions:frequencyEndDate:\",\"visible\":true,\"common\":true},{\"category\":\"Mapping\",\"from\":\"source:Transactions:frequencyStartDate:\",\"to\":\"target:Transactions:frequencyStartDate:\",\"fromPort\":\"source:Transactions:frequencyStartDate:\",\"toPort\":\"target:Transactions:frequencyStartDate:\",\"visible\":true,\"common\":true},{\"category\":\"Mapping\",\"from\":\"source:Transactions:frequencyType:\",\"to\":\"target:Transactions:frequencyType:\",\"fromPort\":\"source:Transactions:frequencyType:\",\"toPort\":\"target:Transactions:frequencyType:\",\"visible\":true,\"common\":true},{\"category\":\"Mapping\",\"from\":\"source:Transactions:fromAccountBalance:\",\"to\":\"target:Transactions:fromAccountBalance:\",\"fromPort\":\"source:Transactions:fromAccountBalance:\",\"toPort\":\"target:Transactions:fromAccountBalance:\",\"visible\":true,\"common\":true},{\"category\":\"Mapping\",\"from\":\"source:Transactions:fromAccountName:\",\"to\":\"target:Transactions:fromAccountName:\",\"fromPort\":\"source:Transactions:fromAccountName:\",\"toPort\":\"target:Transactions:fromAccountName:\",\"visible\":true,\"common\":true},{\"category\":\"Mapping\",\"from\":\"source:Transactions:fromAccountNumber:\",\"to\":\"target:Transactions:fromAccountNumber:\",\"fromPort\":\"source:Transactions:fromAccountNumber:\",\"toPort\":\"target:Transactions:fromAccountNumber:\",\"visible\":true,\"common\":true},{\"category\":\"Mapping\",\"from\":\"source:Transactions:fromAccountType:\",\"to\":\"target:Transactions:fromAccountType:\",\"fromPort\":\"source:Transactions:fromAccountType:\",\"toPort\":\"target:Transactions:fromAccountType:\",\"visible\":true,\"common\":true},{\"category\":\"Mapping\",\"from\":\"source:Transactions:fromNickName:\",\"to\":\"target:Transactions:fromNickName:\",\"fromPort\":\"source:Transactions:fromNickName:\",\"toPort\":\"target:Transactions:fromNickName:\",\"visible\":true,\"common\":true},{\"category\":\"Mapping\",\"from\":\"source:Transactions:hasDepositImage:\",\"to\":\"target:Transactions:hasDepositImage:\",\"fromPort\":\"source:Transactions:hasDepositImage:\",\"toPort\":\"target:Transactions:hasDepositImage:\",\"visible\":true,\"common\":true},{\"category\":\"Mapping\",\"from\":\"source:Transactions:isScheduled:\",\"to\":\"target:Transactions:isScheduled:\",\"fromPort\":\"source:Transactions:isScheduled:\",\"toPort\":\"target:Transactions:isScheduled:\",\"visible\":true,\"common\":true},{\"category\":\"Mapping\",\"from\":\"source:Transactions:numberOfRecurrences:\",\"to\":\"target:Transactions:numberOfRecurrences:\",\"fromPort\":\"source:Transactions:numberOfRecurrences:\",\"toPort\":\"target:Transactions:numberOfRecurrences:\",\"visible\":true,\"common\":true},{\"category\":\"Mapping\",\"from\":\"source:Transactions:payeeId:\",\"to\":\"target:Transactions:payeeId:\",\"fromPort\":\"source:Transactions:payeeId:\",\"toPort\":\"target:Transactions:payeeId:\",\"visible\":true,\"common\":true},{\"category\":\"Mapping\",\"from\":\"source:Transactions:payeeNickName:\",\"to\":\"target:Transactions:payeeNickName:\",\"fromPort\":\"source:Transactions:payeeNickName:\",\"toPort\":\"target:Transactions:payeeNickName:\",\"visible\":true,\"common\":true},{\"category\":\"Mapping\",\"from\":\"source:Transactions:payPersonEmail:\",\"to\":\"target:Transactions:payPersonEmail:\",\"fromPort\":\"source:Transactions:payPersonEmail:\",\"toPort\":\"target:Transactions:payPersonEmail:\",\"visible\":true,\"common\":true},{\"category\":\"Mapping\",\"from\":\"source:Transactions:payPersonName:\",\"to\":\"target:Transactions:payPersonName:\",\"fromPort\":\"source:Transactions:payPersonName:\",\"toPort\":\"target:Transactions:payPersonName:\",\"visible\":true,\"common\":true},{\"category\":\"Mapping\",\"from\":\"source:Transactions:payPersonPhone:\",\"to\":\"target:Transactions:payPersonPhone:\",\"fromPort\":\"source:Transactions:payPersonPhone:\",\"toPort\":\"target:Transactions:payPersonPhone:\",\"visible\":true,\"common\":true},{\"category\":\"Mapping\",\"from\":\"source:Transactions:recurrenceDesc:\",\"to\":\"target:Transactions:recurrenceDesc:\",\"fromPort\":\"source:Transactions:recurrenceDesc:\",\"toPort\":\"target:Transactions:recurrenceDesc:\",\"visible\":true,\"common\":true},{\"category\":\"Mapping\",\"from\":\"source:Transactions:scheduledDate:\",\"to\":\"target:Transactions:scheduledDate:\",\"fromPort\":\"source:Transactions:scheduledDate:\",\"toPort\":\"target:Transactions:scheduledDate:\",\"visible\":true,\"common\":true},{\"category\":\"Mapping\",\"from\":\"source:Transactions:statusDescription:\",\"to\":\"target:Transactions:statusDescription:\",\"fromPort\":\"source:Transactions:statusDescription:\",\"toPort\":\"target:Transactions:statusDescription:\",\"visible\":true,\"common\":true},{\"category\":\"Mapping\",\"from\":\"source:Transactions:toAccountName:\",\"to\":\"target:Transactions:toAccountName:\",\"fromPort\":\"source:Transactions:toAccountName:\",\"toPort\":\"target:Transactions:toAccountName:\",\"visible\":true,\"common\":true},{\"category\":\"Mapping\",\"from\":\"source:Transactions:toAccountNumber:\",\"to\":\"target:Transactions:toAccountNumber:\",\"fromPort\":\"source:Transactions:toAccountNumber:\",\"toPort\":\"target:Transactions:toAccountNumber:\",\"visible\":true,\"common\":true},{\"category\":\"Mapping\",\"from\":\"source:Transactions:toAccountType:\",\"to\":\"target:Transactions:toAccountType:\",\"fromPort\":\"source:Transactions:toAccountType:\",\"toPort\":\"target:Transactions:toAccountType:\",\"visible\":true,\"common\":true},{\"category\":\"Mapping\",\"from\":\"source:Transactions:transactionComments:\",\"to\":\"target:Transactions:transactionComments:\",\"fromPort\":\"source:Transactions:transactionComments:\",\"toPort\":\"target:Transactions:transactionComments:\",\"visible\":true,\"common\":true},{\"category\":\"Mapping\",\"from\":\"source:Transactions:transactionDate:\",\"to\":\"target:Transactions:transactionDate:\",\"fromPort\":\"source:Transactions:transactionDate:\",\"toPort\":\"target:Transactions:transactionDate:\",\"visible\":true,\"common\":true},{\"category\":\"Mapping\",\"from\":\"source:Transactions:transactionId:\",\"to\":\"target:Transactions:transactionId:\",\"fromPort\":\"source:Transactions:transactionId:\",\"toPort\":\"target:Transactions:transactionId:\",\"visible\":true,\"common\":true},{\"category\":\"Mapping\",\"from\":\"source:Transactions:transactionsNotes:\",\"to\":\"target:Transactions:transactionsNotes:\",\"fromPort\":\"source:Transactions:transactionsNotes:\",\"toPort\":\"target:Transactions:transactionsNotes:\",\"visible\":true,\"common\":true},{\"category\":\"Mapping\",\"from\":\"source:Transactions:transactiontype:\",\"to\":\"target:Transactions:transactionType:\",\"fromPort\":\"source:Transactions:transactiontype:\",\"toPort\":\"target:Transactions:transactionType:\",\"visible\":true,\"common\":true},{\"category\":\"Mapping\",\"from\":\"source:Transactions:viewReportLink:\",\"to\":\"target:Transactions:viewReportLink:\",\"fromPort\":\"source:Transactions:viewReportLink:\",\"toPort\":\"target:Transactions:viewReportLink:\",\"visible\":true,\"common\":true},{\"from\":\"target\",\"to\":\"target:Transactions\",\"fromPort\":\"target\",\"toPort\":\"target:Transactions\",\"visible\":true,\"common\":false},{\"from\":\"target:Transactions\",\"to\":\"target:Transactions:fields\",\"fromPort\":\"target:Transactions\",\"toPort\":\"target:Transactions:fields\",\"visible\":true,\"common\":false},{\"from\":\"target:Transactions:fields\",\"to\":\"target:Transactions:accountID:\",\"fromPort\":\"target:Transactions:fields\",\"toPort\":\"target:Transactions:accountID:\",\"visible\":true,\"common\":false},{\"from\":\"target:Transactions:fields\",\"to\":\"target:Transactions:accountNumber:\",\"fromPort\":\"target:Transactions:fields\",\"toPort\":\"target:Transactions:accountNumber:\",\"visible\":true,\"common\":false},{\"from\":\"target:Transactions:fields\",\"to\":\"target:Transactions:amount:\",\"fromPort\":\"target:Transactions:fields\",\"toPort\":\"target:Transactions:amount:\",\"visible\":true,\"common\":false},{\"from\":\"target:Transactions:fields\",\"to\":\"target:Transactions:amountTransferedTillNow:\",\"fromPort\":\"target:Transactions:fields\",\"toPort\":\"target:Transactions:amountTransferedTillNow:\",\"visible\":true,\"common\":false},{\"from\":\"target:Transactions:fields\",\"to\":\"target:Transactions:authenticationRequired:\",\"fromPort\":\"target:Transactions:fields\",\"toPort\":\"target:Transactions:authenticationRequired:\",\"visible\":true,\"common\":false},{\"from\":\"target:Transactions:fields\",\"to\":\"target:Transactions:billCategory:\",\"fromPort\":\"target:Transactions:fields\",\"toPort\":\"target:Transactions:billCategory:\",\"visible\":true,\"common\":false},{\"from\":\"target:Transactions:fields\",\"to\":\"target:Transactions:billCategoryId:\",\"fromPort\":\"target:Transactions:fields\",\"toPort\":\"target:Transactions:billCategoryId:\",\"visible\":true,\"common\":false},{\"from\":\"target:Transactions:fields\",\"to\":\"target:Transactions:billDueAmount:\",\"fromPort\":\"target:Transactions:fields\",\"toPort\":\"target:Transactions:billDueAmount:\",\"visible\":true,\"common\":false},{\"from\":\"target:Transactions:fields\",\"to\":\"target:Transactions:billDueDate:\",\"fromPort\":\"target:Transactions:fields\",\"toPort\":\"target:Transactions:billDueDate:\",\"visible\":true,\"common\":false},{\"from\":\"target:Transactions:fields\",\"to\":\"target:Transactions:billerCategoryName:\",\"fromPort\":\"target:Transactions:fields\",\"toPort\":\"target:Transactions:billerCategoryName:\",\"visible\":true,\"common\":false},{\"from\":\"target:Transactions:fields\",\"to\":\"target:Transactions:billGeneratedDate:\",\"fromPort\":\"target:Transactions:fields\",\"toPort\":\"target:Transactions:billGeneratedDate:\",\"visible\":true,\"common\":false},{\"from\":\"target:Transactions:fields\",\"to\":\"target:Transactions:billid:\",\"fromPort\":\"target:Transactions:fields\",\"toPort\":\"target:Transactions:billid:\",\"visible\":true,\"common\":false},{\"from\":\"target:Transactions:fields\",\"to\":\"target:Transactions:billPaidAmount:\",\"fromPort\":\"target:Transactions:fields\",\"toPort\":\"target:Transactions:billPaidAmount:\",\"visible\":true,\"common\":false},{\"from\":\"target:Transactions:fields\",\"to\":\"target:Transactions:billPaidDate:\",\"fromPort\":\"target:Transactions:fields\",\"toPort\":\"target:Transactions:billPaidDate:\",\"visible\":true,\"common\":false},{\"from\":\"target:Transactions:fields\",\"to\":\"target:Transactions:bulkPayString:\",\"fromPort\":\"target:Transactions:fields\",\"toPort\":\"target:Transactions:bulkPayString:\",\"visible\":true,\"common\":false},{\"from\":\"target:Transactions:fields\",\"to\":\"target:Transactions:cashlessEmail:\",\"fromPort\":\"target:Transactions:fields\",\"toPort\":\"target:Transactions:cashlessEmail:\",\"visible\":true,\"common\":false},{\"from\":\"target:Transactions:fields\",\"to\":\"target:Transactions:cashlessMode:\",\"fromPort\":\"target:Transactions:fields\",\"toPort\":\"target:Transactions:cashlessMode:\",\"visible\":true,\"common\":false},{\"from\":\"target:Transactions:fields\",\"to\":\"target:Transactions:cashlessOTP:\",\"fromPort\":\"target:Transactions:fields\",\"toPort\":\"target:Transactions:cashlessOTP:\",\"visible\":true,\"common\":false},{\"from\":\"target:Transactions:fields\",\"to\":\"target:Transactions:cashlessOTPValidDate:\",\"fromPort\":\"target:Transactions:fields\",\"toPort\":\"target:Transactions:cashlessOTPValidDate:\",\"visible\":true,\"common\":false},{\"from\":\"target:Transactions:fields\",\"to\":\"target:Transactions:cashlessPersonName:\",\"fromPort\":\"target:Transactions:fields\",\"toPort\":\"target:Transactions:cashlessPersonName:\",\"visible\":true,\"common\":false},{\"from\":\"target:Transactions:fields\",\"to\":\"target:Transactions:cashlessPhone:\",\"fromPort\":\"target:Transactions:fields\",\"toPort\":\"target:Transactions:cashlessPhone:\",\"visible\":true,\"common\":false},{\"from\":\"target:Transactions:fields\",\"to\":\"target:Transactions:cashlessPin:\",\"fromPort\":\"target:Transactions:fields\",\"toPort\":\"target:Transactions:cashlessPin:\",\"visible\":true,\"common\":false},{\"from\":\"target:Transactions:fields\",\"to\":\"target:Transactions:cashlessSecurityCode:\",\"fromPort\":\"target:Transactions:fields\",\"toPort\":\"target:Transactions:cashlessSecurityCode:\",\"visible\":true,\"common\":false},{\"from\":\"target:Transactions:fields\",\"to\":\"target:Transactions:cashWithdrawalTransactionStatus:\",\"fromPort\":\"target:Transactions:fields\",\"toPort\":\"target:Transactions:cashWithdrawalTransactionStatus:\",\"visible\":true,\"common\":false},{\"from\":\"target:Transactions:fields\",\"to\":\"target:Transactions:category:\",\"fromPort\":\"target:Transactions:fields\",\"toPort\":\"target:Transactions:category:\",\"visible\":true,\"common\":false},{\"from\":\"target:Transactions:fields\",\"to\":\"target:Transactions:checkImage:\",\"fromPort\":\"target:Transactions:fields\",\"toPort\":\"target:Transactions:checkImage:\",\"visible\":true,\"common\":false},{\"from\":\"target:Transactions:fields\",\"to\":\"target:Transactions:checkImageBack:\",\"fromPort\":\"target:Transactions:fields\",\"toPort\":\"target:Transactions:checkImageBack:\",\"visible\":true,\"common\":false},{\"from\":\"target:Transactions:fields\",\"to\":\"target:Transactions:checkNumber:\",\"fromPort\":\"target:Transactions:fields\",\"toPort\":\"target:Transactions:checkNumber:\",\"visible\":true,\"common\":false},{\"from\":\"target:Transactions:fields\",\"to\":\"target:Transactions:deliverBy:\",\"fromPort\":\"target:Transactions:fields\",\"toPort\":\"target:Transactions:deliverBy:\",\"visible\":true,\"common\":false},{\"from\":\"target:Transactions:fields\",\"to\":\"target:Transactions:description:\",\"fromPort\":\"target:Transactions:fields\",\"toPort\":\"target:Transactions:description:\",\"visible\":true,\"common\":false},{\"from\":\"target:Transactions:fields\",\"to\":\"target:Transactions:eBillEnable:\",\"fromPort\":\"target:Transactions:fields\",\"toPort\":\"target:Transactions:eBillEnable:\",\"visible\":true,\"common\":false},{\"from\":\"target:Transactions:fields\",\"to\":\"target:Transactions:eBillSupport:\",\"fromPort\":\"target:Transactions:fields\",\"toPort\":\"target:Transactions:eBillSupport:\",\"visible\":true,\"common\":false},{\"from\":\"target:Transactions:fields\",\"to\":\"target:Transactions:ebillURL:\",\"fromPort\":\"target:Transactions:fields\",\"toPort\":\"target:Transactions:ebillURL:\",\"visible\":true,\"common\":false},{\"from\":\"target:Transactions:fields\",\"to\":\"target:Transactions:errmsg:\",\"fromPort\":\"target:Transactions:fields\",\"toPort\":\"target:Transactions:errmsg:\",\"visible\":true,\"common\":false},{\"from\":\"target:Transactions:fields\",\"to\":\"target:Transactions:ExternalAccountNumber:\",\"fromPort\":\"target:Transactions:fields\",\"toPort\":\"target:Transactions:ExternalAccountNumber:\",\"visible\":true,\"common\":false},{\"from\":\"target:Transactions:fields\",\"to\":\"target:Transactions:firstDeposit:\",\"fromPort\":\"target:Transactions:fields\",\"toPort\":\"target:Transactions:firstDeposit:\",\"visible\":true,\"common\":false},{\"from\":\"target:Transactions:fields\",\"to\":\"target:Transactions:firstRecordNumber:\",\"fromPort\":\"target:Transactions:fields\",\"toPort\":\"target:Transactions:firstRecordNumber:\",\"visible\":true,\"common\":false},{\"from\":\"target:Transactions:fields\",\"to\":\"target:Transactions:frequencyEndDate:\",\"fromPort\":\"target:Transactions:fields\",\"toPort\":\"target:Transactions:frequencyEndDate:\",\"visible\":true,\"common\":false},{\"from\":\"target:Transactions:fields\",\"to\":\"target:Transactions:frequencyStartDate:\",\"fromPort\":\"target:Transactions:fields\",\"toPort\":\"target:Transactions:frequencyStartDate:\",\"visible\":true,\"common\":false},{\"from\":\"target:Transactions:fields\",\"to\":\"target:Transactions:frequencyType:\",\"fromPort\":\"target:Transactions:fields\",\"toPort\":\"target:Transactions:frequencyType:\",\"visible\":true,\"common\":false},{\"from\":\"target:Transactions:fields\",\"to\":\"target:Transactions:fromAccountBalance:\",\"fromPort\":\"target:Transactions:fields\",\"toPort\":\"target:Transactions:fromAccountBalance:\",\"visible\":true,\"common\":false},{\"from\":\"target:Transactions:fields\",\"to\":\"target:Transactions:fromAccountName:\",\"fromPort\":\"target:Transactions:fields\",\"toPort\":\"target:Transactions:fromAccountName:\",\"visible\":true,\"common\":false},{\"from\":\"target:Transactions:fields\",\"to\":\"target:Transactions:fromAccountNumber:\",\"fromPort\":\"target:Transactions:fields\",\"toPort\":\"target:Transactions:fromAccountNumber:\",\"visible\":true,\"common\":false},{\"from\":\"target:Transactions:fields\",\"to\":\"target:Transactions:fromAccountType:\",\"fromPort\":\"target:Transactions:fields\",\"toPort\":\"target:Transactions:fromAccountType:\",\"visible\":true,\"common\":false},{\"from\":\"target:Transactions:fields\",\"to\":\"target:Transactions:fromCheckNumber:\",\"fromPort\":\"target:Transactions:fields\",\"toPort\":\"target:Transactions:fromCheckNumber:\",\"visible\":true,\"common\":false},{\"from\":\"target:Transactions:fields\",\"to\":\"target:Transactions:fromNickName:\",\"fromPort\":\"target:Transactions:fields\",\"toPort\":\"target:Transactions:fromNickName:\",\"visible\":true,\"common\":false},{\"from\":\"target:Transactions:fields\",\"to\":\"target:Transactions:hasDepositImage:\",\"fromPort\":\"target:Transactions:fields\",\"toPort\":\"target:Transactions:hasDepositImage:\",\"visible\":true,\"common\":false},{\"from\":\"target:Transactions:fields\",\"to\":\"target:Transactions:isScheduled:\",\"fromPort\":\"target:Transactions:fields\",\"toPort\":\"target:Transactions:isScheduled:\",\"visible\":true,\"common\":false},{\"from\":\"target:Transactions:fields\",\"to\":\"target:Transactions:lastRecordNumber:\",\"fromPort\":\"target:Transactions:fields\",\"toPort\":\"target:Transactions:lastRecordNumber:\",\"visible\":true,\"common\":false},{\"from\":\"target:Transactions:fields\",\"to\":\"target:Transactions:limit:\",\"fromPort\":\"target:Transactions:fields\",\"toPort\":\"target:Transactions:limit:\",\"visible\":true,\"common\":false},{\"from\":\"target:Transactions:fields\",\"to\":\"target:Transactions:numberOfRecurrences:\",\"fromPort\":\"target:Transactions:fields\",\"toPort\":\"target:Transactions:numberOfRecurrences:\",\"visible\":true,\"common\":false},{\"from\":\"target:Transactions:fields\",\"to\":\"target:Transactions:offset:\",\"fromPort\":\"target:Transactions:fields\",\"toPort\":\"target:Transactions:offset:\",\"visible\":true,\"common\":false},{\"from\":\"target:Transactions:fields\",\"to\":\"target:Transactions:order:\",\"fromPort\":\"target:Transactions:fields\",\"toPort\":\"target:Transactions:order:\",\"visible\":true,\"common\":false},{\"from\":\"target:Transactions:fields\",\"to\":\"target:Transactions:otp:\",\"fromPort\":\"target:Transactions:fields\",\"toPort\":\"target:Transactions:otp:\",\"visible\":true,\"common\":false},{\"from\":\"target:Transactions:fields\",\"to\":\"target:Transactions:p2pContact:\",\"fromPort\":\"target:Transactions:fields\",\"toPort\":\"target:Transactions:p2pContact:\",\"visible\":true,\"common\":false},{\"from\":\"target:Transactions:fields\",\"to\":\"target:Transactions:p2pRequiredDate:\",\"fromPort\":\"target:Transactions:fields\",\"toPort\":\"target:Transactions:p2pRequiredDate:\",\"visible\":true,\"common\":false},{\"from\":\"target:Transactions:fields\",\"to\":\"target:Transactions:payeeAccountNumber:\",\"fromPort\":\"target:Transactions:fields\",\"toPort\":\"target:Transactions:payeeAccountNumber:\",\"visible\":true,\"common\":false},{\"from\":\"target:Transactions:fields\",\"to\":\"target:Transactions:payeeAddressLine1:\",\"fromPort\":\"target:Transactions:fields\",\"toPort\":\"target:Transactions:payeeAddressLine1:\",\"visible\":true,\"common\":false},{\"from\":\"target:Transactions:fields\",\"to\":\"target:Transactions:payeeId:\",\"fromPort\":\"target:Transactions:fields\",\"toPort\":\"target:Transactions:payeeId:\",\"visible\":true,\"common\":false},{\"from\":\"target:Transactions:fields\",\"to\":\"target:Transactions:payeeName:\",\"fromPort\":\"target:Transactions:fields\",\"toPort\":\"target:Transactions:payeeName:\",\"visible\":true,\"common\":false},{\"from\":\"target:Transactions:fields\",\"to\":\"target:Transactions:payeeNickName:\",\"fromPort\":\"target:Transactions:fields\",\"toPort\":\"target:Transactions:payeeNickName:\",\"visible\":true,\"common\":false},{\"from\":\"target:Transactions:fields\",\"to\":\"target:Transactions:payoffFlag:\",\"fromPort\":\"target:Transactions:fields\",\"toPort\":\"target:Transactions:payoffFlag:\",\"visible\":true,\"common\":false},{\"from\":\"target:Transactions:fields\",\"to\":\"target:Transactions:payPersonEmail:\",\"fromPort\":\"target:Transactions:fields\",\"toPort\":\"target:Transactions:payPersonEmail:\",\"visible\":true,\"common\":false},{\"from\":\"target:Transactions:fields\",\"to\":\"target:Transactions:payPersonName:\",\"fromPort\":\"target:Transactions:fields\",\"toPort\":\"target:Transactions:payPersonName:\",\"visible\":true,\"common\":false},{\"from\":\"target:Transactions:fields\",\"to\":\"target:Transactions:payPersonPhone:\",\"fromPort\":\"target:Transactions:fields\",\"toPort\":\"target:Transactions:payPersonPhone:\",\"visible\":true,\"common\":false},{\"from\":\"target:Transactions:fields\",\"to\":\"target:Transactions:penaltyFlag:\",\"fromPort\":\"target:Transactions:fields\",\"toPort\":\"target:Transactions:penaltyFlag:\",\"visible\":true,\"common\":false},{\"from\":\"target:Transactions:fields\",\"to\":\"target:Transactions:personId:\",\"fromPort\":\"target:Transactions:fields\",\"toPort\":\"target:Transactions:personId:\",\"visible\":true,\"common\":false},{\"from\":\"target:Transactions:fields\",\"to\":\"target:Transactions:recurrenceDesc:\",\"fromPort\":\"target:Transactions:fields\",\"toPort\":\"target:Transactions:recurrenceDesc:\",\"visible\":true,\"common\":false},{\"from\":\"target:Transactions:fields\",\"to\":\"target:Transactions:referenceId:\",\"fromPort\":\"target:Transactions:fields\",\"toPort\":\"target:Transactions:referenceId:\",\"visible\":true,\"common\":false},{\"from\":\"target:Transactions:fields\",\"to\":\"target:Transactions:scheduledDate:\",\"fromPort\":\"target:Transactions:fields\",\"toPort\":\"target:Transactions:scheduledDate:\",\"visible\":true,\"common\":false},{\"from\":\"target:Transactions:fields\",\"to\":\"target:Transactions:searchAmount:\",\"fromPort\":\"target:Transactions:fields\",\"toPort\":\"target:Transactions:searchAmount:\",\"visible\":true,\"common\":false},{\"from\":\"target:Transactions:fields\",\"to\":\"target:Transactions:searchDateRange:\",\"fromPort\":\"target:Transactions:fields\",\"toPort\":\"target:Transactions:searchDateRange:\",\"visible\":true,\"common\":false},{\"from\":\"target:Transactions:fields\",\"to\":\"target:Transactions:searchDescription:\",\"fromPort\":\"target:Transactions:fields\",\"toPort\":\"target:Transactions:searchDescription:\",\"visible\":true,\"common\":false},{\"from\":\"target:Transactions:fields\",\"to\":\"target:Transactions:searchEndDate:\",\"fromPort\":\"target:Transactions:fields\",\"toPort\":\"target:Transactions:searchEndDate:\",\"visible\":true,\"common\":false},{\"from\":\"target:Transactions:fields\",\"to\":\"target:Transactions:searchMaxAmount:\",\"fromPort\":\"target:Transactions:fields\",\"toPort\":\"target:Transactions:searchMaxAmount:\",\"visible\":true,\"common\":false},{\"from\":\"target:Transactions:fields\",\"to\":\"target:Transactions:searchMinAmount:\",\"fromPort\":\"target:Transactions:fields\",\"toPort\":\"target:Transactions:searchMinAmount:\",\"visible\":true,\"common\":false},{\"from\":\"target:Transactions:fields\",\"to\":\"target:Transactions:searchStartDate:\",\"fromPort\":\"target:Transactions:fields\",\"toPort\":\"target:Transactions:searchStartDate:\",\"visible\":true,\"common\":false},{\"from\":\"target:Transactions:fields\",\"to\":\"target:Transactions:searchTransactionType:\",\"fromPort\":\"target:Transactions:fields\",\"toPort\":\"target:Transactions:searchTransactionType:\",\"visible\":true,\"common\":false},{\"from\":\"target:Transactions:fields\",\"to\":\"target:Transactions:searchType:\",\"fromPort\":\"target:Transactions:fields\",\"toPort\":\"target:Transactions:searchType:\",\"visible\":true,\"common\":false},{\"from\":\"target:Transactions:fields\",\"to\":\"target:Transactions:secondaryEmail:\",\"fromPort\":\"target:Transactions:fields\",\"toPort\":\"target:Transactions:secondaryEmail:\",\"visible\":true,\"common\":false},{\"from\":\"target:Transactions:fields\",\"to\":\"target:Transactions:secondaryEmail2:\",\"fromPort\":\"target:Transactions:fields\",\"toPort\":\"target:Transactions:secondaryEmail2:\",\"visible\":true,\"common\":false},{\"from\":\"target:Transactions:fields\",\"to\":\"target:Transactions:secondaryPhoneNumber2:\",\"fromPort\":\"target:Transactions:fields\",\"toPort\":\"target:Transactions:secondaryPhoneNumber2:\",\"visible\":true,\"common\":false},{\"from\":\"target:Transactions:fields\",\"to\":\"target:Transactions:secondDeposit:\",\"fromPort\":\"target:Transactions:fields\",\"toPort\":\"target:Transactions:secondDeposit:\",\"visible\":true,\"common\":false},{\"from\":\"target:Transactions:fields\",\"to\":\"target:Transactions:secondoryPhoneNumber:\",\"fromPort\":\"target:Transactions:fields\",\"toPort\":\"target:Transactions:secondoryPhoneNumber:\",\"visible\":true,\"common\":false},{\"from\":\"target:Transactions:fields\",\"to\":\"target:Transactions:sortBy:\",\"fromPort\":\"target:Transactions:fields\",\"toPort\":\"target:Transactions:sortBy:\",\"visible\":true,\"common\":false},{\"from\":\"target:Transactions:fields\",\"to\":\"target:Transactions:statusDescription:\",\"fromPort\":\"target:Transactions:fields\",\"toPort\":\"target:Transactions:statusDescription:\",\"visible\":true,\"common\":false},{\"from\":\"target:Transactions:fields\",\"to\":\"target:Transactions:success:\",\"fromPort\":\"target:Transactions:fields\",\"toPort\":\"target:Transactions:success:\",\"visible\":true,\"common\":false},{\"from\":\"target:Transactions:fields\",\"to\":\"target:Transactions:toAccountName:\",\"fromPort\":\"target:Transactions:fields\",\"toPort\":\"target:Transactions:toAccountName:\",\"visible\":true,\"common\":false},{\"from\":\"target:Transactions:fields\",\"to\":\"target:Transactions:toAccountNumber:\",\"fromPort\":\"target:Transactions:fields\",\"toPort\":\"target:Transactions:toAccountNumber:\",\"visible\":true,\"common\":false},{\"from\":\"target:Transactions:fields\",\"to\":\"target:Transactions:toAccountType:\",\"fromPort\":\"target:Transactions:fields\",\"toPort\":\"target:Transactions:toAccountType:\",\"visible\":true,\"common\":false},{\"from\":\"target:Transactions:fields\",\"to\":\"target:Transactions:toCheckNumber:\",\"fromPort\":\"target:Transactions:fields\",\"toPort\":\"target:Transactions:toCheckNumber:\",\"visible\":true,\"common\":false},{\"from\":\"target:Transactions:fields\",\"to\":\"target:Transactions:totalAmount:\",\"fromPort\":\"target:Transactions:fields\",\"toPort\":\"target:Transactions:totalAmount:\",\"visible\":true,\"common\":false},{\"from\":\"target:Transactions:fields\",\"to\":\"target:Transactions:transactionComments:\",\"fromPort\":\"target:Transactions:fields\",\"toPort\":\"target:Transactions:transactionComments:\",\"visible\":true,\"common\":false},{\"from\":\"target:Transactions:fields\",\"to\":\"target:Transactions:transactionDate:\",\"fromPort\":\"target:Transactions:fields\",\"toPort\":\"target:Transactions:transactionDate:\",\"visible\":true,\"common\":false},{\"from\":\"target:Transactions:fields\",\"to\":\"target:Transactions:transactionId:\",\"fromPort\":\"target:Transactions:fields\",\"toPort\":\"target:Transactions:transactionId:\",\"visible\":true,\"common\":false},{\"from\":\"target:Transactions:fields\",\"to\":\"target:Transactions:transactionsNotes:\",\"fromPort\":\"target:Transactions:fields\",\"toPort\":\"target:Transactions:transactionsNotes:\",\"visible\":true,\"common\":false},{\"from\":\"target:Transactions:fields\",\"to\":\"target:Transactions:transactionType:\",\"fromPort\":\"target:Transactions:fields\",\"toPort\":\"target:Transactions:transactionType:\",\"visible\":true,\"common\":false},{\"from\":\"target:Transactions:fields\",\"to\":\"target:Transactions:validDate:\",\"fromPort\":\"target:Transactions:fields\",\"toPort\":\"target:Transactions:validDate:\",\"visible\":true,\"common\":false},{\"from\":\"target:Transactions:fields\",\"to\":\"target:Transactions:viewReportLink:\",\"fromPort\":\"target:Transactions:fields\",\"toPort\":\"target:Transactions:viewReportLink:\",\"visible\":true,\"common\":false},{\"from\":\"target:Transactions:fields\",\"to\":\"target:Transactions:overdraft:\",\"fromPort\":\"target:Transactions:fields\",\"toPort\":\"target:Transactions:overdraft:\",\"visible\":true,\"common\":false},{\"from\":\"target:Transactions:fields\",\"to\":\"target:Transactions:isPaypersonDeleted:\",\"fromPort\":\"target:Transactions:fields\",\"toPort\":\"target:Transactions:isPaypersonDeleted:\",\"visible\":true,\"common\":false},{\"from\":\"target:Transactions:fields\",\"to\":\"target:Transactions:frontImage1:\",\"fromPort\":\"target:Transactions:fields\",\"toPort\":\"target:Transactions:frontImage1:\",\"visible\":true,\"common\":false},{\"from\":\"target:Transactions:fields\",\"to\":\"target:Transactions:frontImage2:\",\"fromPort\":\"target:Transactions:fields\",\"toPort\":\"target:Transactions:frontImage2:\",\"visible\":true,\"common\":false},{\"from\":\"target:Transactions:fields\",\"to\":\"target:Transactions:backImage1:\",\"fromPort\":\"target:Transactions:fields\",\"toPort\":\"target:Transactions:backImage1:\",\"visible\":true,\"common\":false},{\"from\":\"target:Transactions:fields\",\"to\":\"target:Transactions:backImage2:\",\"fromPort\":\"target:Transactions:fields\",\"toPort\":\"target:Transactions:backImage2:\",\"visible\":true,\"common\":false},{\"from\":\"target:Transactions:fields\",\"to\":\"target:Transactions:checkDesc:\",\"fromPort\":\"target:Transactions:fields\",\"toPort\":\"target:Transactions:checkDesc:\",\"visible\":true,\"common\":false},{\"from\":\"target:Transactions:fields\",\"to\":\"target:Transactions:checkNumber1:\",\"fromPort\":\"target:Transactions:fields\",\"toPort\":\"target:Transactions:checkNumber1:\",\"visible\":true,\"common\":false},{\"from\":\"target:Transactions:fields\",\"to\":\"target:Transactions:checkNumber2:\",\"fromPort\":\"target:Transactions:fields\",\"toPort\":\"target:Transactions:checkNumber2:\",\"visible\":true,\"common\":false},{\"from\":\"target:Transactions:fields\",\"to\":\"target:Transactions:bankName1:\",\"fromPort\":\"target:Transactions:fields\",\"toPort\":\"target:Transactions:bankName1:\",\"visible\":true,\"common\":false},{\"from\":\"target:Transactions:fields\",\"to\":\"target:Transactions:bankName2:\",\"fromPort\":\"target:Transactions:fields\",\"toPort\":\"target:Transactions:bankName2:\",\"visible\":true,\"common\":false},{\"from\":\"target:Transactions:fields\",\"to\":\"target:Transactions:withdrawlAmount1:\",\"fromPort\":\"target:Transactions:fields\",\"toPort\":\"target:Transactions:withdrawlAmount1:\",\"visible\":true,\"common\":false},{\"from\":\"target:Transactions:fields\",\"to\":\"target:Transactions:withdrawlAmount2:\",\"fromPort\":\"target:Transactions:fields\",\"toPort\":\"target:Transactions:withdrawlAmount2:\",\"visible\":true,\"common\":false},{\"from\":\"target:Transactions:fields\",\"to\":\"target:Transactions:totalCheckAmount:\",\"fromPort\":\"target:Transactions:fields\",\"toPort\":\"target:Transactions:totalCheckAmount:\",\"visible\":true,\"common\":false},{\"from\":\"target:Transactions:fields\",\"to\":\"target:Transactions:cashAmount:\",\"fromPort\":\"target:Transactions:fields\",\"toPort\":\"target:Transactions:cashAmount:\",\"visible\":true,\"common\":false},{\"from\":\"target:Transactions:fields\",\"to\":\"target:Transactions:payeeCurrency:\",\"fromPort\":\"target:Transactions:fields\",\"toPort\":\"target:Transactions:payeeCurrency:\",\"visible\":true,\"common\":false},{\"from\":\"target:Transactions:fields\",\"to\":\"target:Transactions:swiftCode:\",\"fromPort\":\"target:Transactions:fields\",\"toPort\":\"target:Transactions:swiftCode:\",\"visible\":true,\"common\":false},{\"from\":\"target:Transactions:fields\",\"to\":\"target:Transactions:wireAccountType:\",\"fromPort\":\"target:Transactions:fields\",\"toPort\":\"target:Transactions:wireAccountType:\",\"visible\":true,\"common\":false},{\"from\":\"target:Transactions:fields\",\"to\":\"target:Transactions:country:\",\"fromPort\":\"target:Transactions:fields\",\"toPort\":\"target:Transactions:country:\",\"visible\":true,\"common\":false},{\"from\":\"target:Transactions:fields\",\"to\":\"target:Transactions:IBAN:\",\"fromPort\":\"target:Transactions:fields\",\"toPort\":\"target:Transactions:IBAN:\",\"visible\":true,\"common\":false},{\"from\":\"target:Transactions:fields\",\"to\":\"target:Transactions:bankName:\",\"fromPort\":\"target:Transactions:fields\",\"toPort\":\"target:Transactions:bankName:\",\"visible\":true,\"common\":false},{\"from\":\"target:Transactions:fields\",\"to\":\"target:Transactions:routingNumber:\",\"fromPort\":\"target:Transactions:fields\",\"toPort\":\"target:Transactions:routingNumber:\",\"visible\":true,\"common\":false},{\"from\":\"target:Transactions:fields\",\"to\":\"target:Transactions:internationalRoutingCode:\",\"fromPort\":\"target:Transactions:fields\",\"toPort\":\"target:Transactions:internationalRoutingCode:\",\"visible\":true,\"common\":false},{\"from\":\"target:Transactions:fields\",\"to\":\"target:Transactions:zipCode:\",\"fromPort\":\"target:Transactions:fields\",\"toPort\":\"target:Transactions:zipCode:\",\"visible\":true,\"common\":false},{\"from\":\"target:Transactions:fields\",\"to\":\"target:Transactions:cityName:\",\"fromPort\":\"target:Transactions:fields\",\"toPort\":\"target:Transactions:cityName:\",\"visible\":true,\"common\":false},{\"from\":\"target:Transactions:fields\",\"to\":\"target:Transactions:state:\",\"fromPort\":\"target:Transactions:fields\",\"toPort\":\"target:Transactions:state:\",\"visible\":true,\"common\":false},{\"from\":\"target:Transactions:fields\",\"to\":\"target:Transactions:bankAddressLine1:\",\"fromPort\":\"target:Transactions:fields\",\"toPort\":\"target:Transactions:bankAddressLine1:\",\"visible\":true,\"common\":false},{\"from\":\"target:Transactions:fields\",\"to\":\"target:Transactions:bankAddressLine2:\",\"fromPort\":\"target:Transactions:fields\",\"toPort\":\"target:Transactions:bankAddressLine2:\",\"visible\":true,\"common\":false},{\"from\":\"target:Transactions:fields\",\"to\":\"target:Transactions:bankCity:\",\"fromPort\":\"target:Transactions:fields\",\"toPort\":\"target:Transactions:bankCity:\",\"visible\":true,\"common\":false},{\"from\":\"target:Transactions:fields\",\"to\":\"target:Transactions:bankState:\",\"fromPort\":\"target:Transactions:fields\",\"toPort\":\"target:Transactions:bankState:\",\"visible\":true,\"common\":false},{\"from\":\"target:Transactions:fields\",\"to\":\"target:Transactions:bankZip:\",\"fromPort\":\"target:Transactions:fields\",\"toPort\":\"target:Transactions:bankZip:\",\"visible\":true,\"common\":false},{\"from\":\"target:Transactions:fields\",\"to\":\"target:Transactions:payeeType:\",\"fromPort\":\"target:Transactions:fields\",\"toPort\":\"target:Transactions:payeeType:\",\"visible\":true,\"common\":false},{\"from\":\"target:Transactions:fields\",\"to\":\"target:Transactions:disputeReason:\",\"fromPort\":\"target:Transactions:fields\",\"toPort\":\"target:Transactions:disputeReason:\",\"visible\":true,\"common\":false},{\"from\":\"target:Transactions:fields\",\"to\":\"target:Transactions:disputeDescription:\",\"fromPort\":\"target:Transactions:fields\",\"toPort\":\"target:Transactions:disputeDescription:\",\"visible\":true,\"common\":false},{\"from\":\"target:Transactions:fields\",\"to\":\"target:Transactions:checkDateOfIssue:\",\"fromPort\":\"target:Transactions:fields\",\"toPort\":\"target:Transactions:checkDateOfIssue:\",\"visible\":true,\"common\":false},{\"from\":\"target:Transactions:fields\",\"to\":\"target:Transactions:checkReason:\",\"fromPort\":\"target:Transactions:fields\",\"toPort\":\"target:Transactions:checkReason:\",\"visible\":true,\"common\":false},{\"from\":\"target:Transactions:fields\",\"to\":\"target:Transactions:isPayeeDeleted:\",\"fromPort\":\"target:Transactions:fields\",\"toPort\":\"target:Transactions:isPayeeDeleted:\",\"visible\":true,\"common\":false},{\"from\":\"target:Transactions:fields\",\"to\":\"target:Transactions:payeeAddressLine2:\",\"fromPort\":\"target:Transactions:fields\",\"toPort\":\"target:Transactions:payeeAddressLine2:\",\"visible\":true,\"common\":false},{\"from\":\"target:Transactions:fields\",\"to\":\"target:Transactions:amountRecieved:\",\"fromPort\":\"target:Transactions:fields\",\"toPort\":\"target:Transactions:amountRecieved:\",\"visible\":true,\"common\":false},{\"from\":\"target:Transactions:fields\",\"to\":\"target:Transactions:requestValidityInMonths:\",\"fromPort\":\"target:Transactions:fields\",\"toPort\":\"target:Transactions:requestValidityInMonths:\",\"visible\":true,\"common\":false},{\"from\":\"target:Transactions:fields\",\"to\":\"target:Transactions:requestValidity:\",\"fromPort\":\"target:Transactions:fields\",\"toPort\":\"target:Transactions:requestValidity:\",\"visible\":true,\"common\":false},{\"from\":\"target:Transactions:fields\",\"to\":\"target:Transactions:requestType:\",\"fromPort\":\"target:Transactions:fields\",\"toPort\":\"target:Transactions:requestType:\",\"visible\":true,\"common\":false},{\"from\":\"target:Transactions:fields\",\"to\":\"target:Transactions:disputeDate:\",\"fromPort\":\"target:Transactions:fields\",\"toPort\":\"target:Transactions:disputeDate:\",\"visible\":true,\"common\":false},{\"from\":\"target:Transactions:fields\",\"to\":\"target:Transactions:disputeStatus:\",\"fromPort\":\"target:Transactions:fields\",\"toPort\":\"target:Transactions:disputeStatus:\",\"visible\":true,\"common\":false},{\"from\":\"target:Transactions:fields\",\"to\":\"target:Transactions:isDisputed:\",\"fromPort\":\"target:Transactions:fields\",\"toPort\":\"target:Transactions:isDisputed:\",\"visible\":true,\"common\":false},{\"from\":\"target:Transactions:fields\",\"to\":\"target:Transactions:cardId:\",\"fromPort\":\"target:Transactions:fields\",\"toPort\":\"target:Transactions:cardId:\",\"visible\":true,\"common\":false},{\"from\":\"target:Transactions:fields\",\"to\":\"target:Transactions:isOverdraft:\",\"fromPort\":\"target:Transactions:fields\",\"toPort\":\"target:Transactions:isOverdraft:\",\"visible\":true,\"common\":false},{\"from\":\"target:Transactions:fields\",\"to\":\"target:Transactions:title:\",\"fromPort\":\"target:Transactions:fields\",\"toPort\":\"target:Transactions:title:\",\"visible\":true,\"common\":false},{\"from\":\"target:Transactions:fields\",\"to\":\"target:Transactions:generatedBy:\",\"fromPort\":\"target:Transactions:fields\",\"toPort\":\"target:Transactions:generatedBy:\",\"visible\":true,\"common\":false},{\"from\":\"target:Transactions:fields\",\"to\":\"target:Transactions:filters:\",\"fromPort\":\"target:Transactions:fields\",\"toPort\":\"target:Transactions:filters:\",\"visible\":true,\"common\":false},{\"from\":\"target:Transactions:fields\",\"to\":\"target:Transactions:statementReference:\",\"fromPort\":\"target:Transactions:fields\",\"toPort\":\"target:Transactions:statementReference:\",\"visible\":true,\"common\":false},{\"from\":\"target:Transactions:fields\",\"to\":\"target:Transactions:transCreditDebitIndicator:\",\"fromPort\":\"target:Transactions:fields\",\"toPort\":\"target:Transactions:transCreditDebitIndicator:\",\"visible\":true,\"common\":false},{\"from\":\"target:Transactions:fields\",\"to\":\"target:Transactions:bookingDateTime:\",\"fromPort\":\"target:Transactions:fields\",\"toPort\":\"target:Transactions:bookingDateTime:\",\"visible\":true,\"common\":false},{\"from\":\"target:Transactions:fields\",\"to\":\"target:Transactions:valueDateTime:\",\"fromPort\":\"target:Transactions:fields\",\"toPort\":\"target:Transactions:valueDateTime:\",\"visible\":true,\"common\":false},{\"from\":\"target:Transactions:fields\",\"to\":\"target:Transactions:transactionInformation:\",\"fromPort\":\"target:Transactions:fields\",\"toPort\":\"target:Transactions:transactionInformation:\",\"visible\":true,\"common\":false},{\"from\":\"target:Transactions:fields\",\"to\":\"target:Transactions:addressLine:\",\"fromPort\":\"target:Transactions:fields\",\"toPort\":\"target:Transactions:addressLine:\",\"visible\":true,\"common\":false},{\"from\":\"target:Transactions:fields\",\"to\":\"target:Transactions:transactionAmount:\",\"fromPort\":\"target:Transactions:fields\",\"toPort\":\"target:Transactions:transactionAmount:\",\"visible\":true,\"common\":false},{\"from\":\"target:Transactions:fields\",\"to\":\"target:Transactions:transactionCurrency:\",\"fromPort\":\"target:Transactions:fields\",\"toPort\":\"target:Transactions:transactionCurrency:\",\"visible\":true,\"common\":false},{\"from\":\"target:Transactions:fields\",\"to\":\"target:Transactions:chargeAmount:\",\"fromPort\":\"target:Transactions:fields\",\"toPort\":\"target:Transactions:chargeAmount:\",\"visible\":true,\"common\":false},{\"from\":\"target:Transactions:fields\",\"to\":\"target:Transactions:chargeCurrency:\",\"fromPort\":\"target:Transactions:fields\",\"toPort\":\"target:Transactions:chargeCurrency:\",\"visible\":true,\"common\":false},{\"from\":\"target:Transactions:fields\",\"to\":\"target:Transactions:sourceCurrency:\",\"fromPort\":\"target:Transactions:fields\",\"toPort\":\"target:Transactions:sourceCurrency:\",\"visible\":true,\"common\":false},{\"from\":\"target:Transactions:fields\",\"to\":\"target:Transactions:targetCurrency:\",\"fromPort\":\"target:Transactions:fields\",\"toPort\":\"target:Transactions:targetCurrency:\",\"visible\":true,\"common\":false},{\"from\":\"target:Transactions:fields\",\"to\":\"target:Transactions:unitCurrency:\",\"fromPort\":\"target:Transactions:fields\",\"toPort\":\"target:Transactions:unitCurrency:\",\"visible\":true,\"common\":false},{\"from\":\"target:Transactions:fields\",\"to\":\"target:Transactions:exchangeRate:\",\"fromPort\":\"target:Transactions:fields\",\"toPort\":\"target:Transactions:exchangeRate:\",\"visible\":true,\"common\":false},{\"from\":\"target:Transactions:fields\",\"to\":\"target:Transactions:contractIdentification:\",\"fromPort\":\"target:Transactions:fields\",\"toPort\":\"target:Transactions:contractIdentification:\",\"visible\":true,\"common\":false},{\"from\":\"target:Transactions:fields\",\"to\":\"target:Transactions:quotationDate:\",\"fromPort\":\"target:Transactions:fields\",\"toPort\":\"target:Transactions:quotationDate:\",\"visible\":true,\"common\":false},{\"from\":\"target:Transactions:fields\",\"to\":\"target:Transactions:instructedAmount:\",\"fromPort\":\"target:Transactions:fields\",\"toPort\":\"target:Transactions:instructedAmount:\",\"visible\":true,\"common\":false},{\"from\":\"target:Transactions:fields\",\"to\":\"target:Transactions:transactionCode:\",\"fromPort\":\"target:Transactions:fields\",\"toPort\":\"target:Transactions:transactionCode:\",\"visible\":true,\"common\":false},{\"from\":\"target:Transactions:fields\",\"to\":\"target:Transactions:transactionSubCode:\",\"fromPort\":\"target:Transactions:fields\",\"toPort\":\"target:Transactions:transactionSubCode:\",\"visible\":true,\"common\":false},{\"from\":\"target:Transactions:fields\",\"to\":\"target:Transactions:proprietaryTransactionCode:\",\"fromPort\":\"target:Transactions:fields\",\"toPort\":\"target:Transactions:proprietaryTransactionCode:\",\"visible\":true,\"common\":false},{\"from\":\"target:Transactions:fields\",\"to\":\"target:Transactions:proprietaryTransactionIssuer:\",\"fromPort\":\"target:Transactions:fields\",\"toPort\":\"target:Transactions:proprietaryTransactionIssuer:\",\"visible\":true,\"common\":false},{\"from\":\"target:Transactions:fields\",\"to\":\"target:Transactions:balanceCreditDebitIndicator:\",\"fromPort\":\"target:Transactions:fields\",\"toPort\":\"target:Transactions:balanceCreditDebitIndicator:\",\"visible\":true,\"common\":false},{\"from\":\"target:Transactions:fields\",\"to\":\"target:Transactions:balanceType:\",\"fromPort\":\"target:Transactions:fields\",\"toPort\":\"target:Transactions:balanceType:\",\"visible\":true,\"common\":false},{\"from\":\"target:Transactions:fields\",\"to\":\"target:Transactions:balanceAmount:\",\"fromPort\":\"target:Transactions:fields\",\"toPort\":\"target:Transactions:balanceAmount:\",\"visible\":true,\"common\":false},{\"from\":\"target:Transactions:fields\",\"to\":\"target:Transactions:balanceCurrency:\",\"fromPort\":\"target:Transactions:fields\",\"toPort\":\"target:Transactions:balanceCurrency:\",\"visible\":true,\"common\":false},{\"from\":\"target:Transactions:fields\",\"to\":\"target:Transactions:merchantName:\",\"fromPort\":\"target:Transactions:fields\",\"toPort\":\"target:Transactions:merchantName:\",\"visible\":true,\"common\":false},{\"from\":\"target:Transactions:fields\",\"to\":\"target:Transactions:merchantCategoryCode:\",\"fromPort\":\"target:Transactions:fields\",\"toPort\":\"target:Transactions:merchantCategoryCode:\",\"visible\":true,\"common\":false},{\"from\":\"target:Transactions:fields\",\"to\":\"target:Transactions:creditorAgentSchemeName:\",\"fromPort\":\"target:Transactions:fields\",\"toPort\":\"target:Transactions:creditorAgentSchemeName:\",\"visible\":true,\"common\":false},{\"from\":\"target:Transactions:fields\",\"to\":\"target:Transactions:creditorAgentIdentification:\",\"fromPort\":\"target:Transactions:fields\",\"toPort\":\"target:Transactions:creditorAgentIdentification:\",\"visible\":true,\"common\":false},{\"from\":\"target:Transactions:fields\",\"to\":\"target:Transactions:creditorAgentName:\",\"fromPort\":\"target:Transactions:fields\",\"toPort\":\"target:Transactions:creditorAgentName:\",\"visible\":true,\"common\":false},{\"from\":\"target:Transactions:fields\",\"to\":\"target:Transactions:creditorAgentaddressType:\",\"fromPort\":\"target:Transactions:fields\",\"toPort\":\"target:Transactions:creditorAgentaddressType:\",\"visible\":true,\"common\":false},{\"from\":\"target:Transactions:fields\",\"to\":\"target:Transactions:creditorAgentDepartment:\",\"fromPort\":\"target:Transactions:fields\",\"toPort\":\"target:Transactions:creditorAgentDepartment:\",\"visible\":true,\"common\":false},{\"from\":\"target:Transactions:fields\",\"to\":\"target:Transactions:creditorAgentSubDepartment:\",\"fromPort\":\"target:Transactions:fields\",\"toPort\":\"target:Transactions:creditorAgentSubDepartment:\",\"visible\":true,\"common\":false},{\"from\":\"target:Transactions:fields\",\"to\":\"target:Transactions:creditorAgentStreetName:\",\"fromPort\":\"target:Transactions:fields\",\"toPort\":\"target:Transactions:creditorAgentStreetName:\",\"visible\":true,\"common\":false},{\"from\":\"target:Transactions:fields\",\"to\":\"target:Transactions:creditorAgentBuildingNumber:\",\"fromPort\":\"target:Transactions:fields\",\"toPort\":\"target:Transactions:creditorAgentBuildingNumber:\",\"visible\":true,\"common\":false},{\"from\":\"target:Transactions:fields\",\"to\":\"target:Transactions:creditorAgentPostCode:\",\"fromPort\":\"target:Transactions:fields\",\"toPort\":\"target:Transactions:creditorAgentPostCode:\",\"visible\":true,\"common\":false},{\"from\":\"target:Transactions:fields\",\"to\":\"target:Transactions:creditorAgentTownName:\",\"fromPort\":\"target:Transactions:fields\",\"toPort\":\"target:Transactions:creditorAgentTownName:\",\"visible\":true,\"common\":false},{\"from\":\"target:Transactions:fields\",\"to\":\"target:Transactions:creditorAgentCountrySubDivision:\",\"fromPort\":\"target:Transactions:fields\",\"toPort\":\"target:Transactions:creditorAgentCountrySubDivision:\",\"visible\":true,\"common\":false},{\"from\":\"target:Transactions:fields\",\"to\":\"target:Transactions:creditorAgentCountry:\",\"fromPort\":\"target:Transactions:fields\",\"toPort\":\"target:Transactions:creditorAgentCountry:\",\"visible\":true,\"common\":false},{\"from\":\"target:Transactions:fields\",\"to\":\"target:Transactions:creditorAgentAddressLine:\",\"fromPort\":\"target:Transactions:fields\",\"toPort\":\"target:Transactions:creditorAgentAddressLine:\",\"visible\":true,\"common\":false},{\"from\":\"target:Transactions:fields\",\"to\":\"target:Transactions:creditorAccountSchemeName:\",\"fromPort\":\"target:Transactions:fields\",\"toPort\":\"target:Transactions:creditorAccountSchemeName:\",\"visible\":true,\"common\":false},{\"from\":\"target:Transactions:fields\",\"to\":\"target:Transactions:creditorAccountSeconIdentification:\",\"fromPort\":\"target:Transactions:fields\",\"toPort\":\"target:Transactions:creditorAccountSeconIdentification:\",\"visible\":true,\"common\":false},{\"from\":\"target:Transactions:fields\",\"to\":\"target:Transactions:debtorAgentSchemeName:\",\"fromPort\":\"target:Transactions:fields\",\"toPort\":\"target:Transactions:debtorAgentSchemeName:\",\"visible\":true,\"common\":false},{\"from\":\"target:Transactions:fields\",\"to\":\"target:Transactions:debtorAgentIdentification:\",\"fromPort\":\"target:Transactions:fields\",\"toPort\":\"target:Transactions:debtorAgentIdentification:\",\"visible\":true,\"common\":false},{\"from\":\"target:Transactions:fields\",\"to\":\"target:Transactions:debtorAgentName:\",\"fromPort\":\"target:Transactions:fields\",\"toPort\":\"target:Transactions:debtorAgentName:\",\"visible\":true,\"common\":false},{\"from\":\"target:Transactions:fields\",\"to\":\"target:Transactions:debtorAgentAddressType:\",\"fromPort\":\"target:Transactions:fields\",\"toPort\":\"target:Transactions:debtorAgentAddressType:\",\"visible\":true,\"common\":false},{\"from\":\"target:Transactions:fields\",\"to\":\"target:Transactions:debtorAgentDepartment:\",\"fromPort\":\"target:Transactions:fields\",\"toPort\":\"target:Transactions:debtorAgentDepartment:\",\"visible\":true,\"common\":false},{\"from\":\"target:Transactions:fields\",\"to\":\"target:Transactions:debtorAgentSubDepartment:\",\"fromPort\":\"target:Transactions:fields\",\"toPort\":\"target:Transactions:debtorAgentSubDepartment:\",\"visible\":true,\"common\":false},{\"from\":\"target:Transactions:fields\",\"to\":\"target:Transactions:debtorAgentStreetName:\",\"fromPort\":\"target:Transactions:fields\",\"toPort\":\"target:Transactions:debtorAgentStreetName:\",\"visible\":true,\"common\":false},{\"from\":\"target:Transactions:fields\",\"to\":\"target:Transactions:debtorAgentBuildingNumber:\",\"fromPort\":\"target:Transactions:fields\",\"toPort\":\"target:Transactions:debtorAgentBuildingNumber:\",\"visible\":true,\"common\":false},{\"from\":\"target:Transactions:fields\",\"to\":\"target:Transactions:dedtorAgentPostCode:\",\"fromPort\":\"target:Transactions:fields\",\"toPort\":\"target:Transactions:dedtorAgentPostCode:\",\"visible\":true,\"common\":false},{\"from\":\"target:Transactions:fields\",\"to\":\"target:Transactions:debtorAgentTownName:\",\"fromPort\":\"target:Transactions:fields\",\"toPort\":\"target:Transactions:debtorAgentTownName:\",\"visible\":true,\"common\":false},{\"from\":\"target:Transactions:fields\",\"to\":\"target:Transactions:debtorAgentCountrySubDivision:\",\"fromPort\":\"target:Transactions:fields\",\"toPort\":\"target:Transactions:debtorAgentCountrySubDivision:\",\"visible\":true,\"common\":false},{\"from\":\"target:Transactions:fields\",\"to\":\"target:Transactions:debtorAgentCountry:\",\"fromPort\":\"target:Transactions:fields\",\"toPort\":\"target:Transactions:debtorAgentCountry:\",\"visible\":true,\"common\":false},{\"from\":\"target:Transactions:fields\",\"to\":\"target:Transactions:debtorAgentAddressLine:\",\"fromPort\":\"target:Transactions:fields\",\"toPort\":\"target:Transactions:debtorAgentAddressLine:\",\"visible\":true,\"common\":false},{\"from\":\"target:Transactions:fields\",\"to\":\"target:Transactions:debtorAccountSchemeName:\",\"fromPort\":\"target:Transactions:fields\",\"toPort\":\"target:Transactions:debtorAccountSchemeName:\",\"visible\":true,\"common\":false},{\"from\":\"target:Transactions:fields\",\"to\":\"target:Transactions:debtorAccountName:\",\"fromPort\":\"target:Transactions:fields\",\"toPort\":\"target:Transactions:debtorAccountName:\",\"visible\":true,\"common\":false},{\"from\":\"target:Transactions:fields\",\"to\":\"target:Transactions:debtorAccountSeconIdentification:\",\"fromPort\":\"target:Transactions:fields\",\"toPort\":\"target:Transactions:debtorAccountSeconIdentification:\",\"visible\":true,\"common\":false},{\"from\":\"target:Transactions:fields\",\"to\":\"target:Transactions:cardInstrumentSchemeName:\",\"fromPort\":\"target:Transactions:fields\",\"toPort\":\"target:Transactions:cardInstrumentSchemeName:\",\"visible\":true,\"common\":false},{\"from\":\"target:Transactions:fields\",\"to\":\"target:Transactions:cardInstrumentAuthorisationType:\",\"fromPort\":\"target:Transactions:fields\",\"toPort\":\"target:Transactions:cardInstrumentAuthorisationType:\",\"visible\":true,\"common\":false},{\"from\":\"target:Transactions:fields\",\"to\":\"target:Transactions:cardInstrumentName:\",\"fromPort\":\"target:Transactions:fields\",\"toPort\":\"target:Transactions:cardInstrumentName:\",\"visible\":true,\"common\":false},{\"from\":\"target:Transactions:fields\",\"to\":\"target:Transactions:cardInstrumentIdentification:\",\"fromPort\":\"target:Transactions:fields\",\"toPort\":\"target:Transactions:cardInstrumentIdentification:\",\"visible\":true,\"common\":false},{\"from\":\"target:Transactions:fields\",\"to\":\"target:Transactions:sortCode:\",\"fromPort\":\"target:Transactions:fields\",\"toPort\":\"target:Transactions:sortCode:\",\"visible\":true,\"common\":false},{\"from\":\"target:Transactions:fields\",\"to\":\"target:Transactions:feeCurrency:\",\"fromPort\":\"target:Transactions:fields\",\"toPort\":\"target:Transactions:feeCurrency:\",\"visible\":true,\"common\":false},{\"from\":\"target:Transactions:fields\",\"to\":\"target:Transactions:feePaidByReceipent:\",\"fromPort\":\"target:Transactions:fields\",\"toPort\":\"target:Transactions:feePaidByReceipent:\",\"visible\":true,\"common\":false},{\"from\":\"target:Transactions:fields\",\"to\":\"target:Transactions:convertedAmount:\",\"fromPort\":\"target:Transactions:fields\",\"toPort\":\"target:Transactions:convertedAmount:\",\"visible\":true,\"common\":false},{\"from\":\"target:Transactions:fields\",\"to\":\"target:Transactions:baseCurrency:\",\"fromPort\":\"target:Transactions:fields\",\"toPort\":\"target:Transactions:baseCurrency:\",\"visible\":true,\"common\":false},{\"from\":\"target:Transactions:fields\",\"to\":\"target:Transactions:FirstPaymentDateTime:\",\"fromPort\":\"target:Transactions:fields\",\"toPort\":\"target:Transactions:FirstPaymentDateTime:\",\"visible\":true,\"common\":false},{\"from\":\"target:Transactions:fields\",\"to\":\"target:Transactions:NextPaymentDateTime:\",\"fromPort\":\"target:Transactions:fields\",\"toPort\":\"target:Transactions:NextPaymentDateTime:\",\"visible\":true,\"common\":false},{\"from\":\"target:Transactions:fields\",\"to\":\"target:Transactions:FinalPaymentDateTime:\",\"fromPort\":\"target:Transactions:fields\",\"toPort\":\"target:Transactions:FinalPaymentDateTime:\",\"visible\":true,\"common\":false},{\"from\":\"target:Transactions:fields\",\"to\":\"target:Transactions:StandingOrderStatusCode:\",\"fromPort\":\"target:Transactions:fields\",\"toPort\":\"target:Transactions:StandingOrderStatusCode:\",\"visible\":true,\"common\":false},{\"from\":\"target:Transactions:fields\",\"to\":\"target:Transactions:FP_Amount:\",\"fromPort\":\"target:Transactions:fields\",\"toPort\":\"target:Transactions:FP_Amount:\",\"visible\":true,\"common\":false},{\"from\":\"target:Transactions:fields\",\"to\":\"target:Transactions:FP_Currency:\",\"fromPort\":\"target:Transactions:fields\",\"toPort\":\"target:Transactions:FP_Currency:\",\"visible\":true,\"common\":false},{\"from\":\"target:Transactions:fields\",\"to\":\"target:Transactions:NP_Amount:\",\"fromPort\":\"target:Transactions:fields\",\"toPort\":\"target:Transactions:NP_Amount:\",\"visible\":true,\"common\":false},{\"from\":\"target:Transactions:fields\",\"to\":\"target:Transactions:NP_Currency:\",\"fromPort\":\"target:Transactions:fields\",\"toPort\":\"target:Transactions:NP_Currency:\",\"visible\":true,\"common\":false},{\"from\":\"target:Transactions:fields\",\"to\":\"target:Transactions:FPA_Amount:\",\"fromPort\":\"target:Transactions:fields\",\"toPort\":\"target:Transactions:FPA_Amount:\",\"visible\":true,\"common\":false},{\"from\":\"target:Transactions:fields\",\"to\":\"target:Transactions:FPA_Currency:\",\"fromPort\":\"target:Transactions:fields\",\"toPort\":\"target:Transactions:FPA_Currency:\",\"visible\":true,\"common\":false},{\"from\":\"target:Transactions:fields\",\"to\":\"target:Transactions:beneficiaryName:\",\"fromPort\":\"target:Transactions:fields\",\"toPort\":\"target:Transactions:beneficiaryName:\",\"visible\":true,\"common\":false},{\"from\":\"target:Transactions:fields\",\"to\":\"target:Transactions:isInternationalAccount:\",\"fromPort\":\"target:Transactions:fields\",\"toPort\":\"target:Transactions:isInternationalAccount:\",\"visible\":true,\"common\":false},{\"from\":\"target:Transactions:fields\",\"to\":\"target:Transactions:ConsentId:\",\"fromPort\":\"target:Transactions:fields\",\"toPort\":\"target:Transactions:ConsentId:\",\"visible\":true,\"common\":false},{\"from\":\"target:Transactions:fields\",\"to\":\"target:Transactions:Initiation_InstructionIdentification:\",\"fromPort\":\"target:Transactions:fields\",\"toPort\":\"target:Transactions:Initiation_InstructionIdentification:\",\"visible\":true,\"common\":false},{\"from\":\"target:Transactions:fields\",\"to\":\"target:Transactions:RI_Unstructured:\",\"fromPort\":\"target:Transactions:fields\",\"toPort\":\"target:Transactions:RI_Unstructured:\",\"visible\":true,\"common\":false},{\"from\":\"target:Transactions:fields\",\"to\":\"target:Transactions:RI_Reference:\",\"fromPort\":\"target:Transactions:fields\",\"toPort\":\"target:Transactions:RI_Reference:\",\"visible\":true,\"common\":false},{\"from\":\"target:Transactions:fields\",\"to\":\"target:Transactions:Initiation_EndToEndIdentification:\",\"fromPort\":\"target:Transactions:fields\",\"toPort\":\"target:Transactions:Initiation_EndToEndIdentification:\",\"visible\":true,\"common\":false},{\"from\":\"target:Transactions:fields\",\"to\":\"target:Transactions:RiskPaymentContextCode:\",\"fromPort\":\"target:Transactions:fields\",\"toPort\":\"target:Transactions:RiskPaymentContextCode:\",\"visible\":true,\"common\":false},{\"from\":\"target:Transactions:fields\",\"to\":\"target:Transactions:linkSelf:\",\"fromPort\":\"target:Transactions:fields\",\"toPort\":\"target:Transactions:linkSelf:\",\"visible\":true,\"common\":false},{\"from\":\"target:Transactions:fields\",\"to\":\"target:Transactions:StatusUpdateDateTime:\",\"fromPort\":\"target:Transactions:fields\",\"toPort\":\"target:Transactions:StatusUpdateDateTime:\",\"visible\":true,\"common\":false},{\"from\":\"target:Transactions:fields\",\"to\":\"target:Transactions:createdDate:\",\"fromPort\":\"target:Transactions:fields\",\"toPort\":\"target:Transactions:createdDate:\",\"visible\":true,\"common\":false},{\"from\":\"target:Transactions:fields\",\"to\":\"target:Transactions:DomesticPaymentId:\",\"fromPort\":\"target:Transactions:fields\",\"toPort\":\"target:Transactions:DomesticPaymentId:\",\"visible\":true,\"common\":false},{\"from\":\"target:Transactions:fields\",\"to\":\"target:Transactions:dataStatus:\",\"fromPort\":\"target:Transactions:fields\",\"toPort\":\"target:Transactions:dataStatus:\",\"visible\":true,\"common\":false},{\"from\":\"target:Transactions:fields\",\"to\":\"target:Transactions:Auth_Token:\",\"fromPort\":\"target:Transactions:fields\",\"toPort\":\"target:Transactions:Auth_Token:\",\"visible\":true,\"common\":false},{\"from\":\"target:Transactions:fields\",\"to\":\"target:Transactions:fileType:\",\"fromPort\":\"target:Transactions:fields\",\"toPort\":\"target:Transactions:fileType:\",\"visible\":true,\"common\":false},{\"from\":\"target:Transactions:fields\",\"to\":\"target:Transactions:MFAAttributes:\",\"fromPort\":\"target:Transactions:fields\",\"toPort\":\"target:Transactions:MFAAttributes:\",\"visible\":true,\"common\":false},{\"from\":\"target:Transactions:fields\",\"to\":\"target:Transactions:serviceName:\",\"fromPort\":\"target:Transactions:fields\",\"toPort\":\"target:Transactions:serviceName:\",\"visible\":true,\"common\":false},{\"from\":\"target:Transactions:fields\",\"to\":\"target:Transactions:payPersonNickName:\",\"fromPort\":\"target:Transactions:fields\",\"toPort\":\"target:Transactions:payPersonNickName:\",\"visible\":true,\"common\":false},{\"from\":\"target:Transactions:fields\",\"to\":\"target:Transactions:p2pAlternateContact:\",\"fromPort\":\"target:Transactions:fields\",\"toPort\":\"target:Transactions:p2pAlternateContact:\",\"visible\":true,\"common\":false},{\"from\":\"target:Transactions:fields\",\"to\":\"target:Transactions:billerId:\",\"fromPort\":\"target:Transactions:fields\",\"toPort\":\"target:Transactions:billerId:\",\"visible\":true,\"common\":false},{\"from\":\"target:Transactions:fields\",\"to\":\"target:Transactions:MoreRecordsToken:\",\"fromPort\":\"target:Transactions:fields\",\"toPort\":\"target:Transactions:MoreRecordsToken:\",\"visible\":true,\"common\":false},{\"from\":\"target:Transactions:fields\",\"to\":\"target:Transactions:MoreRecordsflag:\",\"fromPort\":\"target:Transactions:fields\",\"toPort\":\"target:Transactions:MoreRecordsflag:\",\"visible\":true,\"common\":false},{\"from\":\"target:Transactions:fields\",\"to\":\"target:Transactions:TransactionsMoreRecordsToken:\",\"fromPort\":\"target:Transactions:fields\",\"toPort\":\"target:Transactions:TransactionsMoreRecordsToken:\",\"visible\":true,\"common\":false},{\"from\":\"target:Transactions:fields\",\"to\":\"target:Transactions:UserName:\",\"fromPort\":\"target:Transactions:fields\",\"toPort\":\"target:Transactions:UserName:\",\"visible\":true,\"common\":false},{\"from\":\"target:Transactions:fields\",\"to\":\"target:Transactions:deviceID:\",\"fromPort\":\"target:Transactions:fields\",\"toPort\":\"target:Transactions:deviceID:\",\"visible\":true,\"common\":false},{\"from\":\"target:Transactions:fields\",\"to\":\"target:Transactions:fromAccountCurrency:\",\"fromPort\":\"target:Transactions:fields\",\"toPort\":\"target:Transactions:fromAccountCurrency:\",\"visible\":true,\"common\":false},{\"from\":\"target:Transactions:fields\",\"to\":\"target:Transactions:toAccountCurrency:\",\"fromPort\":\"target:Transactions:fields\",\"toPort\":\"target:Transactions:toAccountCurrency:\",\"visible\":true,\"common\":false},{\"from\":\"target:Transactions:fields\",\"to\":\"target:Transactions:beneficiaryId:\",\"fromPort\":\"target:Transactions:fields\",\"toPort\":\"target:Transactions:beneficiaryId:\",\"visible\":true,\"common\":false},{\"from\":\"target:Transactions:fields\",\"to\":\"target:Transactions:currencyCode:\",\"fromPort\":\"target:Transactions:fields\",\"toPort\":\"target:Transactions:currencyCode:\",\"visible\":true,\"common\":false},{\"from\":\"target:Transactions:fields\",\"to\":\"target:Transactions:postedDate:\",\"fromPort\":\"target:Transactions:fields\",\"toPort\":\"target:Transactions:postedDate:\",\"visible\":true,\"common\":false},{\"from\":\"target:Transactions:fields\",\"to\":\"target:Transactions:paidBy:\",\"fromPort\":\"target:Transactions:fields\",\"toPort\":\"target:Transactions:paidBy:\",\"visible\":true,\"common\":false},{\"from\":\"target:Transactions:fields\",\"to\":\"target:Transactions:paymentType:\",\"fromPort\":\"target:Transactions:fields\",\"toPort\":\"target:Transactions:paymentType:\",\"visible\":true,\"common\":false},{\"from\":\"target:Transactions:fields\",\"to\":\"target:Transactions:feeAmount:\",\"fromPort\":\"target:Transactions:fields\",\"toPort\":\"target:Transactions:feeAmount:\",\"visible\":true,\"common\":false},{\"from\":\"target:Transactions:fields\",\"to\":\"target:Transactions:benificaryZipCode:\",\"fromPort\":\"target:Transactions:fields\",\"toPort\":\"target:Transactions:benificaryZipCode:\",\"visible\":true,\"common\":false},{\"from\":\"target:Transactions:fields\",\"to\":\"target:Transactions:beneficiaryAddressNickName:\",\"fromPort\":\"target:Transactions:fields\",\"toPort\":\"target:Transactions:beneficiaryAddressNickName:\",\"visible\":true,\"common\":false},{\"from\":\"target:Transactions:fields\",\"to\":\"target:Transactions:beneficiaryAddressLine1:\",\"fromPort\":\"target:Transactions:fields\",\"toPort\":\"target:Transactions:beneficiaryAddressLine1:\",\"visible\":true,\"common\":false},{\"from\":\"target:Transactions:fields\",\"to\":\"target:Transactions:beneficiaryCity:\",\"fromPort\":\"target:Transactions:fields\",\"toPort\":\"target:Transactions:beneficiaryCity:\",\"visible\":true,\"common\":false},{\"from\":\"target:Transactions:fields\",\"to\":\"target:Transactions:beneficiaryCountry:\",\"fromPort\":\"target:Transactions:fields\",\"toPort\":\"target:Transactions:beneficiaryCountry:\",\"visible\":true,\"common\":false},{\"from\":\"target:Transactions:fields\",\"to\":\"target:Transactions:bicCode:\",\"fromPort\":\"target:Transactions:fields\",\"toPort\":\"target:Transactions:bicCode:\",\"visible\":true,\"common\":false},{\"from\":\"target:Transactions:fields\",\"to\":\"target:Transactions:bulkTransferString:\",\"fromPort\":\"target:Transactions:fields\",\"toPort\":\"target:Transactions:bulkTransferString:\",\"visible\":true,\"common\":false},{\"from\":\"target:Transactions:fields\",\"to\":\"target:Transactions:chequeId:\",\"fromPort\":\"target:Transactions:fields\",\"toPort\":\"target:Transactions:chequeId:\",\"visible\":true,\"common\":false},{\"from\":\"target:Transactions:fields\",\"to\":\"target:Transactions:defaultIssueNumber:\",\"fromPort\":\"target:Transactions:fields\",\"toPort\":\"target:Transactions:defaultIssueNumber:\",\"visible\":true,\"common\":false},{\"from\":\"target:Transactions:fields\",\"to\":\"target:Transactions:note:\",\"fromPort\":\"target:Transactions:fields\",\"toPort\":\"target:Transactions:note:\",\"visible\":true,\"common\":false},{\"from\":\"target:Transactions:fields\",\"to\":\"target:Transactions:chequeStatus:\",\"fromPort\":\"target:Transactions:fields\",\"toPort\":\"target:Transactions:chequeStatus:\",\"visible\":true,\"common\":false},{\"from\":\"target:Transactions:fields\",\"to\":\"target:Transactions:chequeIssueId:\",\"fromPort\":\"target:Transactions:fields\",\"toPort\":\"target:Transactions:chequeIssueId:\",\"visible\":true,\"common\":false},{\"from\":\"target:Transactions:fields\",\"to\":\"target:Transactions:issueDate:\",\"fromPort\":\"target:Transactions:fields\",\"toPort\":\"target:Transactions:issueDate:\",\"visible\":true,\"common\":false},{\"from\":\"target:Transactions:fields\",\"to\":\"target:Transactions:numberIssued:\",\"fromPort\":\"target:Transactions:fields\",\"toPort\":\"target:Transactions:numberIssued:\",\"visible\":true,\"common\":false},{\"from\":\"target:Transactions:fields\",\"to\":\"target:Transactions:validate:\",\"fromPort\":\"target:Transactions:fields\",\"toPort\":\"target:Transactions:validate:\",\"visible\":true,\"common\":false},{\"from\":\"target:Transactions:fields\",\"to\":\"target:Transactions:currencyId:\",\"fromPort\":\"target:Transactions:fields\",\"toPort\":\"target:Transactions:currencyId:\",\"visible\":true,\"common\":false},{\"from\":\"target:Transactions:fields\",\"to\":\"target:Transactions:amountRange:\",\"fromPort\":\"target:Transactions:fields\",\"toPort\":\"target:Transactions:amountRange:\",\"visible\":true,\"common\":false},{\"from\":\"target:Transactions:fields\",\"to\":\"target:Transactions:chequeRange:\",\"fromPort\":\"target:Transactions:fields\",\"toPort\":\"target:Transactions:chequeRange:\",\"visible\":true,\"common\":false},{\"from\":\"source\",\"to\":\"source:parameters\",\"fromPort\":\"source\",\"toPort\":\"source:parameters\",\"visible\":true,\"common\":false},{\"from\":\"source:parameters\",\"to\":\"source:errmsg:\",\"fromPort\":\"source:parameters\",\"toPort\":\"source:errmsg:\",\"visible\":true,\"common\":false},{\"from\":\"source:parameters\",\"to\":\"source:personId:\",\"fromPort\":\"source:parameters\",\"toPort\":\"source:personId:\",\"visible\":true,\"common\":false},{\"from\":\"source:parameters\",\"to\":\"source:referenceId:\",\"fromPort\":\"source:parameters\",\"toPort\":\"source:referenceId:\",\"visible\":true,\"common\":false},{\"from\":\"source:parameters\",\"to\":\"source:success:\",\"fromPort\":\"source:parameters\",\"toPort\":\"source:success:\",\"visible\":true,\"common\":false},{\"from\":\"source\",\"to\":\"source:Transactions\",\"fromPort\":\"source\",\"toPort\":\"source:Transactions\",\"visible\":true,\"common\":false},{\"from\":\"source:Transactions\",\"to\":\"source:Transactions:parameters\",\"fromPort\":\"source:Transactions\",\"toPort\":\"source:Transactions:parameters\",\"visible\":true,\"common\":false},{\"from\":\"source:Transactions:parameters\",\"to\":\"source:Transactions:amount:\",\"fromPort\":\"source:Transactions:parameters\",\"toPort\":\"source:Transactions:amount:\",\"visible\":true,\"common\":false},{\"from\":\"source:Transactions:parameters\",\"to\":\"source:Transactions:billerId:\",\"fromPort\":\"source:Transactions:parameters\",\"toPort\":\"source:Transactions:billerId:\",\"visible\":true,\"common\":false},{\"from\":\"source:Transactions:parameters\",\"to\":\"source:Transactions:cashlessEmail:\",\"fromPort\":\"source:Transactions:parameters\",\"toPort\":\"source:Transactions:cashlessEmail:\",\"visible\":true,\"common\":false},{\"from\":\"source:Transactions:parameters\",\"to\":\"source:Transactions:cashlessMode:\",\"fromPort\":\"source:Transactions:parameters\",\"toPort\":\"source:Transactions:cashlessMode:\",\"visible\":true,\"common\":false},{\"from\":\"source:Transactions:parameters\",\"to\":\"source:Transactions:cashlessOTP:\",\"fromPort\":\"source:Transactions:parameters\",\"toPort\":\"source:Transactions:cashlessOTP:\",\"visible\":true,\"common\":false},{\"from\":\"source:Transactions:parameters\",\"to\":\"source:Transactions:cashlessOTPValidDate:\",\"fromPort\":\"source:Transactions:parameters\",\"toPort\":\"source:Transactions:cashlessOTPValidDate:\",\"visible\":true,\"common\":false},{\"from\":\"source:Transactions:parameters\",\"to\":\"source:Transactions:cashlessPersonName:\",\"fromPort\":\"source:Transactions:parameters\",\"toPort\":\"source:Transactions:cashlessPersonName:\",\"visible\":true,\"common\":false},{\"from\":\"source:Transactions:parameters\",\"to\":\"source:Transactions:cashlessPhone:\",\"fromPort\":\"source:Transactions:parameters\",\"toPort\":\"source:Transactions:cashlessPhone:\",\"visible\":true,\"common\":false},{\"from\":\"source:Transactions:parameters\",\"to\":\"source:Transactions:cashlessSecurityCode:\",\"fromPort\":\"source:Transactions:parameters\",\"toPort\":\"source:Transactions:cashlessSecurityCode:\",\"visible\":true,\"common\":false},{\"from\":\"source:Transactions:parameters\",\"to\":\"source:Transactions:cashWithdrawalTransactionStatus:\",\"fromPort\":\"source:Transactions:parameters\",\"toPort\":\"source:Transactions:cashWithdrawalTransactionStatus:\",\"visible\":true,\"common\":false},{\"from\":\"source:Transactions:parameters\",\"to\":\"source:Transactions:category:\",\"fromPort\":\"source:Transactions:parameters\",\"toPort\":\"source:Transactions:category:\",\"visible\":true,\"common\":false},{\"from\":\"source:Transactions:parameters\",\"to\":\"source:Transactions:description:\",\"fromPort\":\"source:Transactions:parameters\",\"toPort\":\"source:Transactions:description:\",\"visible\":true,\"common\":false},{\"from\":\"source:Transactions:parameters\",\"to\":\"source:Transactions:ExternalAccountNumber:\",\"fromPort\":\"source:Transactions:parameters\",\"toPort\":\"source:Transactions:ExternalAccountNumber:\",\"visible\":true,\"common\":false},{\"from\":\"source:Transactions:parameters\",\"to\":\"source:Transactions:frequencyEndDate:\",\"fromPort\":\"source:Transactions:parameters\",\"toPort\":\"source:Transactions:frequencyEndDate:\",\"visible\":true,\"common\":false},{\"from\":\"source:Transactions:parameters\",\"to\":\"source:Transactions:frequencyStartDate:\",\"fromPort\":\"source:Transactions:parameters\",\"toPort\":\"source:Transactions:frequencyStartDate:\",\"visible\":true,\"common\":false},{\"from\":\"source:Transactions:parameters\",\"to\":\"source:Transactions:frequencyType:\",\"fromPort\":\"source:Transactions:parameters\",\"toPort\":\"source:Transactions:frequencyType:\",\"visible\":true,\"common\":false},{\"from\":\"source:Transactions:parameters\",\"to\":\"source:Transactions:fromAccountBalance:\",\"fromPort\":\"source:Transactions:parameters\",\"toPort\":\"source:Transactions:fromAccountBalance:\",\"visible\":true,\"common\":false},{\"from\":\"source:Transactions:parameters\",\"to\":\"source:Transactions:fromAccountName:\",\"fromPort\":\"source:Transactions:parameters\",\"toPort\":\"source:Transactions:fromAccountName:\",\"visible\":true,\"common\":false},{\"from\":\"source:Transactions:parameters\",\"to\":\"source:Transactions:fromAccountNumber:\",\"fromPort\":\"source:Transactions:parameters\",\"toPort\":\"source:Transactions:fromAccountNumber:\",\"visible\":true,\"common\":false},{\"from\":\"source:Transactions:parameters\",\"to\":\"source:Transactions:fromAccountType:\",\"fromPort\":\"source:Transactions:parameters\",\"toPort\":\"source:Transactions:fromAccountType:\",\"visible\":true,\"common\":false},{\"from\":\"source:Transactions:parameters\",\"to\":\"source:Transactions:fromNickName:\",\"fromPort\":\"source:Transactions:parameters\",\"toPort\":\"source:Transactions:fromNickName:\",\"visible\":true,\"common\":false},{\"from\":\"source:Transactions:parameters\",\"to\":\"source:Transactions:hasDepositImage:\",\"fromPort\":\"source:Transactions:parameters\",\"toPort\":\"source:Transactions:hasDepositImage:\",\"visible\":true,\"common\":false},{\"from\":\"source:Transactions:parameters\",\"to\":\"source:Transactions:isScheduled:\",\"fromPort\":\"source:Transactions:parameters\",\"toPort\":\"source:Transactions:isScheduled:\",\"visible\":true,\"common\":false},{\"from\":\"source:Transactions:parameters\",\"to\":\"source:Transactions:numberOfRecurrences:\",\"fromPort\":\"source:Transactions:parameters\",\"toPort\":\"source:Transactions:numberOfRecurrences:\",\"visible\":true,\"common\":false},{\"from\":\"source:Transactions:parameters\",\"to\":\"source:Transactions:payeeId:\",\"fromPort\":\"source:Transactions:parameters\",\"toPort\":\"source:Transactions:payeeId:\",\"visible\":true,\"common\":false},{\"from\":\"source:Transactions:parameters\",\"to\":\"source:Transactions:payeeNickName:\",\"fromPort\":\"source:Transactions:parameters\",\"toPort\":\"source:Transactions:payeeNickName:\",\"visible\":true,\"common\":false},{\"from\":\"source:Transactions:parameters\",\"to\":\"source:Transactions:payPersonEmail:\",\"fromPort\":\"source:Transactions:parameters\",\"toPort\":\"source:Transactions:payPersonEmail:\",\"visible\":true,\"common\":false},{\"from\":\"source:Transactions:parameters\",\"to\":\"source:Transactions:payPersonName:\",\"fromPort\":\"source:Transactions:parameters\",\"toPort\":\"source:Transactions:payPersonName:\",\"visible\":true,\"common\":false},{\"from\":\"source:Transactions:parameters\",\"to\":\"source:Transactions:payPersonPhone:\",\"fromPort\":\"source:Transactions:parameters\",\"toPort\":\"source:Transactions:payPersonPhone:\",\"visible\":true,\"common\":false},{\"from\":\"source:Transactions:parameters\",\"to\":\"source:Transactions:recurrenceDesc:\",\"fromPort\":\"source:Transactions:parameters\",\"toPort\":\"source:Transactions:recurrenceDesc:\",\"visible\":true,\"common\":false},{\"from\":\"source:Transactions:parameters\",\"to\":\"source:Transactions:scheduledDate:\",\"fromPort\":\"source:Transactions:parameters\",\"toPort\":\"source:Transactions:scheduledDate:\",\"visible\":true,\"common\":false},{\"from\":\"source:Transactions:parameters\",\"to\":\"source:Transactions:serviceName:\",\"fromPort\":\"source:Transactions:parameters\",\"toPort\":\"source:Transactions:serviceName:\",\"visible\":true,\"common\":false},{\"from\":\"source:Transactions:parameters\",\"to\":\"source:Transactions:statusDescription:\",\"fromPort\":\"source:Transactions:parameters\",\"toPort\":\"source:Transactions:statusDescription:\",\"visible\":true,\"common\":false},{\"from\":\"source:Transactions:parameters\",\"to\":\"source:Transactions:toAccountName:\",\"fromPort\":\"source:Transactions:parameters\",\"toPort\":\"source:Transactions:toAccountName:\",\"visible\":true,\"common\":false},{\"from\":\"source:Transactions:parameters\",\"to\":\"source:Transactions:toAccountNumber:\",\"fromPort\":\"source:Transactions:parameters\",\"toPort\":\"source:Transactions:toAccountNumber:\",\"visible\":true,\"common\":false},{\"from\":\"source:Transactions:parameters\",\"to\":\"source:Transactions:toAccountType:\",\"fromPort\":\"source:Transactions:parameters\",\"toPort\":\"source:Transactions:toAccountType:\",\"visible\":true,\"common\":false},{\"from\":\"source:Transactions:parameters\",\"to\":\"source:Transactions:transactionComments:\",\"fromPort\":\"source:Transactions:parameters\",\"toPort\":\"source:Transactions:transactionComments:\",\"visible\":true,\"common\":false},{\"from\":\"source:Transactions:parameters\",\"to\":\"source:Transactions:transactionDate:\",\"fromPort\":\"source:Transactions:parameters\",\"toPort\":\"source:Transactions:transactionDate:\",\"visible\":true,\"common\":false},{\"from\":\"source:Transactions:parameters\",\"to\":\"source:Transactions:transactionId:\",\"fromPort\":\"source:Transactions:parameters\",\"toPort\":\"source:Transactions:transactionId:\",\"visible\":true,\"common\":false},{\"from\":\"source:Transactions:parameters\",\"to\":\"source:Transactions:transactionsNotes:\",\"fromPort\":\"source:Transactions:parameters\",\"toPort\":\"source:Transactions:transactionsNotes:\",\"visible\":true,\"common\":false},{\"from\":\"source:Transactions:parameters\",\"to\":\"source:Transactions:transactiontype:\",\"fromPort\":\"source:Transactions:parameters\",\"toPort\":\"source:Transactions:transactiontype:\",\"visible\":true,\"common\":false},{\"from\":\"source:Transactions:parameters\",\"to\":\"source:Transactions:viewReportLink:\",\"fromPort\":\"source:Transactions:parameters\",\"toPort\":\"source:Transactions:viewReportLink:\",\"visible\":true,\"common\":false}],\"blockCount\":{\"variableCount\":0},\"variableMap\":{},\"xmlMappingOverride\":true}",
    "applyCommonMapping" : false,
    "applyRequestCommonMapping" : true,
    "applyResponseCommonMapping" : false,
    "backendMeta" : {
      "serviceName" : "dbpNonProductServices",
      "serviceVersion" : "1.0",
      "operationName" : "getUserScheduledTransactions"
    },
    "relationshipHierarchyMapping" : {
      "children" : [ ],
      "name" : "Transactions",
      "actions" : { },
      "selected" : true
    },
    "requestXmlMappingOverride" : false,
    "responseXmlMappingOverride" : true
  }
}