{
	"AS_Button_a85e5c229b9242ef9a66048770f1d227": {
		"id": "AS_Button_a85e5c229b9242ef9a66048770f1d227",
		"type": "ACTION_SEQUENCE",
		"params": [
			{
				"datatype": "collection",
				"name": "eventobject"
			}
		],
		"contextObj": {
			"type": "forms",
			"platform": "",
			"KUID": "c54d35764ddb43798fa888dae0bd8bca"
		},
		"language": "js",
		"actions": [
			{
				"id": "ADD_SNIPPET__g64f8a2941f3487280ea9786f4298ad7",
				"type": "ADD_SNIPPET",
				"codeSnippet": "this.setKeypadChar(3);",
				"parentId": null,
				"callbackType": null
			}
		]
	}
}