{
	"AS_Button_i4c7e5afa76447a1b2b1da8fd7c4d9ab": {
		"id": "AS_Button_i4c7e5afa76447a1b2b1da8fd7c4d9ab",
		"type": "ACTION_SEQUENCE",
		"params": [
			{
				"datatype": "collection",
				"name": "eventobject"
			}
		],
		"contextObj": {
			"type": "forms",
			"platform": "",
			"KUID": "g7e22c28197845999610464c98dff2f1"
		},
		"language": "js",
		"actions": [
			{
				"id": "ADD_SNIPPET__c71ec47120184f61951d9f9a26949175",
				"type": "ADD_SNIPPET",
				"codeSnippet": "this.setKeypadChar('0');",
				"parentId": null,
				"callbackType": null
			}
		]
	}
}