{
	"AS_BarButtonItem_c0981ee3c30347449f17f89636fca792": {
		"id": "AS_BarButtonItem_c0981ee3c30347449f17f89636fca792",
		"type": "ACTION_SEQUENCE",
		"params": [
			{
				"datatype": "collection",
				"name": "eventobject"
			}
		],
		"language": "js",
		"actions": [
			{
				"id": "INVOKE_FUNCTION___d86a8082c61a4927b3726855430f2a8c",
				"type": "INVOKE_FUNCTION",
				"sequenceKUID": "backNavigation",
				"display": "backNavigation",
				"inputparams": [],
				"parentId": null,
				"callbackType": null,
				"disabled": null,
				"source": "controller"
			}
		]
	}
}