{
	"AS_BarButtonItem_b1b7697afe55417f824ca8ca51286afd": {
		"id": "AS_BarButtonItem_b1b7697afe55417f824ca8ca51286afd",
		"type": "ACTION_SEQUENCE",
		"params": [
			{
				"datatype": "collection",
				"name": "eventobject"
			}
		],
		"language": "js",
		"actions": [
			{
				"id": "INVOKE_FUNCTION___g00ac73ac542425488035070ce11d63c",
				"type": "INVOKE_FUNCTION",
				"sequenceKUID": "navigateBack",
				"display": "navigateBack",
				"inputparams": [],
				"parentId": null,
				"callbackType": null,
				"disabled": null,
				"source": "controller"
			}
		]
	}
}