{
	"AS_Button_d965078fb8cc4dc79f8a9d9237cc3323": {
		"id": "AS_Button_d965078fb8cc4dc79f8a9d9237cc3323",
		"type": "ACTION_SEQUENCE",
		"params": [
			{
				"datatype": "collection",
				"name": "eventobject"
			}
		],
		"contextObj": {
			"type": "forms",
			"platform": "",
			"KUID": "gc06790d7319407dbf28bb0213d57a35"
		},
		"language": "js",
		"actions": [
			{
				"id": "ADD_SNIPPET__d0edaba4f7e942369f32ac044dbd673f",
				"type": "ADD_SNIPPET",
				"codeSnippet": "this.setKeypadChar(6);",
				"parentId": null,
				"callbackType": null
			}
		]
	}
}