{
	"AS_Button_cf34ed5c733d488b9ca7a5924802b668": {
		"id": "AS_Button_cf34ed5c733d488b9ca7a5924802b668",
		"type": "ACTION_SEQUENCE",
		"params": [
			{
				"datatype": "collection",
				"name": "eventobject"
			}
		],
		"contextObj": {
			"type": "forms",
			"platform": null,
			"KUID": "aca0967c6eae497b81b9c2b4a77637f2"
		},
		"language": "js",
		"actions": [
			{
				"id": "ADD_SNIPPET_ide_onClick_bc71bfce9799473687e54fbc9688f628",
				"type": "ADD_SNIPPET",
				"codeSnippet": "this.setKeypadChar(5);",
				"callbackType": null
			}
		]
	}
}