{
	"AS_BarButtonItem_a7d42edd43304eddb349075e3e9672c9": {
		"id": "AS_BarButtonItem_a7d42edd43304eddb349075e3e9672c9",
		"type": "ACTION_SEQUENCE",
		"params": [
			{
				"datatype": "collection",
				"name": "eventobject"
			}
		],
		"language": "js",
		"actions": [
			{
				"id": "INVOKE_FUNCTION___g0a509b914da43b08f89be717d5a0303",
				"type": "INVOKE_FUNCTION",
				"sequenceKUID": "onClickCancel",
				"display": "onClickCancel",
				"inputparams": [],
				"parentId": null,
				"callbackType": null,
				"disabled": null,
				"source": "controller"
			}
		]
	}
}