{
	"AS_BarButtonItem_ae3be21797ba4ec39f5c3dcf248fcfe9": {
		"id": "AS_BarButtonItem_ae3be21797ba4ec39f5c3dcf248fcfe9",
		"type": "ACTION_SEQUENCE",
		"params": [
			{
				"datatype": "collection",
				"name": "eventobject"
			}
		],
		"language": "js",
		"actions": [
			{
				"id": "INVOKE_FUNCTION___c2e33e0373f4401cbe21c45c4da219db",
				"type": "INVOKE_FUNCTION",
				"sequenceKUID": "onClickCancel",
				"display": "onClickCancel",
				"inputparams": [],
				"parentId": null,
				"callbackType": null,
				"disabled": null,
				"source": "controller"
			}
		]
	}
}