{
	"AS_BarButtonItem_f26902ae0d654e7c9cf3600f7659c4d2": {
		"id": "AS_BarButtonItem_f26902ae0d654e7c9cf3600f7659c4d2",
		"type": "ACTION_SEQUENCE",
		"params": [
			{
				"datatype": "collection",
				"name": "eventobject"
			}
		],
		"language": "js",
		"actions": [
			{
				"id": "ADD_SNIPPET__j3cdcde566ba4dad89e7489ac4c65a66",
				"type": "ADD_SNIPPET",
				"codeSnippet": "this.navigateBack();",
				"parentId": null,
				"callbackType": null
			}
		]
	}
}