{
	"AS_Button_ffae44a2d3984a04b8cf98c236c587cd": {
		"id": "AS_Button_ffae44a2d3984a04b8cf98c236c587cd",
		"type": "ACTION_SEQUENCE",
		"params": [
			{
				"datatype": "collection",
				"name": "eventobject"
			}
		],
		"contextObj": {
			"type": "forms",
			"platform": null,
			"KUID": "aca0967c6eae497b81b9c2b4a77637f2"
		},
		"language": "js",
		"actions": [
			{
				"id": "ADD_SNIPPET_ide_onClick_eee8432b68eb47e7908d5c3b66cb77d8",
				"type": "ADD_SNIPPET",
				"codeSnippet": "this.setKeypadChar(4);",
				"callbackType": null
			}
		]
	}
}