{
	"AS_BarButtonItem_c1f7821e6bf544ba8086f7cef5e17f02": {
		"id": "AS_BarButtonItem_c1f7821e6bf544ba8086f7cef5e17f02",
		"type": "ACTION_SEQUENCE",
		"params": [
			{
				"datatype": "collection",
				"name": "eventobject"
			}
		],
		"language": "js",
		"actions": [
			{
				"id": "INVOKE_FUNCTION___gaa95facd1a343888c037b5a409cb079",
				"type": "INVOKE_FUNCTION",
				"sequenceKUID": "handleCancelAction",
				"display": "handleCancelAction",
				"inputparams": [],
				"parentId": null,
				"callbackType": null,
				"disabled": null,
				"source": "controller"
			}
		]
	}
}