{
	"AS_Button_eb0f95ee79964078a127d937046e7b34": {
		"id": "AS_Button_eb0f95ee79964078a127d937046e7b34",
		"type": "ACTION_SEQUENCE",
		"params": [
			{
				"datatype": "collection",
				"name": "eventobject"
			}
		],
		"contextObj": {
			"type": "forms",
			"platform": "",
			"KUID": "gc06790d7319407dbf28bb0213d57a35"
		},
		"language": "js",
		"actions": [
			{
				"id": "ADD_SNIPPET__f09aba88de234962b9c18bb3d2ca0d8d",
				"type": "ADD_SNIPPET",
				"codeSnippet": "this.setKeypadChar(2);",
				"parentId": null,
				"callbackType": null
			}
		]
	}
}