{
	"AS_BarButtonItem_a2c1f18039c2416abccc7c220fbc50ac": {
		"id": "AS_BarButtonItem_a2c1f18039c2416abccc7c220fbc50ac",
		"type": "ACTION_SEQUENCE",
		"params": [
			{
				"datatype": "collection",
				"name": "eventobject"
			}
		],
		"language": "js",
		"actions": [
			{
				"id": "ADD_SNIPPET__jae53906221f4f4195fa8ded36e96b77",
				"type": "ADD_SNIPPET",
				"codeSnippet": "this.onClickCancel();",
				"parentId": null,
				"callbackType": null
			}
		]
	}
}