{
	"AS_Form_f9ea89911b264c05ba45bae9b34f1d4a": {
		"id": "AS_Form_f9ea89911b264c05ba45bae9b34f1d4a",
		"type": "ACTION_SEQUENCE",
		"params": [
			{
				"datatype": "collection",
				"name": "eventobject"
			}
		],
		"contextObj": {
			"type": "forms",
			"platform": "",
			"KUID": "d7ea44a6e4b64e00900ef98c9826f6f9"
		},
		"language": "js",
		"actions": [
			{
				"id": "INVOKE_FUNCTION___addf2ad1872f44fba0faec87ccec5304",
				"type": "INVOKE_FUNCTION",
				"sequenceKUID": "preShow",
				"display": "preShow",
				"inputparams": [],
				"parentId": null,
				"callbackType": null,
				"disabled": null,
				"source": "controller"
			}
		]
	}
}