{
	"AS_Form_b46a158248e94a9ead239efe69da1ac4": {
		"id": "AS_Form_b46a158248e94a9ead239efe69da1ac4",
		"type": "ACTION_SEQUENCE",
		"params": [
			{
				"datatype": "collection",
				"name": "eventobject"
			}
		],
		"contextObj": {
			"type": "forms",
			"platform": "",
			"KUID": "hf319e50848d4f10b690f9e98910bd59"
		},
		"language": "js",
		"actions": [
			{
				"id": "INVOKE_FUNCTION___gb7415c1a7e443d5a29c4957b2e77a16",
				"type": "INVOKE_FUNCTION",
				"sequenceKUID": "preShow",
				"display": "preShow",
				"inputparams": [],
				"parentId": null,
				"callbackType": null,
				"disabled": null,
				"source": "controller"
			}
		]
	}
}