{
	"AS_Form_h7d1cc90da8c4826848005439daca3be": {
		"id": "AS_Form_h7d1cc90da8c4826848005439daca3be",
		"type": "ACTION_SEQUENCE",
		"params": [
			{
				"datatype": "collection",
				"name": "eventobject"
			}
		],
		"contextObj": {
			"type": "forms",
			"platform": "",
			"KUID": "gc76e91da075495f9b0e185eaf35deb9"
		},
		"language": "js",
		"actions": [
			{
				"id": "ADD_SNIPPET__a0067ea369df4d8f9c164b97b4989448",
				"type": "ADD_SNIPPET",
				"codeSnippet": "this.preShow();",
				"parentId": null,
				"callbackType": null
			}
		]
	}
}