{
	"AS_Form_e04b01a40c4648f796a2d63f48247405": {
		"id": "AS_Form_e04b01a40c4648f796a2d63f48247405",
		"type": "ACTION_SEQUENCE",
		"params": [
			{
				"datatype": "collection",
				"name": "eventobject"
			}
		],
		"contextObj": {
			"type": "forms",
			"platform": "",
			"KUID": "ae73163d9c574bafb72a3c7670818d22"
		},
		"language": "js",
		"actions": [
			{
				"id": "ADD_SNIPPET__c0355b204f774c7399ccf7a06b7383e2",
				"type": "ADD_SNIPPET",
				"codeSnippet": "this.postShow();",
				"parentId": null,
				"callbackType": null
			}
		]
	}
}