{
	"AS_Form_e65fbd3067d947d88c30492d1fadb48f": {
		"id": "AS_Form_e65fbd3067d947d88c30492d1fadb48f",
		"type": "ACTION_SEQUENCE",
		"params": [
			{
				"datatype": "collection",
				"name": "eventobject"
			}
		],
		"contextObj": {
			"type": "forms",
			"platform": "",
			"KUID": "g13b0c39bfb84119a86df1a5beb44e0b"
		},
		"language": "js",
		"actions": [
			{
				"id": "INVOKE_FUNCTION___g05ad8bd3937443cb4f1ceb33d32059b",
				"type": "INVOKE_FUNCTION",
				"sequenceKUID": "preShow",
				"display": "preShow",
				"inputparams": [],
				"parentId": null,
				"callbackType": null,
				"disabled": null,
				"source": "controller"
			}
		]
	}
}