{
	"AS_Form_ib5ade458d1645acbdb2c1fe5c6a2d61": {
		"id": "AS_Form_ib5ade458d1645acbdb2c1fe5c6a2d61",
		"type": "ACTION_SEQUENCE",
		"params": [
			{
				"datatype": "collection",
				"name": "eventobject"
			}
		],
		"contextObj": {
			"type": "forms",
			"platform": "",
			"KUID": "b69e637e0af14583b343867764044b2c"
		},
		"language": "js",
		"actions": [
			{
				"id": "ADD_SNIPPET__ecb128cdbbb248258b2eb71361f50099",
				"type": "ADD_SNIPPET",
				"codeSnippet": "this.frmPreshow();",
				"parentId": null,
				"callbackType": null
			}
		]
	}
}