{
	"AS_Form_af0a486fd36d4128af435ffdd5c3acbc": {
		"id": "AS_Form_af0a486fd36d4128af435ffdd5c3acbc",
		"type": "ACTION_SEQUENCE",
		"params": [
			{
				"datatype": "collection",
				"name": "eventobject"
			}
		],
		"contextObj": {
			"type": "forms",
			"platform": "",
			"KUID": "e84ad0678aff407e974aefefa5280788"
		},
		"language": "js",
		"actions": [
			{
				"id": "ADD_SNIPPET__b694460f4c9440cfa33684226d957674",
				"type": "ADD_SNIPPET",
				"codeSnippet": "this.init();",
				"parentId": null,
				"callbackType": null
			}
		]
	}
}