{
	"AS_Form_bd08506bbc334af0bc1e622c0b5f21f6": {
		"id": "AS_Form_bd08506bbc334af0bc1e622c0b5f21f6",
		"type": "ACTION_SEQUENCE",
		"params": [
			{
				"datatype": "collection",
				"name": "eventobject"
			}
		],
		"contextObj": {
			"type": "forms",
			"platform": null,
			"KUID": "i42eaafa42424072b40c24b1dea6f7ca"
		},
		"language": "js",
		"actions": [
			{
				"id": "ADD_SNIPPET_ide_preShow_a9e236e5a1254d82a79e5c26ab160099",
				"type": "ADD_SNIPPET",
				"codeSnippet": "this.preShow();",
				"callbackType": null
			}
		]
	}
}