{
	"AS_Form_ad9cccb9d3e34e2d81234b57ace4c9c7": {
		"id": "AS_Form_ad9cccb9d3e34e2d81234b57ace4c9c7",
		"type": "ACTION_SEQUENCE",
		"params": [
			{
				"datatype": "collection",
				"name": "eventobject"
			}
		],
		"contextObj": {
			"type": "forms",
			"platform": "",
			"KUID": "f019cc6e3b2648f595356f0f415384e9"
		},
		"language": "js",
		"actions": [
			{
				"id": "INVOKE_FUNCTION___b9e49320893042a3805a0788dbe465d3",
				"type": "INVOKE_FUNCTION",
				"sequenceKUID": "preShow",
				"display": "preShow",
				"inputparams": [],
				"parentId": null,
				"callbackType": null,
				"disabled": null,
				"source": "controller"
			}
		]
	}
}