{
	"AS_Form_dc6c480392a44a7e8e4e5783a326cf81": {
		"id": "AS_Form_dc6c480392a44a7e8e4e5783a326cf81",
		"type": "ACTION_SEQUENCE",
		"params": [
			{
				"datatype": "collection",
				"name": "eventobject"
			}
		],
		"contextObj": {
			"type": "forms",
			"platform": "",
			"KUID": "b37039a59c6d4adca35137449c392817"
		},
		"language": "js",
		"actions": [
			{
				"id": "ADD_SNIPPET__a3fabaa6e6f14c63b290fc9d3ba3aaf4",
				"type": "ADD_SNIPPET",
				"codeSnippet": "this.preShow();",
				"parentId": null,
				"callbackType": null
			}
		]
	}
}