{
	"AS_Form_j1f79d5c35bb429981a0e04fe7e6ff40": {
		"id": "AS_Form_j1f79d5c35bb429981a0e04fe7e6ff40",
		"type": "ACTION_SEQUENCE",
		"params": [
			{
				"datatype": "collection",
				"name": "eventobject"
			}
		],
		"contextObj": {
			"type": "forms",
			"platform": "",
			"KUID": "b2e5e3ca7fd34da2bcd94cb2bf3b6d9d"
		},
		"language": "js",
		"actions": [
			{
				"id": "ADD_SNIPPET__c2a78eaeb48840dfafd9c98e0d5a758c",
				"type": "ADD_SNIPPET",
				"codeSnippet": "this.preShow();",
				"parentId": null,
				"callbackType": null
			}
		]
	}
}