{
	"AS_Form_c9552e7090ed4979bb626371163b8ccc": {
		"id": "AS_Form_c9552e7090ed4979bb626371163b8ccc",
		"type": "ACTION_SEQUENCE",
		"params": [
			{
				"datatype": "collection",
				"name": "eventobject"
			}
		],
		"contextObj": {
			"type": "forms",
			"platform": "",
			"KUID": "ab2b3ab316a747beb81752ce510be775"
		},
		"language": "js",
		"actions": [
			{
				"id": "INVOKE_FUNCTION___i670112b5bd14e498b201e80da697404",
				"type": "INVOKE_FUNCTION",
				"sequenceKUID": "init",
				"display": "init",
				"inputparams": [],
				"parentId": null,
				"callbackType": null,
				"disabled": null,
				"source": "controller"
			}
		]
	}
}