{
	"AS_Form_b863fc59e28240979ddefb5e417c560f": {
		"id": "AS_Form_b863fc59e28240979ddefb5e417c560f",
		"type": "ACTION_SEQUENCE",
		"params": [
			{
				"datatype": "collection",
				"name": "eventobject"
			}
		],
		"contextObj": {
			"type": "forms",
			"platform": "",
			"KUID": "a31f35ecac1d4ac2842f342cee534418"
		},
		"language": "js",
		"actions": [
			{
				"id": "ADD_SNIPPET__g711213813384b29aa65581bc32bd07e",
				"type": "ADD_SNIPPET",
				"codeSnippet": "this.preShow();",
				"parentId": null,
				"callbackType": null
			}
		]
	}
}