{
	"AS_FlexContainer_c54f532a4ab64595ab471ca2e82b6adf": {
		"id": "AS_FlexContainer_c54f532a4ab64595ab471ca2e82b6adf",
		"type": "ACTION_SEQUENCE",
		"params": [
			{
				"datatype": "collection",
				"name": "eventobject"
			}
		],
		"contextObj": {
			"type": "forms",
			"platform": "",
			"KUID": "f70435e383a04b5d83c06bd4c80afa2f"
		},
		"language": "js",
		"actions": []
	}
}