{
	"AS_Form_i173ea5685f64485b7de2f8541452327": {
		"id": "AS_Form_i173ea5685f64485b7de2f8541452327",
		"type": "ACTION_SEQUENCE",
		"params": [
			{
				"datatype": "collection",
				"name": "eventobject"
			}
		],
		"contextObj": {
			"type": "forms",
			"platform": "",
			"KUID": "e86dd43f0c9c4b91bde3c8887b947300"
		},
		"language": "js",
		"actions": [
			{
				"id": "INVOKE_FUNCTION___b11e1bda4a01403a8d0c1ead57e237fc",
				"type": "INVOKE_FUNCTION",
				"sequenceKUID": "preShow",
				"display": "preShow",
				"inputparams": [],
				"parentId": null,
				"callbackType": null,
				"disabled": null,
				"source": "controller"
			}
		]
	}
}