{
	"AS_Form_h88602e592b043ccbf4b3ba978de5c8b": {
		"id": "AS_Form_h88602e592b043ccbf4b3ba978de5c8b",
		"type": "ACTION_SEQUENCE",
		"params": [
			{
				"datatype": "collection",
				"name": "eventobject"
			}
		],
		"contextObj": {
			"type": "forms",
			"platform": "",
			"KUID": "f70435e383a04b5d83c06bd4c80afa2f"
		},
		"language": "js",
		"actions": [
			{
				"id": "INVOKE_FUNCTION___hd0c7e7cd4c1428ab42cfbe0023cb92e",
				"type": "INVOKE_FUNCTION",
				"sequenceKUID": "preshow",
				"display": "preshow",
				"inputparams": [],
				"parentId": null,
				"callbackType": null,
				"disabled": null,
				"source": "controller"
			}
		]
	}
}