{
	"AS_Form_hd90370c19fa4ec2a2fd8ce7e3b8b3ac": {
		"id": "AS_Form_hd90370c19fa4ec2a2fd8ce7e3b8b3ac",
		"type": "ACTION_SEQUENCE",
		"params": [
			{
				"datatype": "collection",
				"name": "eventobject"
			}
		],
		"contextObj": {
			"type": "forms",
			"platform": null,
			"KUID": "a415730c104e4f87be2b0243e68e6c48"
		},
		"language": "js",
		"actions": [
			{
				"id": "ADD_SNIPPET_ide_preShow_gc2ca10737f549abb5b874cfc0da618b",
				"type": "ADD_SNIPPET",
				"codeSnippet": "this.callOnPreShow();",
				"callbackType": null
			}
		]
	}
}