{
	"AS_Form_c18ed9dab39f4e7aaaf3734ba87eea4b": {
		"id": "AS_Form_c18ed9dab39f4e7aaaf3734ba87eea4b",
		"type": "ACTION_SEQUENCE",
		"params": [
			{
				"datatype": "collection",
				"name": "eventobject"
			}
		],
		"contextObj": {
			"type": "forms",
			"platform": null,
			"KUID": "e06d21e3e1f0499eb527408cbd9232a9"
		},
		"language": "js",
		"actions": [
			{
				"id": "ADD_SNIPPET_ide_init_ece13648eb354a48807f567fd4b351af",
				"type": "ADD_SNIPPET",
				"codeSnippet": "this.init();",
				"callbackType": null
			}
		]
	}
}