{
	"AS_Form_jbff123408f04483b41dc9d4eddcc2b2": {
		"id": "AS_Form_jbff123408f04483b41dc9d4eddcc2b2",
		"type": "ACTION_SEQUENCE",
		"params": [
			{
				"datatype": "collection",
				"name": "eventobject"
			}
		],
		"contextObj": {
			"type": "forms",
			"platform": "",
			"KUID": "jc55ea189aa540b1a398965b1882639e"
		},
		"language": "js",
		"actions": [
			{
				"id": "INVOKE_FUNCTION___bb0f04ac48354f36ab04f187a0cc153d",
				"type": "INVOKE_FUNCTION",
				"sequenceKUID": "preShow",
				"display": "preShow",
				"inputparams": [],
				"parentId": null,
				"callbackType": null,
				"disabled": null,
				"source": "controller"
			}
		]
	}
}