{
	"AS_Form_h797eca9f7624a7ba176d58682842879": {
		"id": "AS_Form_h797eca9f7624a7ba176d58682842879",
		"type": "ACTION_SEQUENCE",
		"params": [
			{
				"datatype": "collection",
				"name": "eventobject"
			}
		],
		"contextObj": {
			"type": "forms",
			"platform": "",
			"KUID": "b37039a59c6d4adca35137449c392817"
		},
		"language": "js",
		"actions": [
			{
				"id": "INVOKE_FUNCTION___ffa7dadfbbcb4aea83516724ff46f85a",
				"type": "INVOKE_FUNCTION",
				"sequenceKUID": "init",
				"display": "init",
				"inputparams": [],
				"parentId": null,
				"callbackType": null,
				"disabled": null,
				"source": "controller"
			}
		]
	}
}