{
	"AS_Image_g2e76dc85e4844acb8f6fe72250269dd": {
		"id": "AS_Image_g2e76dc85e4844acb8f6fe72250269dd",
		"type": "ACTION_SEQUENCE",
		"params": [
			{
				"datatype": "collection",
				"name": "eventobject"
			},
			{
				"datatype": "string",
				"name": "imagesrc"
			},
			{
				"datatype": "boolean",
				"name": "issuccess"
			}
		],
		"language": "js",
		"actions": [
			{
				"id": "ADD_SNIPPET_ide_onDownloadComplete_f0c3031eb2854954972addb5406567d1",
				"type": "ADD_SNIPPET",
				"codeSnippet": "this.onAdDownloadComplete(issuccess,1);",
				"callbackType": null
			}
		]
	}
}