{
	"AS_Image_b73370e082124381af24d29267fb0484": {
		"id": "AS_Image_b73370e082124381af24d29267fb0484",
		"type": "ACTION_SEQUENCE",
		"params": [
			{
				"datatype": "collection",
				"name": "eventobject"
			},
			{
				"datatype": "string",
				"name": "imagesrc"
			},
			{
				"datatype": "boolean",
				"name": "issuccess"
			}
		],
		"language": "js",
		"actions": [
			{
				"id": "ADD_SNIPPET_ide_onDownloadComplete_af038521524a4187aa170c5957a7a366",
				"type": "ADD_SNIPPET",
				"codeSnippet": "this.onAdDownloadComplete(issuccess,5);",
				"callbackType": null
			}
		]
	}
}