{
	"AS_Image_b21d99f6264d42589382e427a3b53585": {
		"id": "AS_Image_b21d99f6264d42589382e427a3b53585",
		"type": "ACTION_SEQUENCE",
		"params": [
			{
				"datatype": "collection",
				"name": "eventobject"
			},
			{
				"datatype": "string",
				"name": "imagesrc"
			},
			{
				"datatype": "boolean",
				"name": "issuccess"
			}
		],
		"contextObj": {
			"type": "forms",
			"platform": null,
			"KUID": "f3f3eb2dd48e453183bd2ffd47ee47cd"
		},
		"language": "js",
		"actions": [
			{
				"id": "ADD_SNIPPET_ide_onDownloadComplete_c5c1c286f5424cc9a73d7b08ac20053c",
				"type": "ADD_SNIPPET",
				"codeSnippet": "this.onAdDownloadComplete(issuccess,5);",
				"callbackType": null
			}
		]
	}
}