{
	"AS_Image_c11244fbe61a4638a07a82864877cd38": {
		"id": "AS_Image_c11244fbe61a4638a07a82864877cd38",
		"type": "ACTION_SEQUENCE",
		"params": [
			{
				"datatype": "collection",
				"name": "eventobject"
			},
			{
				"datatype": "string",
				"name": "imagesrc"
			},
			{
				"datatype": "boolean",
				"name": "issuccess"
			}
		],
		"contextObj": {
			"type": "forms",
			"platform": null,
			"KUID": "c8a7dc6c7ee34a309865ec250710894b"
		},
		"language": "js",
		"actions": [
			{
				"id": "ADD_SNIPPET_ide_onDownloadComplete_fd5d876176be44ea9e210db5c3094184",
				"type": "ADD_SNIPPET",
				"codeSnippet": "this.onAdDownloadComplete(issuccess,1);",
				"callbackType": null
			}
		]
	}
}