{
	"AS_Image_j08c8509aee24249801954ea2b33c852": {
		"id": "AS_Image_j08c8509aee24249801954ea2b33c852",
		"type": "ACTION_SEQUENCE",
		"params": [
			{
				"datatype": "collection",
				"name": "eventobject"
			},
			{
				"datatype": "string",
				"name": "x"
			},
			{
				"datatype": "string",
				"name": "y"
			}
		],
		"contextObj": {
			"type": "forms",
			"platform": null,
			"KUID": "f02a8866bb4743c7bb4782a195904b0c"
		},
		"language": "js",
		"actions": [
			{
				"id": "ADD_SNIPPET_ide_onTouchEnd_c224b49d697447c584571395500a3221",
				"type": "ADD_SNIPPET",
				"codeSnippet": "this.clearKeypadChar();",
				"callbackType": null
			}
		]
	}
}