{
	"AS_TextField_i063cf6948164589a8d09c70d11b0f4e": {
		"id": "AS_TextField_i063cf6948164589a8d09c70d11b0f4e",
		"type": "ACTION_SEQUENCE",
		"params": [
			{
				"datatype": "collection",
				"name": "eventobject"
			},
			{
				"datatype": "string",
				"name": "changedtext"
			}
		],
		"language": "js",
		"actions": [
			{
				"id": "INVOKE_FUNCTION__ide_onEndEditing_h4b67ad9d82d49aeb6b0601752ff6fab",
				"type": "INVOKE_FUNCTION",
				"sequenceKUID": "txtEnterUsernameOnEndEditing",
				"display": "txtEnterUsernameOnEndEditing",
				"inputparams": [],
				"callbackType": null,
				"disabled": null,
				"source": "controller"
			}
		]
	}
}