{
  "serviceType" : "integration",
  "jars" : [ {
    "name" : "dbp-commonutilityservices.jar",
    "type" : "jar"
  }, {
    "name" : "dbp-productservices.jar",
    "type" : "servicejar"
  }, {
    "name" : "DBPFramework.jar",
    "type" : "jar"
  } ]
}