{
    "@class": "com.kony.gen.viz.model.component.KVizButton",
    "DNDConfig": null,
    "__parentReadjusting__": false,
    "_bottom_": {
        "type": "string",
        "value": "21dp"
    },
    "_height_": {
        "type": "string",
        "value": "40dp"
    },
    "_left_": {
        "type": "string",
        "value": "20dp"
    },
    "_margin_": [
        6,
        6,
        6,
        6
    ],
    "_padding_": [
        0,
        0,
        0,
        0
    ],
    "_right_": {
        "type": "string",
        "value": "20dp"
    },
    "_skin_": "s30d39ca8c744d388569c1d52d0824b6",
    "_text_": "CONTINUE",
    "accessibilityconfig": {
        "a11yLabel": "DELETE ACCOUNT"
    },
    "canUpdateUI": true,
    "containerweight": 100,
    "contentalignment": 5,
    "disabledSkins": {},
    "displaytext": true,
    "focusskin": "s1ba251bcd374b38a477c71e7d26bfd5",
    "id": "btnDeleteAccount",
    "info": null,
    "iphone": {
        "psp": {
            "showProgressIndicator": false
        }
    },
    "isvisible": true,
    "kuid": "dec8ed91f446477a9709a57898ea254c",
    "name": "kony.ui.Button",
    "parent": "flxBody",
    "pf": "frmExternalAccountDetails",
    "texti18n": "kony.mb.externalBank.DeleteAccount",
    "wType": "Button",
    "zindex": 1
}