{
    "BusinessControllerConfig": {
        "CommandHandler": [],
        "BusinessControllerClass": "ExternalAccountsModule/BusinessControllers/BusinessController"
    },
    "PresentationControllerConfig": {
        "Default": {
            "PresentationExtensions": [],
            "PresentationControllerClass": "ExternalAccountsModule/PresentationControllers/PresentationController"
        }
    },
    "Forms": {},
    "ModuleName": "ExternalAccountsModule"
}