{
	"AS_Button_ed3095ed534f4390b0835711f8bd9770": {
		"id": "AS_Button_ed3095ed534f4390b0835711f8bd9770",
		"type": "ACTION_SEQUENCE",
		"params": [
			{
				"datatype": "collection",
				"name": "eventobject"
			}
		],
		"contextObj": {
			"type": "userwidgets",
			"KUID": "8267095617db4db28977d7bec882be33"
		},
		"language": "js",
		"actions": [
			{
				"id": "ADD_SNIPPET__g3b1fb1ec2c54fc28eab15abd816ba6d",
				"type": "ADD_SNIPPET",
				"codeSnippet": "this.option4Clicked();",
				"parentId": null,
				"callbackType": null
			}
		]
	}
}