{
	"AS_Button_g0f1221e9a8f43b5b3abfaa8dfec37de": {
		"id": "AS_Button_g0f1221e9a8f43b5b3abfaa8dfec37de",
		"type": "ACTION_SEQUENCE",
		"params": [
			{
				"datatype": "collection",
				"name": "eventobject"
			}
		],
		"language": "js",
		"actions": [
			{
				"id": "ADD_SNIPPET_ide_onClick_h4435b9c3c5b458fb3818f5e2427ff44",
				"type": "ADD_SNIPPET",
				"codeSnippet": "this.setChar(5);",
				"callbackType": null
			}
		]
	}
}