{
	"AS_FlexContainer_g69c25f04167498998479958c04b31bd": {
		"id": "AS_FlexContainer_g69c25f04167498998479958c04b31bd",
		"type": "ACTION_SEQUENCE",
		"params": [
			{
				"datatype": "collection",
				"name": "eventobject"
			}
		],
		"contextObj": {
			"type": "userwidgets",
			"KUID": "cff93c207081448f94943a7ac5e0740d"
		},
		"language": "js",
		"actions": [
			{
				"id": "INVOKE_FUNCTION__c59d00366c9b46829a10f0bcbf19aeb0",
				"type": "INVOKE_FUNCTION",
				"sequenceKUID": "preShow",
				"display": "preShow",
				"inputparams": [],
				"parentId": null,
				"callbackType": null,
				"disabled": null,
				"source": "controller"
			}
		]
	}
}