{
	"AS_FlexContainer_a75e098c358f4f8bb5f9fac28f0adb2b": {
		"id": "AS_FlexContainer_a75e098c358f4f8bb5f9fac28f0adb2b",
		"type": "ACTION_SEQUENCE",
		"params": [
			{
				"datatype": "collection",
				"name": "eventobject"
			}
		],
		"contextObj": {
			"type": "userwidgets",
			"KUID": "ubcb1e3f9cca43779da742148666c54f"
		},
		"language": "js",
		"actions": [
			{
				"id": "ADD_SNIPPET_fcbd209cae744663995770f79f0664dc",
				"type": "ADD_SNIPPET",
				"codeSnippet": "this.view.flxAddAddress.setVisibility(false);\nthis.view.flxBICSwift.setVisibility(true);\n",
				"parentId": null
			}
		]
	}
}