{
	"AS_FlexContainer_h81b53ad46c14c15b2463601284c7b95": {
		"id": "AS_FlexContainer_h81b53ad46c14c15b2463601284c7b95",
		"type": "ACTION_SEQUENCE",
		"params": [
			{
				"datatype": "collection",
				"name": "eventobject"
			}
		],
		"contextObj": {
			"type": "userwidgets",
			"KUID": "ud17f8a61e934812ab056b1026f89812"
		},
		"language": "js",
		"actions": [
			{
				"id": "INVOKE_FUNCTION___fe65869203ee4774ba7e0a71b60085f4",
				"type": "INVOKE_FUNCTION",
				"sequenceKUID": "setupSkins",
				"display": "setupSkins",
				"inputparams": [],
				"parentId": null,
				"callbackType": null,
				"disabled": null,
				"source": "controller"
			}
		]
	}
}