{
	"AS_FlexContainer_a8fb6b905b5c40f891c55a35bca80cd3": {
		"id": "AS_FlexContainer_a8fb6b905b5c40f891c55a35bca80cd3",
		"type": "ACTION_SEQUENCE",
		"params": [
			{
				"datatype": "collection",
				"name": "eventobject"
			}
		],
		"contextObj": {
			"type": "userwidgets",
			"KUID": "u7186807f97f4c0096d0b9b10d5cbf78"
		},
		"language": "js",
		"actions": [
			{
				"id": "INVOKE_FUNCTION__d8c6192feb914d8da5976cc28cf0e226",
				"type": "INVOKE_FUNCTION",
				"sequenceKUID": "preShow",
				"display": "preShow",
				"inputparams": [],
				"parentId": null,
				"disabled": null,
				"source": "controller"
			}
		]
	}
}