{
	"AS_TextField_c6904b52655e429196f642e5d17c8f6e": {
		"id": "AS_TextField_c6904b52655e429196f642e5d17c8f6e",
		"type": "ACTION_SEQUENCE",
		"params": [
			{
				"datatype": "collection",
				"name": "eventobject"
			},
			{
				"datatype": "string",
				"name": "changedtext"
			}
		],
		"contextObj": {
			"type": "userwidgets",
			"KUID": "u8f97ac4a17945f097b6407157184eaf"
		},
		"language": "js",
		"actions": [
			{
				"id": "ADD_SNIPPET_e89ad7cde6274a348ac8c598e6c06071",
				"type": "ADD_SNIPPET",
				"codeSnippet": "this.searchTextChange();",
				"parentId": null
			}
		]
	}
}