{
    "@class": "com.kony.gen.viz.model.container.KVizSegment2",
    "DNDConfig": null,
    "__parentReadjusting__": false,
    "_data_": [
        {
            "lblIBAN": {
                "@class": "com.viz.ide.model.segment.SimpleTextSegmentData",
                "i18nkey": "kony.mb.addBen.accNo",
                "text": ""
            },
            "lblIBANValue": {
                "@class": "com.viz.ide.model.segment.SimpleTextSegmentData",
                "text": "FR 4567 7456 3425 4532 1423 4356 321 "
            },
            "lblNickName": {
                "@class": "com.viz.ide.model.segment.SimpleTextSegmentData",
                "i18nkey": "kony.mb.p2p.recipientName",
                "text": ""
            },
            "lblNickNameValue": {
                "@class": "com.viz.ide.model.segment.SimpleTextSegmentData",
                "text": "Linda"
            },
            "lblSeparator": {
                "@class": "com.viz.ide.model.segment.SimpleTextSegmentData",
                "text": ""
            }
        },
        {
            "lblIBAN": {
                "@class": "com.viz.ide.model.segment.SimpleTextSegmentData",
                "i18nkey": "kony.mb.addBen.accNo",
                "text": ""
            },
            "lblIBANValue": {
                "@class": "com.viz.ide.model.segment.SimpleTextSegmentData",
                "text": "FR 4567 7456 3425 4532 1423 4356 321 "
            },
            "lblNickName": {
                "@class": "com.viz.ide.model.segment.SimpleTextSegmentData",
                "i18nkey": "kony.mb.p2p.recipientName",
                "text": ""
            },
            "lblNickNameValue": {
                "@class": "com.viz.ide.model.segment.SimpleTextSegmentData",
                "text": "Linda"
            },
            "lblSeparator": {
                "@class": "com.viz.ide.model.segment.SimpleTextSegmentData",
                "text": ""
            }
        },
        {
            "lblIBAN": {
                "@class": "com.viz.ide.model.segment.SimpleTextSegmentData",
                "i18nkey": "kony.mb.addBen.accNo",
                "text": ""
            },
            "lblIBANValue": {
                "@class": "com.viz.ide.model.segment.SimpleTextSegmentData",
                "text": "FR 4567 7456 3425 4532 1423 4356 321 "
            },
            "lblNickName": {
                "@class": "com.viz.ide.model.segment.SimpleTextSegmentData",
                "i18nkey": "kony.mb.p2p.recipientName",
                "text": ""
            },
            "lblNickNameValue": {
                "@class": "com.viz.ide.model.segment.SimpleTextSegmentData",
                "text": "Linda"
            },
            "lblSeparator": {
                "@class": "com.viz.ide.model.segment.SimpleTextSegmentData",
                "text": ""
            }
        },
        {
            "lblIBAN": {
                "@class": "com.viz.ide.model.segment.SimpleTextSegmentData",
                "i18nkey": "kony.mb.addBen.accNo",
                "text": ""
            },
            "lblIBANValue": {
                "@class": "com.viz.ide.model.segment.SimpleTextSegmentData",
                "text": "FR 4567 7456 3425 4532 1423 4356 321 "
            },
            "lblNickName": {
                "@class": "com.viz.ide.model.segment.SimpleTextSegmentData",
                "i18nkey": "kony.mb.p2p.recipientName",
                "text": ""
            },
            "lblNickNameValue": {
                "@class": "com.viz.ide.model.segment.SimpleTextSegmentData",
                "text": "Linda"
            },
            "lblSeparator": {
                "@class": "com.viz.ide.model.segment.SimpleTextSegmentData",
                "text": ""
            }
        },
        {
            "lblIBAN": {
                "@class": "com.viz.ide.model.segment.SimpleTextSegmentData",
                "i18nkey": "kony.mb.addBen.accNo",
                "text": ""
            },
            "lblIBANValue": {
                "@class": "com.viz.ide.model.segment.SimpleTextSegmentData",
                "text": "FR 4567 7456 3425 4532 1423 4356 321 "
            },
            "lblNickName": {
                "@class": "com.viz.ide.model.segment.SimpleTextSegmentData",
                "i18nkey": "kony.mb.p2p.recipientName",
                "text": ""
            },
            "lblNickNameValue": {
                "@class": "com.viz.ide.model.segment.SimpleTextSegmentData",
                "text": "Linda"
            },
            "lblSeparator": {
                "@class": "com.viz.ide.model.segment.SimpleTextSegmentData",
                "text": ""
            }
        },
        {
            "lblIBAN": {
                "@class": "com.viz.ide.model.segment.SimpleTextSegmentData",
                "i18nkey": "kony.mb.addBen.accNo",
                "text": ""
            },
            "lblIBANValue": {
                "@class": "com.viz.ide.model.segment.SimpleTextSegmentData",
                "text": "FR 4567 7456 3425 4532 1423 4356 321 "
            },
            "lblNickName": {
                "@class": "com.viz.ide.model.segment.SimpleTextSegmentData",
                "i18nkey": "kony.mb.p2p.recipientName",
                "text": ""
            },
            "lblNickNameValue": {
                "@class": "com.viz.ide.model.segment.SimpleTextSegmentData",
                "text": "Linda"
            },
            "lblSeparator": {
                "@class": "com.viz.ide.model.segment.SimpleTextSegmentData",
                "text": ""
            }
        },
        {
            "lblIBAN": {
                "@class": "com.viz.ide.model.segment.SimpleTextSegmentData",
                "i18nkey": "kony.mb.addBen.accNo",
                "text": ""
            },
            "lblIBANValue": {
                "@class": "com.viz.ide.model.segment.SimpleTextSegmentData",
                "text": "FR 4567 7456 3425 4532 1423 4356 321 "
            },
            "lblNickName": {
                "@class": "com.viz.ide.model.segment.SimpleTextSegmentData",
                "i18nkey": "kony.mb.p2p.recipientName",
                "text": ""
            },
            "lblNickNameValue": {
                "@class": "com.viz.ide.model.segment.SimpleTextSegmentData",
                "text": "Linda"
            },
            "lblSeparator": {
                "@class": "com.viz.ide.model.segment.SimpleTextSegmentData",
                "text": ""
            }
        },
        {
            "lblIBAN": {
                "@class": "com.viz.ide.model.segment.SimpleTextSegmentData",
                "i18nkey": "kony.mb.addBen.accNo",
                "text": ""
            },
            "lblIBANValue": {
                "@class": "com.viz.ide.model.segment.SimpleTextSegmentData",
                "text": "FR 4567 7456 3425 4532 1423 4356 321 "
            },
            "lblNickName": {
                "@class": "com.viz.ide.model.segment.SimpleTextSegmentData",
                "i18nkey": "kony.mb.p2p.recipientName",
                "text": ""
            },
            "lblNickNameValue": {
                "@class": "com.viz.ide.model.segment.SimpleTextSegmentData",
                "text": "Linda"
            },
            "lblSeparator": {
                "@class": "com.viz.ide.model.segment.SimpleTextSegmentData",
                "text": ""
            }
        },
        {
            "lblIBAN": {
                "@class": "com.viz.ide.model.segment.SimpleTextSegmentData",
                "i18nkey": "kony.mb.addBen.accNo",
                "text": ""
            },
            "lblIBANValue": {
                "@class": "com.viz.ide.model.segment.SimpleTextSegmentData",
                "text": "FR 4567 7456 3425 4532 1423 4356 321 "
            },
            "lblNickName": {
                "@class": "com.viz.ide.model.segment.SimpleTextSegmentData",
                "i18nkey": "kony.mb.p2p.recipientName",
                "text": ""
            },
            "lblNickNameValue": {
                "@class": "com.viz.ide.model.segment.SimpleTextSegmentData",
                "text": "Linda"
            },
            "lblSeparator": {
                "@class": "com.viz.ide.model.segment.SimpleTextSegmentData",
                "text": ""
            }
        },
        {
            "lblIBAN": {
                "@class": "com.viz.ide.model.segment.SimpleTextSegmentData",
                "i18nkey": "kony.mb.addBen.accNo",
                "text": ""
            },
            "lblIBANValue": {
                "@class": "com.viz.ide.model.segment.SimpleTextSegmentData",
                "text": "FR 4567 7456 3425 4532 1423 4356 321 "
            },
            "lblNickName": {
                "@class": "com.viz.ide.model.segment.SimpleTextSegmentData",
                "i18nkey": "kony.mb.p2p.recipientName",
                "text": ""
            },
            "lblNickNameValue": {
                "@class": "com.viz.ide.model.segment.SimpleTextSegmentData",
                "text": "Linda"
            },
            "lblSeparator": {
                "@class": "com.viz.ide.model.segment.SimpleTextSegmentData",
                "text": ""
            }
        }
    ],
    "_height_": {
        "type": "string",
        "value": "240dp"
    },
    "_indicator_": "none",
    "_left_": {
        "type": "string",
        "value": "0dp"
    },
    "_margin_": [
        0,
        0,
        0,
        0
    ],
    "_orientation_": 2,
    "_padding_": [
        0,
        0,
        0,
        0
    ],
    "_top_": {
        "type": "string",
        "value": "5dp"
    },
    "_width_": {
        "type": "string",
        "value": "100%"
    },
    "autogrowmode": 0,
    "canUpdateUI": true,
    "containerweight": 100,
    "counter": "09",
    "focusedindex": null,
    "focuseditem": null,
    "groupcells": false,
    "hasSections": false,
    "id": "segToAccount",
    "info": null,
    "ipad": {
        "psp": {
            "indicator": "rowselect"
        }
    },
    "iphone": {
        "psp": {
            "indicator": "none"
        }
    },
    "iscustomlayout": false,
    "isvisible": true,
    "kuid": "i3153d0e7b354efab815507c2c72fa3c",
    "masterdata": {},
    "name": "kony.ui.SegmentedUI2",
    "needpageindicator": true,
    "pageoffdotimage": "pageoffdot.png",
    "pageondotimage": "pageondot.png",
    "paginationconfig": {
        "position": "bottom"
    },
    "parent": "flxToAccountHints",
    "pf": "frmtransfersAccountNumberEurope",
    "retaincontentalignment": false,
    "retainflexpositionproperties": false,
    "retainselection": false,
    "rowTemplateId": "jff9d66f67904ae0a85679891e7f1254",
    "rowcounter": 9,
    "rowfocusskin": "sec47134c53840738acea176209ff716",
    "rowskin": "s18472307db04580a2a9cb6f4681ebec",
    "rowtemplate": "flxToAccountNumber",
    "screenlevelwidget": false,
    "seccounter": 0,
    "sectionheaderskin": "s65e8b0a8be54624ac979cda71a22cac",
    "selectedRows": null,
    "selectedState": false,
    "selectedindex": null,
    "selectedindices": null,
    "selecteditems": null,
    "selectedsectionindex": 0,
    "selectionbehavior": "default",
    "separatorrequired": false,
    "showscrollbars": false,
    "viewtype": "tableview",
    "vizProps": {},
    "wType": "Segment",
    "widgetalignment": 5,
    "widgetdatamap": {
        "flxIBAN": "flxIBAN",
        "flxNickName": "flxNickName",
        "flxToAccountNumber": "flxToAccountNumber",
        "lblIBAN": "lblIBAN",
        "lblIBANValue": "lblIBANValue",
        "lblNickName": "lblNickName",
        "lblNickNameValue": "lblNickNameValue",
        "lblSeparator": "lblSeparator"
    },
    "zindex": 3
}