{
	"AS_AppEvents_hd4fc1bedd904d29862f6382068c9886": {
		"id": "AS_AppEvents_hd4fc1bedd904d29862f6382068c9886",
		"type": "ACTION_SEQUENCE",
		"params": [
			{
				"datatype": "collection",
				"name": "eventobject"
			}
		],
		"language": "js",
		"actions": [
			{
				"id": "ADD_SNIPPET__d7a80c604b2d4e25b500bd5f57ae4338",
				"type": "ADD_SNIPPET",
				"codeSnippet": "try {\n  var MenuHandler =  applicationManager.getMenuHandler();\n  return MenuHandler.appForceTouchCallBack(eventobject);\n}\ncatch(err) {\n  throw GlobalExceptionHandler.addMessageAndActionForException(err, \"kony.error.App_Initialisation_Failed\", GlobalExceptionHandler.ActionConstants.BLOCK, arguments.callee.name);\n}",
				"parentId": null,
				"callbackType": null
			}
		]
	}
}