{
	"AS_BarButtonItem_a2770fa05b644ab3884fdcf90a54c4c3": {
		"id": "AS_BarButtonItem_a2770fa05b644ab3884fdcf90a54c4c3",
		"type": "ACTION_SEQUENCE",
		"params": [
			{
				"datatype": "collection",
				"name": "eventobject"
			}
		],
		"language": "js",
		"actions": [
			{
				"id": "ADD_SNIPPET__a37a4215e68649b5a32f33a3a780345a",
				"type": "ADD_SNIPPET",
				"codeSnippet": "this.onCancelClick();",
				"parentId": null,
				"callbackType": null
			}
		]
	}
}