{
	"AS_BarButtonItem_h1ea97ddefc74fa7b26f24409085e102": {
		"id": "AS_BarButtonItem_h1ea97ddefc74fa7b26f24409085e102",
		"type": "ACTION_SEQUENCE",
		"params": [
			{
				"datatype": "collection",
				"name": "eventobject"
			}
		],
		"language": "js",
		"actions": [
			{
				"id": "ADD_SNIPPET__e9ef5dde7e234b0f8aa80371841a3b01",
				"type": "ADD_SNIPPET",
				"codeSnippet": "this.navigateCustomBack();",
				"parentId": null,
				"callbackType": null
			}
		]
	}
}