{
	"AS_Button_f19dee09ebae4020b04bb4b4824cfc20": {
		"id": "AS_Button_f19dee09ebae4020b04bb4b4824cfc20",
		"type": "ACTION_SEQUENCE",
		"params": [
			{
				"datatype": "collection",
				"name": "eventobject"
			}
		],
		"contextObj": {
			"type": "forms",
			"platform": "",
			"KUID": "e10065f14ca54d9f82436e148f53666f"
		},
		"language": "js",
		"actions": []
	}
}