{
	"AS_BarButtonItem_bb6cb962bea24f219ad38e131c1de61a": {
		"id": "AS_BarButtonItem_bb6cb962bea24f219ad38e131c1de61a",
		"type": "ACTION_SEQUENCE",
		"params": [
			{
				"datatype": "collection",
				"name": "eventobject"
			}
		],
		"language": "js",
		"actions": [
			{
				"id": "ADD_SNIPPET__ec74e59665cb46e981ecdbdac95bf212",
				"type": "ADD_SNIPPET",
				"codeSnippet": "this.onCancel();",
				"parentId": null,
				"callbackType": null
			}
		]
	}
}