{
	"AS_Button_h804a782d9994f6d93940008bc4b10c1": {
		"id": "AS_Button_h804a782d9994f6d93940008bc4b10c1",
		"type": "ACTION_SEQUENCE",
		"params": [
			{
				"datatype": "collection",
				"name": "eventobject"
			}
		],
		"contextObj": {
			"type": "forms",
			"platform": "",
			"KUID": "ffd6e948e7e4440cb94181c68871ec08"
		},
		"language": "js",
		"actions": [
			{
				"id": "ADD_SNIPPET__bef4524e70004329b908ad3e59840b54",
				"type": "ADD_SNIPPET",
				"codeSnippet": "this.setKeypadChar(5);",
				"parentId": null,
				"callbackType": null
			}
		]
	}
}