{
	"AS_Button_j1bb645e84f24523b3d1471f590a8387": {
		"id": "AS_Button_j1bb645e84f24523b3d1471f590a8387",
		"type": "ACTION_SEQUENCE",
		"params": [
			{
				"datatype": "collection",
				"name": "eventobject"
			}
		],
		"contextObj": {
			"type": "forms",
			"platform": null,
			"KUID": "aa41c85b03db4a13854914cd74790227"
		},
		"language": "js",
		"actions": [
			{
				"id": "ADD_SNIPPET_ide_onClick_e5e879fedcf8497ab0133f72ea1b0e93",
				"type": "ADD_SNIPPET",
				"codeSnippet": "this.setKeypadChar(2);",
				"callbackType": null
			}
		]
	}
}