{
	"AS_BarButtonItem_i182dedbedd9461b896555f66ba54aec": {
		"id": "AS_BarButtonItem_i182dedbedd9461b896555f66ba54aec",
		"type": "ACTION_SEQUENCE",
		"params": [
			{
				"datatype": "collection",
				"name": "eventobject"
			}
		],
		"language": "js",
		"actions": [
			{
				"id": "ADD_SNIPPET__a679e38ffc1e46c1a12a753746a92d98",
				"type": "ADD_SNIPPET",
				"codeSnippet": "var settingsMod = kony.mvc.MDAApplication.getSharedInstance().getModuleManager().getModule(\"SettingsModule\");\nsettingsMod.presentationController.commonFunctionForNavigation(\"frmPreferencesPin\");",
				"parentId": null,
				"callbackType": null
			}
		]
	}
}