{
	"AS_Button_ff73b43eb4f942b99726e26ea57674a6": {
		"id": "AS_Button_ff73b43eb4f942b99726e26ea57674a6",
		"type": "ACTION_SEQUENCE",
		"params": [
			{
				"datatype": "collection",
				"name": "eventobject"
			}
		],
		"contextObj": {
			"type": "forms",
			"platform": null,
			"KUID": "a30723bedf264ec2a3a9ae486d2c918e"
		},
		"language": "js",
		"actions": [
			{
				"id": "ADD_SNIPPET_ide_onClick_ecda28273d574ca99c8490fc1fb4c599",
				"type": "ADD_SNIPPET",
				"codeSnippet": "this.setKeypadChar(0);",
				"callbackType": null
			}
		]
	}
}