{
	"AS_Button_d83bc859a1084ccba2a7f12518ac3798": {
		"id": "AS_Button_d83bc859a1084ccba2a7f12518ac3798",
		"type": "ACTION_SEQUENCE",
		"params": [
			{
				"datatype": "collection",
				"name": "eventobject"
			}
		],
		"contextObj": {
			"type": "forms",
			"platform": null,
			"KUID": "j21d8aaf0a434a598861e8edd1d907c1"
		},
		"language": "js",
		"actions": [
			{
				"id": "ADD_SNIPPET_ide_onClick_e012cb184d934a25aeffe263ffc15f10",
				"type": "ADD_SNIPPET",
				"codeSnippet": "this.setKeypadChar(8);",
				"callbackType": null
			}
		]
	}
}