{
	"AS_Button_geda9826d06e4251b1b94c32c9dff8a4": {
		"id": "AS_Button_geda9826d06e4251b1b94c32c9dff8a4",
		"type": "ACTION_SEQUENCE",
		"params": [
			{
				"datatype": "collection",
				"name": "eventobject"
			}
		],
		"contextObj": {
			"type": "forms",
			"platform": "",
			"KUID": "g7a66a5dfea9401e99f20e21090379c8"
		},
		"language": "js",
		"actions": [
			{
				"id": "ADD_SNIPPET_df3d6267ebf241bfabfa14f5720bc593",
				"type": "ADD_SNIPPET",
				"codeSnippet": "this.setKeypadChar(6);",
				"parentId": null,
				"callbackType": null
			}
		]
	}
}