{
	"AS_BarButtonItem_f89024395d674b83a7f96b8eb0624755": {
		"id": "AS_BarButtonItem_f89024395d674b83a7f96b8eb0624755",
		"type": "ACTION_SEQUENCE",
		"params": [
			{
				"datatype": "collection",
				"name": "eventobject"
			}
		],
		"language": "js",
		"actions": [
			{
				"id": "ADD_SNIPPET_ide_onClick_df23221e66bd4d37b94e68bcaa0777b2",
				"type": "ADD_SNIPPET",
				"codeSnippet": "this.navigateCustomBack();",
				"callbackType": null
			}
		]
	}
}