{
	"AS_Button_b575222dcabb4dc7a67b95486b79deb7": {
		"id": "AS_Button_b575222dcabb4dc7a67b95486b79deb7",
		"type": "ACTION_SEQUENCE",
		"params": [
			{
				"datatype": "collection",
				"name": "eventobject"
			}
		],
		"contextObj": {
			"type": "forms",
			"platform": "",
			"KUID": "gb40e602696042faa7ee94b544a8d3a1"
		},
		"language": "js",
		"actions": [
			{
				"id": "ADD_SNIPPET__hd151967203d47928aa3ebb2d5be17a6",
				"type": "ADD_SNIPPET",
				"codeSnippet": "this.setKeypadChar(5);",
				"parentId": null,
				"callbackType": null
			}
		]
	}
}