{
	"AS_Button_gd47a2c8bacd4e809f9c289a7d560d69": {
		"id": "AS_Button_gd47a2c8bacd4e809f9c289a7d560d69",
		"type": "ACTION_SEQUENCE",
		"params": [
			{
				"datatype": "collection",
				"name": "eventobject"
			}
		],
		"contextObj": {
			"type": "forms",
			"platform": "",
			"KUID": "eb884581c9154390af4af6572938d7c4"
		},
		"language": "js",
		"actions": [
			{
				"id": "ADD_SNIPPET__ba839121070e402294e2fcbcc828bcaf",
				"type": "ADD_SNIPPET",
				"codeSnippet": "this.setKeypadChar(0);",
				"parentId": null
			}
		]
	}
}