{
	"AS_Button_i4b435790a2d41449123253d1717483a": {
		"id": "AS_Button_i4b435790a2d41449123253d1717483a",
		"type": "ACTION_SEQUENCE",
		"params": [
			{
				"datatype": "collection",
				"name": "eventobject"
			}
		],
		"contextObj": {
			"type": "forms",
			"platform": null,
			"KUID": "bfa7c6c156b24178972a3e804b34dd97"
		},
		"language": "js",
		"actions": [
			{
				"id": "ADD_SNIPPET_ide_onClick_d59737d638f04c7d8879cff63eafe45a",
				"type": "ADD_SNIPPET",
				"codeSnippet": "this.setKeypadChar(5);",
				"callbackType": null
			}
		]
	}
}