{
	"AS_Button_h381d25ab7e6485697f55ac3882ccac7": {
		"id": "AS_Button_h381d25ab7e6485697f55ac3882ccac7",
		"type": "ACTION_SEQUENCE",
		"params": [
			{
				"datatype": "collection",
				"name": "eventobject"
			}
		],
		"contextObj": {
			"type": "forms",
			"platform": null,
			"KUID": "h76b5507ecd042e68db710edd8877a76"
		},
		"language": "js",
		"actions": [
			{
				"id": "ADD_SNIPPET_ide_onClick_c34ed7f0e2ee4c7a844290bd421daac7",
				"type": "ADD_SNIPPET",
				"codeSnippet": "this.setKeypadChar(9);",
				"callbackType": null
			}
		]
	}
}