{
	"AS_BarButtonItem_jc797537d24148ebbd259409ea7003b4": {
		"id": "AS_BarButtonItem_jc797537d24148ebbd259409ea7003b4",
		"type": "ACTION_SEQUENCE",
		"params": [
			{
				"datatype": "collection",
				"name": "eventobject"
			}
		],
		"language": "js",
		"actions": [
			{
				"id": "ADD_SNIPPET_g5cca18503a8400fa2d1b48c6157960d",
				"type": "ADD_SNIPPET",
				"codeSnippet": "this.onCancelClick();",
				"parentId": null,
				"callbackType": null
			}
		]
	}
}