{
	"AS_Button_fe8b04f913e24664ac3f6621d9f15e33": {
		"id": "AS_Button_fe8b04f913e24664ac3f6621d9f15e33",
		"type": "ACTION_SEQUENCE",
		"params": [
			{
				"datatype": "collection",
				"name": "eventobject"
			}
		],
		"contextObj": {
			"type": "forms",
			"platform": null,
			"KUID": "b3afa378678e4ca3be10897a0b1fa246"
		},
		"language": "js",
		"actions": [
			{
				"id": "ADD_SNIPPET_ide_onClick_f6ad08383b34472e8e7f5d9d4eaeffba",
				"type": "ADD_SNIPPET",
				"codeSnippet": "this.setKeypadChar(6);",
				"callbackType": null
			}
		]
	}
}