{
	"AS_BarButtonItem_hf964360859d42ca8bcfbecdbe58305b": {
		"id": "AS_BarButtonItem_hf964360859d42ca8bcfbecdbe58305b",
		"type": "ACTION_SEQUENCE",
		"params": [
			{
				"datatype": "collection",
				"name": "eventobject"
			}
		],
		"language": "js",
		"actions": [
			{
				"id": "ADD_SNIPPET_ide_onClick_gb5146d90f2e4ce7a9ff3e68a5b10c1e",
				"type": "ADD_SNIPPET",
				"codeSnippet": "this.cancelOnClick();",
				"callbackType": null
			}
		]
	}
}