{
	"AS_BarButtonItem_e5614cdafbd445ca85357e8d24c9493b": {
		"id": "AS_BarButtonItem_e5614cdafbd445ca85357e8d24c9493b",
		"type": "ACTION_SEQUENCE",
		"params": [
			{
				"datatype": "collection",
				"name": "eventobject"
			}
		],
		"language": "js",
		"actions": [
			{
				"id": "ADD_SNIPPET__d8c20f99874b44b7944aa356d9a3bd51",
				"type": "ADD_SNIPPET",
				"codeSnippet": "this.onCancelClick();",
				"parentId": null,
				"callbackType": null
			}
		]
	}
}