{
	"AS_BarButtonItem_a427f350b20e4104911cb35d215ce3ed": {
		"id": "AS_BarButtonItem_a427f350b20e4104911cb35d215ce3ed",
		"type": "ACTION_SEQUENCE",
		"params": [
			{
				"datatype": "collection",
				"name": "eventobject"
			}
		],
		"language": "js",
		"actions": [
			{
				"id": "ADD_SNIPPET__d53d16e0bbab44388100c7b47b0fcadb",
				"type": "ADD_SNIPPET",
				"codeSnippet": "this.onClickCancel();",
				"parentId": null,
				"callbackType": null
			}
		]
	}
}