{
	"AS_Button_h75146faf1a54e80ab251d661121a2f7": {
		"id": "AS_Button_h75146faf1a54e80ab251d661121a2f7",
		"type": "ACTION_SEQUENCE",
		"params": [
			{
				"datatype": "collection",
				"name": "eventobject"
			}
		],
		"contextObj": {
			"type": "forms",
			"platform": null,
			"KUID": "e3e9161896e14650a7267e5612929539"
		},
		"language": "js",
		"actions": [
			{
				"id": "ADD_SNIPPET_ide_onClick_ib2da2ae1f124cb9a237fd8d4f6f87bd",
				"type": "ADD_SNIPPET",
				"codeSnippet": "this.setKeypadChar(2);",
				"callbackType": null
			}
		]
	}
}