{
	"AS_BarButtonItem_f7986cf15cec42d997f4675a040ab18a": {
		"id": "AS_BarButtonItem_f7986cf15cec42d997f4675a040ab18a",
		"type": "ACTION_SEQUENCE",
		"params": [
			{
				"datatype": "collection",
				"name": "eventobject"
			}
		],
		"language": "js",
		"actions": [
			{
				"id": "ADD_SNIPPET_ge85f19e49c64fa5bf07391ef5e79544",
				"type": "ADD_SNIPPET",
				"codeSnippet": "this.goBack();",
				"parentId": null,
				"callbackType": null
			}
		]
	}
}