{
	"AS_Button_d563b058b81c4f52915bbbaf049a9cdb": {
		"id": "AS_Button_d563b058b81c4f52915bbbaf049a9cdb",
		"type": "ACTION_SEQUENCE",
		"params": [
			{
				"datatype": "collection",
				"name": "eventobject"
			}
		],
		"contextObj": {
			"type": "forms",
			"platform": null,
			"KUID": "gf0bea0914e64207ac1054f290e6340f"
		},
		"language": "js",
		"actions": [
			{
				"id": "ADD_SNIPPET_ide_onClick_dfebd821e7ed4d9b98921299266f4aa1",
				"type": "ADD_SNIPPET",
				"codeSnippet": "this.setKeypadChar(9);",
				"callbackType": null
			}
		]
	}
}