{
	"AS_Button_c9516f568c5441eaa673de7a216e10e6": {
		"id": "AS_Button_c9516f568c5441eaa673de7a216e10e6",
		"type": "ACTION_SEQUENCE",
		"params": [
			{
				"datatype": "collection",
				"name": "eventobject"
			}
		],
		"contextObj": {
			"type": "forms",
			"platform": "",
			"KUID": "eb884581c9154390af4af6572938d7c4"
		},
		"language": "js",
		"actions": [
			{
				"id": "ADD_SNIPPET__ief9a738400244dbabf3b01155c4a377",
				"type": "ADD_SNIPPET",
				"codeSnippet": "this.showCreatePassword();",
				"parentId": null,
				"callbackType": null
			}
		]
	}
}