{
	"AS_Button_e78ea664b1c04149bdb4bb21eb6df37f": {
		"id": "AS_Button_e78ea664b1c04149bdb4bb21eb6df37f",
		"type": "ACTION_SEQUENCE",
		"params": [
			{
				"datatype": "collection",
				"name": "eventobject"
			}
		],
		"contextObj": {
			"type": "forms",
			"platform": null,
			"KUID": "hcdda3e785c94749838ba1f5a454aff0"
		},
		"language": "js",
		"actions": [
			{
				"id": "ADD_SNIPPET_ide_onClick_d3f3381bcc93428e97ee7e465457355f",
				"type": "ADD_SNIPPET",
				"codeSnippet": "this.setKeypadChar(9);",
				"callbackType": null
			}
		]
	}
}