{
	"AS_BarButtonItem_f44ace0b937a4d3aab1aa4dda574f7f9": {
		"id": "AS_BarButtonItem_f44ace0b937a4d3aab1aa4dda574f7f9",
		"type": "ACTION_SEQUENCE",
		"params": [
			{
				"datatype": "collection",
				"name": "eventobject"
			}
		],
		"language": "js",
		"actions": [
			{
				"id": "ADD_SNIPPET__ababe8c2b2274e7ca7cad77b98d33612",
				"type": "ADD_SNIPPET",
				"codeSnippet": "this.onClickCancel();",
				"parentId": null,
				"callbackType": null
			}
		]
	}
}