{
	"AS_Button_i9f4738f679e46ada9a41a0d560981f8": {
		"id": "AS_Button_i9f4738f679e46ada9a41a0d560981f8",
		"type": "ACTION_SEQUENCE",
		"params": [
			{
				"datatype": "collection",
				"name": "eventobject"
			}
		],
		"contextObj": {
			"type": "forms",
			"platform": "",
			"KUID": "bd407b4f1db84aaf857350c5154838d3"
		},
		"language": "js",
		"actions": [
			{
				"id": "ADD_SNIPPET__ab434b2398eb45ef9c78e4824a3e527e",
				"type": "ADD_SNIPPET",
				"codeSnippet": "this.setKeypadChar(0);",
				"parentId": null,
				"callbackType": null
			}
		]
	}
}