{
	"AS_Button_gaedd34a93ed481fb251e49c0b55145b": {
		"id": "AS_Button_gaedd34a93ed481fb251e49c0b55145b",
		"type": "ACTION_SEQUENCE",
		"params": [
			{
				"datatype": "collection",
				"name": "eventobject"
			}
		],
		"contextObj": {
			"type": "forms",
			"platform": null,
			"KUID": "b9bb3d105b2344e09d1531595fb792ca"
		},
		"language": "js",
		"actions": [
			{
				"id": "ADD_SNIPPET_ide_onClick_ib430d8c437b41cd97c376fb2cc9f8a7",
				"type": "ADD_SNIPPET",
				"codeSnippet": "this.setKeypadChar(5);",
				"callbackType": null
			}
		]
	}
}