{
	"AS_Button_a75e8b5e531d49c9b7edae9c12363d52": {
		"id": "AS_Button_a75e8b5e531d49c9b7edae9c12363d52",
		"type": "ACTION_SEQUENCE",
		"params": [
			{
				"datatype": "collection",
				"name": "eventobject"
			}
		],
		"contextObj": {
			"type": "forms",
			"platform": null,
			"KUID": "c1c2984a83da4813adbf533f9fbcd5ed"
		},
		"language": "js",
		"actions": [
			{
				"id": "ADD_SNIPPET_ide_onClick_f204ae000ce64d5bab649bbca31f36a6",
				"type": "ADD_SNIPPET",
				"codeSnippet": "this.setKeypadChar(8);",
				"callbackType": null
			}
		]
	}
}