{
	"AS_Button_j17cc5ddc7d64209a500109135dbafb1": {
		"id": "AS_Button_j17cc5ddc7d64209a500109135dbafb1",
		"type": "ACTION_SEQUENCE",
		"params": [
			{
				"datatype": "collection",
				"name": "eventobject"
			}
		],
		"contextObj": {
			"type": "forms",
			"platform": null,
			"KUID": "e73c5791904b4fcdb7cbab9f4ca7f3ff"
		},
		"language": "js",
		"actions": [
			{
				"id": "ADD_SNIPPET_ide_onClick_d4e83cc1920c4787bf6f862f5633dbfb",
				"type": "ADD_SNIPPET",
				"codeSnippet": "this.setChar(4);",
				"callbackType": null
			}
		]
	}
}