{
	"AS_Button_b3fdda2a018f42cebf287072f56fb3e8": {
		"id": "AS_Button_b3fdda2a018f42cebf287072f56fb3e8",
		"type": "ACTION_SEQUENCE",
		"params": [
			{
				"datatype": "collection",
				"name": "eventobject"
			}
		],
		"contextObj": {
			"type": "forms",
			"platform": "",
			"KUID": "hcdda3e785c94749838ba1f5a454aff0"
		},
		"language": "js",
		"actions": []
	}
}