{
	"AS_Button_h662669c230b4ec9aa62380814f99f5f": {
		"id": "AS_Button_h662669c230b4ec9aa62380814f99f5f",
		"type": "ACTION_SEQUENCE",
		"params": [
			{
				"datatype": "collection",
				"name": "eventobject"
			}
		],
		"contextObj": {
			"type": "forms",
			"platform": null,
			"KUID": "c14f421f238b49d0a0896efee82ff998"
		},
		"language": "js",
		"actions": [
			{
				"id": "ADD_SNIPPET_ide_onClick_je9f7c32a3884a95b4dad15dd6f424a6",
				"type": "ADD_SNIPPET",
				"codeSnippet": "this.setKeypadChar(2);"
			}
		]
	}
}