{
	"AS_Button_a46637e7734649748e005fc7cde82937": {
		"id": "AS_Button_a46637e7734649748e005fc7cde82937",
		"type": "ACTION_SEQUENCE",
		"params": [
			{
				"datatype": "collection",
				"name": "eventobject"
			}
		],
		"contextObj": {
			"type": "forms",
			"platform": null,
			"KUID": "hc3606ac0ae04f91859fdd483e672375"
		},
		"language": "js",
		"actions": [
			{
				"id": "ADD_SNIPPET_ide_onClick_aed0cc1b56fc47aba683addccb7073ab",
				"type": "ADD_SNIPPET",
				"codeSnippet": "this.setKeypadChar(0);",
				"callbackType": null
			}
		]
	}
}