{
	"AS_Button_f286bad870da435d8ca0e3aa6b455c76": {
		"id": "AS_Button_f286bad870da435d8ca0e3aa6b455c76",
		"type": "ACTION_SEQUENCE",
		"params": [
			{
				"datatype": "collection",
				"name": "eventobject"
			}
		],
		"contextObj": {
			"type": "forms",
			"platform": null,
			"KUID": "bbfb9ffa68744e769c6a9b44c7028f87"
		},
		"language": "js",
		"actions": [
			{
				"id": "ADD_SNIPPET_ide_onClick_i51c5b176ce148c4ad01e40c699341a7",
				"type": "ADD_SNIPPET",
				"codeSnippet": "this.setKeypadChar(0);",
				"callbackType": null
			}
		]
	}
}