{
	"AS_Button_a31ed350c6104381981c3c5b53be3c48": {
		"id": "AS_Button_a31ed350c6104381981c3c5b53be3c48",
		"type": "ACTION_SEQUENCE",
		"params": [
			{
				"datatype": "collection",
				"name": "eventobject"
			}
		],
		"contextObj": {
			"type": "forms",
			"platform": "",
			"KUID": "bfd8d167d39f4048b325cec1c7aaa4dd"
		},
		"language": "js",
		"actions": [
			{
				"id": "ADD_SNIPPET__bc0f743d5ff2482fa1850895320ebbf8",
				"type": "ADD_SNIPPET",
				"codeSnippet": "this.getStatements();",
				"parentId": null,
				"callbackType": null
			}
		]
	}
}