{
	"AS_BarButtonItem_dae885c7ddbc44cb946de9bec0b568a2": {
		"id": "AS_BarButtonItem_dae885c7ddbc44cb946de9bec0b568a2",
		"type": "ACTION_SEQUENCE",
		"params": [
			{
				"datatype": "collection",
				"name": "eventobject"
			}
		],
		"language": "js",
		"actions": [
			{
				"id": "ADD_SNIPPET__hbbea461a715469cad3edde3a8b0e815",
				"type": "ADD_SNIPPET",
				"codeSnippet": "var navMan=applicationManager.getNavigationManager();\nthis.accDetails =navMan.goBack();",
				"parentId": null,
				"callbackType": null
			}
		]
	}
}