{
	"AS_Button_ad898d858cf44248a9c71331238c2df0": {
		"id": "AS_Button_ad898d858cf44248a9c71331238c2df0",
		"type": "ACTION_SEQUENCE",
		"params": [
			{
				"datatype": "collection",
				"name": "eventobject"
			}
		],
		"contextObj": {
			"type": "forms",
			"platform": null,
			"KUID": "efa7925ebd9b45bc8caaa91cd6071582"
		},
		"language": "js",
		"actions": [
			{
				"id": "ADD_SNIPPET_ide_onClick_aac04291cbda4b848627b5e5ee01213d",
				"type": "ADD_SNIPPET",
				"codeSnippet": "this.setKeypadChar(3);",
				"callbackType": null
			}
		]
	}
}