{
	"AS_Button_bb947477cbdb4d2995cf5c9fdd69ab2b": {
		"id": "AS_Button_bb947477cbdb4d2995cf5c9fdd69ab2b",
		"type": "ACTION_SEQUENCE",
		"params": [
			{
				"datatype": "collection",
				"name": "eventobject"
			}
		],
		"contextObj": {
			"type": "forms",
			"platform": null,
			"KUID": "c1c2984a83da4813adbf533f9fbcd5ed"
		},
		"language": "js",
		"actions": [
			{
				"id": "ADD_SNIPPET_ide_onClick_h16a0d3bc0ac41c0b9606759a0f2df14",
				"type": "ADD_SNIPPET",
				"codeSnippet": "this.setKeypadChar(6);",
				"callbackType": null
			}
		]
	}
}