{
	"AS_Button_h620b3af458f4308a18d6db33e734502": {
		"id": "AS_Button_h620b3af458f4308a18d6db33e734502",
		"type": "ACTION_SEQUENCE",
		"params": [
			{
				"datatype": "collection",
				"name": "eventobject"
			}
		],
		"contextObj": {
			"type": "forms",
			"platform": null,
			"KUID": "g554e47daa7e496c8db3692b2d69a1ea"
		},
		"language": "js",
		"actions": [
			{
				"id": "ADD_SNIPPET_ide_onClick_c11a408e5fec43368ba62fed3bd95e10",
				"type": "ADD_SNIPPET",
				"codeSnippet": "this.setKeypadChar(5);",
				"callbackType": null
			}
		]
	}
}