{
	"AS_BarButtonItem_d7e617dbfd0f474bb1f9558ae69a6652": {
		"id": "AS_BarButtonItem_d7e617dbfd0f474bb1f9558ae69a6652",
		"type": "ACTION_SEQUENCE",
		"params": [
			{
				"datatype": "collection",
				"name": "eventobject"
			}
		],
		"language": "js",
		"actions": [
			{
				"id": "ADD_SNIPPET_ide_onClick_e2602b285dc84e9ab23a64f0db9239d5",
				"type": "ADD_SNIPPET",
				"codeSnippet": "this.navigateCustomBack();",
				"callbackType": null
			}
		]
	}
}