{
	"AS_BarButtonItem_c322744e8bbb416f95f577fb44a3df56": {
		"id": "AS_BarButtonItem_c322744e8bbb416f95f577fb44a3df56",
		"type": "ACTION_SEQUENCE",
		"params": [
			{
				"datatype": "collection",
				"name": "eventobject"
			}
		],
		"language": "js",
		"actions": [
			{
				"id": "ADD_SNIPPET__id6bf7cb8ad8408eb278952297107ff9",
				"type": "ADD_SNIPPET",
				"codeSnippet": "this.onCancel();",
				"parentId": null,
				"callbackType": null
			}
		]
	}
}