{
	"AS_Button_ebd103afd5ac4094a7ed8b722a6b414f": {
		"id": "AS_Button_ebd103afd5ac4094a7ed8b722a6b414f",
		"type": "ACTION_SEQUENCE",
		"params": [
			{
				"datatype": "collection",
				"name": "eventobject"
			}
		],
		"contextObj": {
			"type": "forms",
			"platform": null,
			"KUID": "ic45031f5ea34f7991925ca802ca0ed6"
		},
		"language": "js",
		"actions": [
			{
				"id": "ADD_SNIPPET_ide_onClick_a7f67834ff6440f5955cc68007d7fd21",
				"type": "ADD_SNIPPET",
				"codeSnippet": "this.setKeypadChar(8);",
				"callbackType": null
			}
		]
	}
}