{
	"AS_Button_hdf8f715aedc45c59f29fc3b4a14e8be": {
		"id": "AS_Button_hdf8f715aedc45c59f29fc3b4a14e8be",
		"type": "ACTION_SEQUENCE",
		"params": [
			{
				"datatype": "collection",
				"name": "eventobject"
			}
		],
		"contextObj": {
			"type": "forms",
			"platform": null,
			"KUID": "g450e900b3ae42dfb0c366bd54f5c1f9"
		},
		"language": "js",
		"actions": [
			{
				"id": "ADD_SNIPPET_ide_onClick_j393cf9225384415a7b097edd936be2c",
				"type": "ADD_SNIPPET",
				"codeSnippet": "this.setKeypadChar(5);",
				"callbackType": null
			}
		]
	}
}