{
	"AS_Button_d699ccd627354984bcaec402c36933f8": {
		"id": "AS_Button_d699ccd627354984bcaec402c36933f8",
		"type": "ACTION_SEQUENCE",
		"params": [
			{
				"datatype": "collection",
				"name": "eventobject"
			}
		],
		"contextObj": {
			"type": "forms",
			"platform": "",
			"KUID": "c7b8e59e5f1a4a18851ecdd5b502af22"
		},
		"language": "js",
		"actions": [
			{
				"id": "ADD_SNIPPET_b9811b7434dd4db6b20adc73ae69abcd",
				"type": "ADD_SNIPPET",
				"codeSnippet": "this.setKeypadChar(1);",
				"parentId": null,
				"callbackType": null
			}
		]
	}
}