{
	"AS_Button_j1afdd8eaba4459fbf96b814bcf08b99": {
		"id": "AS_Button_j1afdd8eaba4459fbf96b814bcf08b99",
		"type": "ACTION_SEQUENCE",
		"params": [
			{
				"datatype": "collection",
				"name": "eventobject"
			}
		],
		"contextObj": {
			"type": "forms",
			"platform": "",
			"KUID": "c3816dc191134a879f46b33b9a224f45"
		},
		"language": "js",
		"actions": []
	}
}