{
	"AS_Button_i0b47e181b854ea19ca2e1ece08e9fc1": {
		"id": "AS_Button_i0b47e181b854ea19ca2e1ece08e9fc1",
		"type": "ACTION_SEQUENCE",
		"params": [
			{
				"datatype": "collection",
				"name": "eventobject"
			}
		],
		"contextObj": {
			"type": "forms",
			"platform": "",
			"KUID": "g91a6b7c3c9147ffa6a22faac2248b95"
		},
		"language": "js",
		"actions": []
	}
}