{
	"AS_BarButtonItem_f7f4efbe7fd54367ac19a62d58639ed6": {
		"id": "AS_BarButtonItem_f7f4efbe7fd54367ac19a62d58639ed6",
		"type": "ACTION_SEQUENCE",
		"params": [
			{
				"datatype": "collection",
				"name": "eventobject"
			}
		],
		"language": "js",
		"actions": [
			{
				"id": "ADD_SNIPPET__ie580afa05ec445da7e453075974b877",
				"type": "ADD_SNIPPET",
				"codeSnippet": "this.cancelOnClick();",
				"parentId": null,
				"callbackType": null
			}
		]
	}
}