{
	"AS_Button_dfc3232031b744fbaa8a15e3bf7b7ce0": {
		"id": "AS_Button_dfc3232031b744fbaa8a15e3bf7b7ce0",
		"type": "ACTION_SEQUENCE",
		"params": [
			{
				"datatype": "collection",
				"name": "eventobject"
			}
		],
		"contextObj": {
			"type": "forms",
			"platform": null,
			"KUID": "cfd520fd1f594c468fa06704b66e53b1"
		},
		"language": "js",
		"actions": [
			{
				"id": "ADD_SNIPPET_ide_onClick_b74ab0b7a070461bbf47475e396fa805",
				"type": "ADD_SNIPPET",
				"codeSnippet": "this.setKeypadChar(7);",
				"callbackType": null
			}
		]
	}
}