{
	"AS_BarButtonItem_afc7e8dae4224a75bbb852ed37f7a100": {
		"id": "AS_BarButtonItem_afc7e8dae4224a75bbb852ed37f7a100",
		"type": "ACTION_SEQUENCE",
		"params": [
			{
				"datatype": "collection",
				"name": "eventobject"
			}
		],
		"language": "js",
		"actions": [
			{
				"id": "ADD_SNIPPET_e9282805070f4fa489bad407095fcb06",
				"type": "ADD_SNIPPET",
				"codeSnippet": "applicationManager.getNavigationManager().navigateTo(\"frmForgotSelectUsername\");",
				"parentId": null
			}
		]
	}
}