{
	"AS_Button_ee1f4c4192904e4f934349eb25ff3430": {
		"id": "AS_Button_ee1f4c4192904e4f934349eb25ff3430",
		"type": "ACTION_SEQUENCE",
		"params": [
			{
				"datatype": "collection",
				"name": "eventobject"
			}
		],
		"contextObj": {
			"type": "forms",
			"platform": "",
			"KUID": "fc40338e7ea64c55bfbabdaf9eacd83a"
		},
		"language": "js",
		"actions": [
			{
				"id": "ADD_SNIPPET__f004105396754e968eb54db85f6903b1",
				"type": "ADD_SNIPPET",
				"codeSnippet": "this.setKeypadChar(9);",
				"parentId": null,
				"callbackType": null
			}
		]
	}
}