{
	"AS_Button_e8255b4b9d0e41b182d67289015d6299": {
		"id": "AS_Button_e8255b4b9d0e41b182d67289015d6299",
		"type": "ACTION_SEQUENCE",
		"params": [
			{
				"datatype": "collection",
				"name": "eventobject"
			}
		],
		"contextObj": {
			"type": "forms",
			"platform": null,
			"KUID": "fea040cd4a714d209c71890e2a642fb9"
		},
		"language": "js",
		"actions": [
			{
				"id": "ADD_SNIPPET_ide_onClick_b009785d0aec4e9397a17c5341cecd9c",
				"type": "ADD_SNIPPET",
				"codeSnippet": "this.setKeypadChar(0);",
				"callbackType": null
			}
		]
	}
}