{
	"AS_Button_iecf82af08704f8894921a9f781c66df": {
		"id": "AS_Button_iecf82af08704f8894921a9f781c66df",
		"type": "ACTION_SEQUENCE",
		"params": [
			{
				"datatype": "collection",
				"name": "eventobject"
			}
		],
		"contextObj": {
			"type": "forms",
			"platform": null,
			"KUID": "b9bb3d105b2344e09d1531595fb792ca"
		},
		"language": "js",
		"actions": [
			{
				"id": "ADD_SNIPPET_ide_onClick_c021c5546603496381d77dacce8d3be0",
				"type": "ADD_SNIPPET",
				"codeSnippet": "this.setKeypadChar(8);",
				"callbackType": null
			}
		]
	}
}