{
	"AS_BarButtonItem_g2191205a83c4b1dbc46b29fc9f61374": {
		"id": "AS_BarButtonItem_g2191205a83c4b1dbc46b29fc9f61374",
		"type": "ACTION_SEQUENCE",
		"params": [
			{
				"datatype": "collection",
				"name": "eventobject"
			}
		],
		"language": "js",
		"actions": [
			{
				"id": "ADD_SNIPPET_d8a0ca386c2242088ebdd856083a8c42",
				"type": "ADD_SNIPPET",
				"codeSnippet": "this.onBack();",
				"parentId": null
			}
		]
	}
}