{
	"AS_BarButtonItem_a5ffa3f9fc804a74a5fb5913028dc859": {
		"id": "AS_BarButtonItem_a5ffa3f9fc804a74a5fb5913028dc859",
		"type": "ACTION_SEQUENCE",
		"params": [
			{
				"datatype": "collection",
				"name": "eventobject"
			}
		],
		"language": "js",
		"actions": [
			{
				"id": "ADD_SNIPPET_bd032e4ad8c348adb66e3692c9e5f585",
				"type": "ADD_SNIPPET",
				"codeSnippet": "this.onCancelClick();",
				"parentId": null,
				"callbackType": null
			}
		]
	}
}