{
	"AS_Button_jc6c329f73e6404da0f83ec33fe6d35b": {
		"id": "AS_Button_jc6c329f73e6404da0f83ec33fe6d35b",
		"type": "ACTION_SEQUENCE",
		"params": [
			{
				"datatype": "collection",
				"name": "eventobject"
			}
		],
		"contextObj": {
			"type": "forms",
			"platform": null,
			"KUID": "fd4ec4e85a614e788aa27f17ad94a6c5"
		},
		"language": "js",
		"actions": [
			{
				"id": "ADD_SNIPPET_ide_onClick_beca56745e014824adfb110e2d3f62ee",
				"type": "ADD_SNIPPET",
				"codeSnippet": "this.setKeypadChar(9);",
				"callbackType": null
			}
		]
	}
}