{
	"AS_BarButtonItem_cf3d41d4a0954b718b1ad2043b2a0f63": {
		"id": "AS_BarButtonItem_cf3d41d4a0954b718b1ad2043b2a0f63",
		"type": "ACTION_SEQUENCE",
		"params": [
			{
				"datatype": "collection",
				"name": "eventobject"
			}
		],
		"language": "js",
		"actions": [
			{
				"id": "ADD_SNIPPET_ce9ff790f63a4b98a0a68f0a16feda83",
				"type": "ADD_SNIPPET",
				"codeSnippet": "this.back();",
				"parentId": null
			}
		]
	}
}