{
	"AS_Button_e3ccd88beccb4fa99b6419fd37f43c58": {
		"id": "AS_Button_e3ccd88beccb4fa99b6419fd37f43c58",
		"type": "ACTION_SEQUENCE",
		"params": [
			{
				"datatype": "collection",
				"name": "eventobject"
			}
		],
		"contextObj": {
			"type": "forms",
			"platform": null,
			"KUID": "c719d50200df45358fd79063ef57c8b6"
		},
		"language": "js",
		"actions": [
			{
				"id": "ADD_SNIPPET_ide_onClick_g0274d494b654afd8b1297a8661ea899",
				"type": "ADD_SNIPPET",
				"codeSnippet": "this.setKeypadChar(5);",
				"callbackType": null
			}
		]
	}
}