{
	"AS_Button_e66c67cebd064509a782d6a21b6c7af6": {
		"id": "AS_Button_e66c67cebd064509a782d6a21b6c7af6",
		"type": "ACTION_SEQUENCE",
		"params": [
			{
				"datatype": "collection",
				"name": "eventobject"
			},
			{
				"datatype": "collection",
				"name": "context"
			}
		],
		"contextObj": {
			"type": "templates",
			"platform": "",
			"KUID": "c9535c33e3984d578fa6d02b43da3722"
		},
		"language": "js",
		"actions": [
			{
				"id": "ADD_SNIPPET_b910be1eda3945ff9344c274b6ca1d2b",
				"type": "ADD_SNIPPET",
				"codeSnippet": "this.onClickDelete(eventobject, context);",
				"parentId": null
			}
		]
	}
}