{
	"AS_Button_af3003a9bfe14c68858f3e4657d240d1": {
		"id": "AS_Button_af3003a9bfe14c68858f3e4657d240d1",
		"type": "ACTION_SEQUENCE",
		"params": [
			{
				"datatype": "collection",
				"name": "eventobject"
			}
		],
		"contextObj": {
			"type": "forms",
			"platform": null,
			"KUID": "hc3606ac0ae04f91859fdd483e672375"
		},
		"language": "js",
		"actions": [
			{
				"id": "ADD_SNIPPET_ide_onClick_h57d2ee5df84421d96f29389d687081a",
				"type": "ADD_SNIPPET",
				"codeSnippet": "this.setKeypadChar(5);",
				"callbackType": null
			}
		]
	}
}