{
	"AS_Button_ea23a9a0f19f44d6a0a690a2ff2b51f9": {
		"id": "AS_Button_ea23a9a0f19f44d6a0a690a2ff2b51f9",
		"type": "ACTION_SEQUENCE",
		"params": [
			{
				"datatype": "collection",
				"name": "eventobject"
			}
		],
		"contextObj": {
			"type": "forms",
			"platform": null,
			"KUID": "hcdda3e785c94749838ba1f5a454aff0"
		},
		"language": "js",
		"actions": [
			{
				"id": "ADD_SNIPPET_ide_onClick_id85429b88774da5958aac218ff1ec76",
				"type": "ADD_SNIPPET",
				"codeSnippet": "this.setKeypadChar(7);",
				"callbackType": null
			}
		]
	}
}