{
	"AS_BarButtonItem_i246c0a34f7b42fb8fbc8dc8d0583441": {
		"id": "AS_BarButtonItem_i246c0a34f7b42fb8fbc8dc8d0583441",
		"type": "ACTION_SEQUENCE",
		"params": [
			{
				"datatype": "collection",
				"name": "eventobject"
			}
		],
		"language": "js",
		"actions": [
			{
				"id": "ADD_SNIPPET_d8f51574414d439eac590bc734c16921",
				"type": "ADD_SNIPPET",
				"codeSnippet": "this.onBack();",
				"parentId": null
			}
		]
	}
}