{
	"AS_Button_d844e2366d8748998054dfc1cd9bc119": {
		"id": "AS_Button_d844e2366d8748998054dfc1cd9bc119",
		"type": "ACTION_SEQUENCE",
		"params": [
			{
				"datatype": "collection",
				"name": "eventobject"
			}
		],
		"contextObj": {
			"type": "forms",
			"platform": null,
			"KUID": "b3a32cd120a545158b3815abc4ed2cf6"
		},
		"language": "js",
		"actions": [
			{
				"id": "ADD_SNIPPET_ide_onClick_b6c81b8b0e6c49dba48b7c0e0a0b62e8",
				"type": "ADD_SNIPPET",
				"codeSnippet": "this.setKeypadChar(7);",
				"callbackType": null
			}
		]
	}
}