{
	"AS_Button_e2205130066f4caa93b91a529398c525": {
		"id": "AS_Button_e2205130066f4caa93b91a529398c525",
		"type": "ACTION_SEQUENCE",
		"params": [
			{
				"datatype": "collection",
				"name": "eventobject"
			}
		],
		"contextObj": {
			"type": "forms",
			"platform": null,
			"KUID": "f9f98871d20b4eafb1d228fbce68ce57"
		},
		"language": "js",
		"actions": [
			{
				"id": "INVOKE_FUNCTION__ide_onClick_i020ae5b014242338c0e84b7aaa81b15",
				"type": "INVOKE_FUNCTION",
				"sequenceKUID": "btnContinueOnClick",
				"display": "btnContinueOnClick",
				"inputparams": [],
				"callbackType": null,
				"disabled": null,
				"source": "controller"
			}
		]
	}
}