{
	"AS_BarButtonItem_a38ea625d42141dd9cc6da2ef39de9f8": {
		"id": "AS_BarButtonItem_a38ea625d42141dd9cc6da2ef39de9f8",
		"type": "ACTION_SEQUENCE",
		"params": [
			{
				"datatype": "collection",
				"name": "eventobject"
			}
		],
		"language": "js",
		"actions": [
			{
				"id": "ADD_SNIPPET_ide_onClick_g47e72ef8aac42a78d06e059d37f90a3",
				"type": "ADD_SNIPPET",
				"codeSnippet": "this.onCancelClick();",
				"callbackType": null
			}
		]
	}
}