{
	"AS_Button_j727dd9683c6484cabd82b1483aa1ca6": {
		"id": "AS_Button_j727dd9683c6484cabd82b1483aa1ca6",
		"type": "ACTION_SEQUENCE",
		"params": [
			{
				"datatype": "collection",
				"name": "eventobject"
			}
		],
		"contextObj": {
			"type": "forms",
			"platform": null,
			"KUID": "a303dc034db740dfbc725d9a524fa6fd"
		},
		"language": "js",
		"actions": [
			{
				"id": "ADD_SNIPPET_ide_onClick_h0dadc8bcc2242bfa78ff1e36921f7b6",
				"type": "ADD_SNIPPET",
				"codeSnippet": "this.setKeypadChar(7);",
				"callbackType": null
			}
		]
	}
}