{
	"AS_Button_jf4ef4f99b5d488fac606e39e82100d4": {
		"id": "AS_Button_jf4ef4f99b5d488fac606e39e82100d4",
		"type": "ACTION_SEQUENCE",
		"params": [
			{
				"datatype": "collection",
				"name": "eventobject"
			}
		],
		"contextObj": {
			"type": "forms",
			"platform": null,
			"KUID": "dc336312264b45a88927cb20acece118"
		},
		"language": "js",
		"actions": [
			{
				"id": "ADD_SNIPPET_ide_onClick_ee0d2d59a61449ac8d2a9fbd11092f64",
				"type": "ADD_SNIPPET",
				"codeSnippet": "this.setKeypadChar(2);",
				"callbackType": null
			}
		]
	}
}