{
	"AS_BarButtonItem_j441973de8394e298e6dcc2897684f09": {
		"id": "AS_BarButtonItem_j441973de8394e298e6dcc2897684f09",
		"type": "ACTION_SEQUENCE",
		"params": [
			{
				"datatype": "collection",
				"name": "eventobject"
			}
		],
		"language": "js",
		"actions": [
			{
				"id": "ADD_SNIPPET_dc587aeb4dc94dd88f70a6363ae88127",
				"type": "ADD_SNIPPET",
				"codeSnippet": "this.backNavigation();",
				"parentId": null
			}
		]
	}
}