{
	"AS_Button_aafc0ce91842457a9e67cb5e9ee08e38": {
		"id": "AS_Button_aafc0ce91842457a9e67cb5e9ee08e38",
		"type": "ACTION_SEQUENCE",
		"params": [
			{
				"datatype": "collection",
				"name": "eventobject"
			}
		],
		"contextObj": {
			"type": "forms",
			"platform": null,
			"KUID": "fea040cd4a714d209c71890e2a642fb9"
		},
		"language": "js",
		"actions": [
			{
				"id": "ADD_SNIPPET_ide_onClick_e86600bd9ca5424da04a9f7791530d5e",
				"type": "ADD_SNIPPET",
				"codeSnippet": "this.setKeypadChar(8);",
				"callbackType": null
			}
		]
	}
}