{
	"AS_BarButtonItem_b8d572107026422d94aa1b1b08f572e0": {
		"id": "AS_BarButtonItem_b8d572107026422d94aa1b1b08f572e0",
		"type": "ACTION_SEQUENCE",
		"params": [
			{
				"datatype": "collection",
				"name": "eventobject"
			}
		],
		"language": "js",
		"actions": [
			{
				"id": "INVOKE_FUNCTION__c913d843b9de492cade1955f698eb6d2",
				"type": "INVOKE_FUNCTION",
				"sequenceKUID": "navigateToCombinedSelector",
				"display": "navigateToCombinedSelector",
				"inputparams": [],
				"parentId": null,
				"callbackType": null,
				"disabled": null,
				"source": "controller"
			}
		]
	}
}