{
	"AS_Button_h97979b7a9a4419c974de691a0ec0899": {
		"id": "AS_Button_h97979b7a9a4419c974de691a0ec0899",
		"type": "ACTION_SEQUENCE",
		"params": [
			{
				"datatype": "collection",
				"name": "eventobject"
			}
		],
		"contextObj": {
			"type": "forms",
			"platform": null,
			"KUID": "f55777c2954249b5bdd1a647d421e942"
		},
		"language": "js",
		"actions": [
			{
				"id": "ADD_SNIPPET_ide_onClick_cabfffb28fed4f57bc95f21fa5e2d4bc",
				"type": "ADD_SNIPPET",
				"codeSnippet": "this.setKeypadChar(7);",
				"callbackType": null
			}
		]
	}
}