{
	"AS_Button_e6d014f90b0d44e1a9441ae625c522a6": {
		"id": "AS_Button_e6d014f90b0d44e1a9441ae625c522a6",
		"type": "ACTION_SEQUENCE",
		"params": [
			{
				"datatype": "collection",
				"name": "eventobject"
			}
		],
		"contextObj": {
			"type": "forms",
			"platform": null,
			"KUID": "hcdda3e785c94749838ba1f5a454aff0"
		},
		"language": "js",
		"actions": [
			{
				"id": "ADD_SNIPPET_ide_onClick_bc8e8bcfed5e46578cae60b5fa3ecfed",
				"type": "ADD_SNIPPET",
				"codeSnippet": "this.setKeypadChar(0);",
				"callbackType": null
			}
		]
	}
}