{
	"AS_Button_c6665eaafa0544f2a81b8fba3fac00c9": {
		"id": "AS_Button_c6665eaafa0544f2a81b8fba3fac00c9",
		"type": "ACTION_SEQUENCE",
		"params": [
			{
				"datatype": "collection",
				"name": "eventobject"
			}
		],
		"language": "js",
		"actions": [
			{
				"id": "NAVIGATE_TO_FORM__ide_onClick_ebd3f1e11d314294b88183db5fd91a1d",
				"type": "NAVIGATE_TO_FORM",
				"formId": "frmTransferActivitiesDirectDebits",
				"friendlyName": "frmTransferActivitiesDirectDebits",
				"formKUID": "ce16403d628d4bf38bfca8590ec8be2d",
				"mappings": {},
				"mappingsOrder": [],
				"enableMappingEditor": true,
				"package": "MoneyMovementModule",
				"isCustomInput": false
			}
		]
	}
}