{
	"AS_Button_d228f7f2fe93431e9d07c85a12d31a6b": {
		"id": "AS_Button_d228f7f2fe93431e9d07c85a12d31a6b",
		"type": "ACTION_SEQUENCE",
		"params": [
			{
				"datatype": "collection",
				"name": "eventobject"
			}
		],
		"contextObj": {
			"type": "forms",
			"platform": "",
			"KUID": "g7a66a5dfea9401e99f20e21090379c8"
		},
		"language": "js",
		"actions": [
			{
				"id": "ADD_SNIPPET_bb67154546cc4f6b8437e339cad2c6dc",
				"type": "ADD_SNIPPET",
				"codeSnippet": "this.setKeypadChar(9);",
				"parentId": null,
				"callbackType": null
			}
		]
	}
}