{
	"AS_Button_c8533e48560f43c2ac17a7132692d73c": {
		"id": "AS_Button_c8533e48560f43c2ac17a7132692d73c",
		"type": "ACTION_SEQUENCE",
		"params": [
			{
				"datatype": "collection",
				"name": "eventobject"
			}
		],
		"contextObj": {
			"type": "forms",
			"platform": null,
			"KUID": "h76b5507ecd042e68db710edd8877a76"
		},
		"language": "js",
		"actions": [
			{
				"id": "ADD_SNIPPET_ide_onClick_e812ea7cd60f4057a487dd4f6c77d31b",
				"type": "ADD_SNIPPET",
				"codeSnippet": "this.setKeypadChar(5);",
				"callbackType": null
			}
		]
	}
}