{
	"AS_Button_d8e20fb2e5664a33886a807e3359666a": {
		"id": "AS_Button_d8e20fb2e5664a33886a807e3359666a",
		"type": "ACTION_SEQUENCE",
		"params": [
			{
				"datatype": "collection",
				"name": "eventobject"
			}
		],
		"contextObj": {
			"type": "forms",
			"platform": null,
			"KUID": "c1c2984a83da4813adbf533f9fbcd5ed"
		},
		"language": "js",
		"actions": [
			{
				"id": "ADD_SNIPPET_ide_onClick_b19b3b9dc11541d582417f99173d8e8e",
				"type": "ADD_SNIPPET",
				"codeSnippet": "this.setKeypadChar(5);",
				"callbackType": null
			}
		]
	}
}