{
	"AS_BarButtonItem_f91df134bf5740eb865e5f11e2007192": {
		"id": "AS_BarButtonItem_f91df134bf5740eb865e5f11e2007192",
		"type": "ACTION_SEQUENCE",
		"params": [
			{
				"datatype": "collection",
				"name": "eventobject"
			}
		],
		"language": "js",
		"actions": [
			{
				"id": "ADD_SNIPPET_gd24708f84554abba0fcd5eb82552cd2",
				"type": "ADD_SNIPPET",
				"codeSnippet": "this.navBack();",
				"parentId": null
			}
		]
	}
}