{
	"AS_Button_c036c4664c0d4bbdbbadc53acc9dcb76": {
		"id": "AS_Button_c036c4664c0d4bbdbbadc53acc9dcb76",
		"type": "ACTION_SEQUENCE",
		"params": [
			{
				"datatype": "collection",
				"name": "eventobject"
			}
		],
		"contextObj": {
			"type": "forms",
			"platform": null,
			"KUID": "ib6c35ff9ae64cc083d5dc6c4fa8cc66"
		},
		"language": "js",
		"actions": [
			{
				"id": "ADD_SNIPPET_ide_onClick_fe54cacb0d8b41f7a39a8829316ad4f2",
				"type": "ADD_SNIPPET",
				"codeSnippet": "this.setKeypadChar(3);",
				"callbackType": null
			}
		]
	}
}