{
	"AS_Button_e65c9e264a2842e2b6478900e2a48489": {
		"id": "AS_Button_e65c9e264a2842e2b6478900e2a48489",
		"type": "ACTION_SEQUENCE",
		"params": [
			{
				"datatype": "collection",
				"name": "eventobject"
			}
		],
		"contextObj": {
			"type": "forms",
			"platform": null,
			"KUID": "gf0bea0914e64207ac1054f290e6340f"
		},
		"language": "js",
		"actions": [
			{
				"id": "ADD_SNIPPET_ide_onClick_a6e01f46244849d6861beb5b0c1f1ffb",
				"type": "ADD_SNIPPET",
				"codeSnippet": "this.setKeypadChar(0);",
				"callbackType": null
			}
		]
	}
}