{
	"AS_Button_c29becbf3bf2448faec6815fe47620c2": {
		"id": "AS_Button_c29becbf3bf2448faec6815fe47620c2",
		"type": "ACTION_SEQUENCE",
		"params": [
			{
				"datatype": "collection",
				"name": "eventobject"
			}
		],
		"contextObj": {
			"type": "forms",
			"platform": "",
			"KUID": "e33988d71009417587c2d8bf335da3a3"
		},
		"language": "js",
		"actions": [
			{
				"id": "ADD_SNIPPET__d7d7736944894c05b41df4c1dec67000",
				"type": "ADD_SNIPPET",
				"codeSnippet": "this.setKeypadChar(5);",
				"parentId": null,
				"callbackType": null
			}
		]
	}
}