{
	"AS_BarButtonItem_a98faba41f9c4390b77373e34103fb75": {
		"id": "AS_BarButtonItem_a98faba41f9c4390b77373e34103fb75",
		"type": "ACTION_SEQUENCE",
		"params": [
			{
				"datatype": "collection",
				"name": "eventobject"
			}
		],
		"language": "js",
		"actions": [
			{
				"id": "ADD_SNIPPET_ide_onClick_hac1326e6fd8489d81fc8bc1ea67b8be",
				"type": "ADD_SNIPPET",
				"codeSnippet": "this.cancelCommon();",
				"callbackType": null
			}
		]
	}
}