{
	"AS_Button_c1d6d18914744401b3b59984194f25f6": {
		"id": "AS_Button_c1d6d18914744401b3b59984194f25f6",
		"type": "ACTION_SEQUENCE",
		"params": [
			{
				"datatype": "collection",
				"name": "eventobject"
			}
		],
		"contextObj": {
			"type": "forms",
			"platform": "",
			"KUID": "fabc653950774f86a578cb382970af65"
		},
		"language": "js",
		"actions": [
			{
				"id": "ADD_SNIPPET__ia5d784456a84d448f1ec445ac0bd957",
				"type": "ADD_SNIPPET",
				"codeSnippet": "this.updatePasswordAction();",
				"parentId": null,
				"callbackType": null
			}
		]
	}
}