{
	"AS_Button_c89e66c786eb42daad1d9997a624d5a6": {
		"id": "AS_Button_c89e66c786eb42daad1d9997a624d5a6",
		"type": "ACTION_SEQUENCE",
		"params": [
			{
				"datatype": "collection",
				"name": "eventobject"
			}
		],
		"contextObj": {
			"type": "forms",
			"platform": "",
			"KUID": "c3816dc191134a879f46b33b9a224f45"
		},
		"language": "js",
		"actions": []
	}
}