{
	"AS_Button_cd43bb05c5ef4ad491266872ba4d4cc7": {
		"id": "AS_Button_cd43bb05c5ef4ad491266872ba4d4cc7",
		"type": "ACTION_SEQUENCE",
		"params": [
			{
				"datatype": "collection",
				"name": "eventobject"
			}
		],
		"contextObj": {
			"type": "forms",
			"platform": null,
			"KUID": "hcdda3e785c94749838ba1f5a454aff0"
		},
		"language": "js",
		"actions": [
			{
				"id": "ADD_SNIPPET_ide_onClick_fd3978549e8440a6a968dad0eb08daff",
				"type": "ADD_SNIPPET",
				"codeSnippet": "this.updatePasswordAction();",
				"callbackType": null
			}
		]
	}
}