{
	"AS_BarButtonItem_aec63f77d40e45b7bc70af458e628886": {
		"id": "AS_BarButtonItem_aec63f77d40e45b7bc70af458e628886",
		"type": "ACTION_SEQUENCE",
		"params": [
			{
				"datatype": "collection",
				"name": "eventobject"
			}
		],
		"language": "js",
		"actions": [
			{
				"id": "ADD_SNIPPET__fa0a52c6f8184bd89a6b2451d33bbe4b",
				"type": "ADD_SNIPPET",
				"codeSnippet": "this.showEditOptions();",
				"parentId": null,
				"callbackType": null
			}
		]
	}
}