{
	"AS_Button_a1b1dfaa348b4ab19df1dcadae6ed50b": {
		"id": "AS_Button_a1b1dfaa348b4ab19df1dcadae6ed50b",
		"type": "ACTION_SEQUENCE",
		"params": [
			{
				"datatype": "collection",
				"name": "eventobject"
			}
		],
		"contextObj": {
			"type": "forms",
			"platform": null,
			"KUID": "aa41c85b03db4a13854914cd74790227"
		},
		"language": "js",
		"actions": [
			{
				"id": "ADD_SNIPPET_ide_onClick_c36ef21bf32d4e8b9ab30300de216c1f",
				"type": "ADD_SNIPPET",
				"codeSnippet": "this.setKeypadChar(1);",
				"callbackType": null
			}
		]
	}
}