{
	"AS_Button_gd3a10fb37a440f08d56cf14ce24a482": {
		"id": "AS_Button_gd3a10fb37a440f08d56cf14ce24a482",
		"type": "ACTION_SEQUENCE",
		"params": [
			{
				"datatype": "collection",
				"name": "eventobject"
			}
		],
		"contextObj": {
			"type": "forms",
			"platform": null,
			"KUID": "ib6c35ff9ae64cc083d5dc6c4fa8cc66"
		},
		"language": "js",
		"actions": [
			{
				"id": "ADD_SNIPPET_ide_onClick_b8f541d26d454d8cb4dbf2fa0def6dda",
				"type": "ADD_SNIPPET",
				"codeSnippet": "this.setKeypadChar('.');",
				"callbackType": null
			}
		]
	}
}