{
	"AS_Button_f77b178b16f3442cb908326b51e6024a": {
		"id": "AS_Button_f77b178b16f3442cb908326b51e6024a",
		"type": "ACTION_SEQUENCE",
		"params": [
			{
				"datatype": "collection",
				"name": "eventobject"
			}
		],
		"contextObj": {
			"type": "forms",
			"platform": null,
			"KUID": "bfa7c6c156b24178972a3e804b34dd97"
		},
		"language": "js",
		"actions": [
			{
				"id": "ADD_SNIPPET_ide_onClick_i7754bed2c80451d9d1b8a33b4e69581",
				"type": "ADD_SNIPPET",
				"codeSnippet": "this.setKeypadChar(2);"
			}
		]
	}
}