{
	"AS_BarButtonItem_fdbbfe74f38749b3bbca107b708047a6": {
		"id": "AS_BarButtonItem_fdbbfe74f38749b3bbca107b708047a6",
		"type": "ACTION_SEQUENCE",
		"params": [
			{
				"datatype": "collection",
				"name": "eventobject"
			}
		],
		"language": "js",
		"actions": [
			{
				"id": "ADD_SNIPPET_i709c963b4c3413c92e18eb73dd951bf",
				"type": "ADD_SNIPPET",
				"codeSnippet": "this.onClickCancel();",
				"parentId": null
			}
		]
	}
}