{
	"AS_Button_h017d5e37a7a4482a1b1217d0ac22bed": {
		"id": "AS_Button_h017d5e37a7a4482a1b1217d0ac22bed",
		"type": "ACTION_SEQUENCE",
		"params": [
			{
				"datatype": "collection",
				"name": "eventobject"
			}
		],
		"contextObj": {
			"type": "forms",
			"platform": "",
			"KUID": "h65c10a2cabc493c8ac9ef9c703d1486"
		},
		"language": "js",
		"actions": [
			{
				"id": "INVOKE_FUNCTION___bfcca5c4dd914829ab50945f7a18a4ab",
				"type": "INVOKE_FUNCTION",
				"sequenceKUID": "btnLoginOnClick",
				"display": "btnLoginOnClick",
				"inputparams": [],
				"parentId": null,
				"callbackType": null,
				"disabled": null,
				"source": "controller"
			}
		]
	}
}