{
	"AS_Button_g93a3768f32247ecb25636656db810dd": {
		"id": "AS_Button_g93a3768f32247ecb25636656db810dd",
		"type": "ACTION_SEQUENCE",
		"params": [
			{
				"datatype": "collection",
				"name": "eventobject"
			}
		],
		"contextObj": {
			"type": "forms",
			"platform": null,
			"KUID": "a66a13b337f3485e829879dac1640d69"
		},
		"language": "js",
		"actions": [
			{
				"id": "NAVIGATE_TO_FORM__ide_onClick_i40f52fac8954971b9aadc67916e0eeb",
				"type": "NAVIGATE_TO_FORM",
				"formId": "frmTransferActivitiesDirectDebits",
				"friendlyName": "frmTransferActivitiesDirectDebits",
				"formKUID": "ce16403d628d4bf38bfca8590ec8be2d",
				"mappings": {},
				"mappingsOrder": [],
				"enableMappingEditor": true,
				"package": "MoneyMovementModule",
				"isCustomInput": false
			}
		]
	}
}