{
	"AS_BarButtonItem_j75a9599bf4a410b8f947e74b7c245df": {
		"id": "AS_BarButtonItem_j75a9599bf4a410b8f947e74b7c245df",
		"type": "ACTION_SEQUENCE",
		"params": [
			{
				"datatype": "collection",
				"name": "eventobject"
			}
		],
		"language": "js",
		"actions": [
			{
				"id": "ADD_SNIPPET_f3d8b0a89c6444f7a9890a63e836ce6b",
				"type": "ADD_SNIPPET",
				"codeSnippet": "this.onCancelClick();",
				"parentId": null,
				"callbackType": null
			}
		]
	}
}