{
	"AS_Button_a211a432262f49a7b0aaa6b424a805c1": {
		"id": "AS_Button_a211a432262f49a7b0aaa6b424a805c1",
		"type": "ACTION_SEQUENCE",
		"params": [
			{
				"datatype": "collection",
				"name": "eventobject"
			}
		],
		"contextObj": {
			"type": "forms",
			"platform": null,
			"KUID": "e3e9161896e14650a7267e5612929539"
		},
		"language": "js",
		"actions": [
			{
				"id": "ADD_SNIPPET_ide_onClick_df6b9500f8414711a6fc004791395cb7",
				"type": "ADD_SNIPPET",
				"codeSnippet": "this.setKeypadChar(8);",
				"callbackType": null
			}
		]
	}
}