{
	"AS_Button_af7156ddad9a4d0d88d65d37d0b0b257": {
		"id": "AS_Button_af7156ddad9a4d0d88d65d37d0b0b257",
		"type": "ACTION_SEQUENCE",
		"params": [
			{
				"datatype": "collection",
				"name": "eventobject"
			}
		],
		"contextObj": {
			"type": "forms",
			"platform": null,
			"KUID": "bb574d49d1204bd796c9045bdf9a36dc"
		},
		"language": "js",
		"actions": [
			{
				"id": "ADD_SNIPPET_ide_onClick_ed95236f199b4e3eaee2b75e5e7d4e3a",
				"type": "ADD_SNIPPET",
				"codeSnippet": "this.setKeypadChar(1);"
			}
		]
	}
}