{
	"AS_Button_e36927aa07be4fb6b26680f46999ae80": {
		"id": "AS_Button_e36927aa07be4fb6b26680f46999ae80",
		"type": "ACTION_SEQUENCE",
		"params": [
			{
				"datatype": "collection",
				"name": "eventobject"
			}
		],
		"contextObj": {
			"type": "forms",
			"platform": null,
			"KUID": "g58b4112139443f4a57df6baf62e25e8"
		},
		"language": "js",
		"actions": [
			{
				"id": "ADD_SNIPPET_ide_onClick_jc62c808847444bd93e14c7923206fa8",
				"type": "ADD_SNIPPET",
				"codeSnippet": "this.setKeypadChar(1);",
				"callbackType": null
			}
		]
	}
}