{
	"AS_Button_ab3444c3588f4c209f1e3541dde46bc5": {
		"id": "AS_Button_ab3444c3588f4c209f1e3541dde46bc5",
		"type": "ACTION_SEQUENCE",
		"params": [
			{
				"datatype": "collection",
				"name": "eventobject"
			}
		],
		"contextObj": {
			"type": "forms",
			"platform": null,
			"KUID": "i2adb2c8c75a4944afc5cd4fed5dd55e"
		},
		"language": "js",
		"actions": [
			{
				"id": "ADD_SNIPPET_ide_onClick_gc31cf1bba9f41138f144fa7edc55dad",
				"type": "ADD_SNIPPET",
				"codeSnippet": "this.setKeypadChar(0);"
			}
		]
	}
}