{
	"AS_Form_j011bdac71404a5f8d997eeb3c1b8df3": {
		"id": "AS_Form_j011bdac71404a5f8d997eeb3c1b8df3",
		"type": "ACTION_SEQUENCE",
		"params": [
			{
				"datatype": "collection",
				"name": "eventobject"
			}
		],
		"contextObj": {
			"type": "forms",
			"platform": "",
			"KUID": "g948662a548b4947baf463681c6c2c1a"
		},
		"language": "js",
		"actions": [
			{
				"id": "ADD_SNIPPET__eceba39b3d404a489ce794715a082061",
				"type": "ADD_SNIPPET",
				"codeSnippet": "this.init();",
				"parentId": null,
				"callbackType": null
			}
		]
	}
}