{
	"AS_Form_g62903915d1c4fde9c243f5a7d89ec97": {
		"id": "AS_Form_g62903915d1c4fde9c243f5a7d89ec97",
		"type": "ACTION_SEQUENCE",
		"params": [
			{
				"datatype": "collection",
				"name": "eventobject"
			}
		],
		"contextObj": {
			"type": "forms",
			"platform": null,
			"KUID": "e478f7c7827d458e9d9d5f0232b0253c"
		},
		"language": "js",
		"actions": [
			{
				"id": "ADD_SNIPPET_ide_preShow_hd1b82213905407681510ba2b15ae98b",
				"type": "ADD_SNIPPET",
				"codeSnippet": "this.preShow();",
				"callbackType": null
			}
		]
	}
}