{
	"AS_Form_f9df0bd8b1c2441eba83431c13d51cd3": {
		"id": "AS_Form_f9df0bd8b1c2441eba83431c13d51cd3",
		"type": "ACTION_SEQUENCE",
		"params": [
			{
				"datatype": "collection",
				"name": "eventobject"
			}
		],
		"contextObj": {
			"type": "forms",
			"platform": "",
			"KUID": "dfaa4f25248643a0bd711535623059de"
		},
		"language": "js",
		"actions": [
			{
				"id": "ADD_SNIPPET__f6b0412cd9d14b2f9780ea0bdc7de16c",
				"type": "ADD_SNIPPET",
				"codeSnippet": "this.init();",
				"parentId": null,
				"callbackType": null
			}
		]
	}
}