{
	"AS_Form_a83b4d06b1554d8295c5eea321942ff0": {
		"id": "AS_Form_a83b4d06b1554d8295c5eea321942ff0",
		"type": "ACTION_SEQUENCE",
		"params": [
			{
				"datatype": "collection",
				"name": "eventobject"
			}
		],
		"contextObj": {
			"type": "forms",
			"platform": "",
			"KUID": "c9ea5e08793d4f6b8670fe174aa03ecb"
		},
		"language": "js",
		"actions": [
			{
				"id": "ADD_SNIPPET__beb95f63cd9f4a368f9544f210af0e39",
				"type": "ADD_SNIPPET",
				"codeSnippet": "this.init();",
				"parentId": null,
				"callbackType": null
			}
		]
	}
}