{
	"AS_Form_f0150fd5cd954122a54d2874468d6ebf": {
		"id": "AS_Form_f0150fd5cd954122a54d2874468d6ebf",
		"type": "ACTION_SEQUENCE",
		"params": [
			{
				"datatype": "collection",
				"name": "eventobject"
			}
		],
		"contextObj": {
			"type": "forms",
			"platform": null,
			"KUID": "e35e0e4d9d9249389c355a3d3b4571e4"
		},
		"language": "js",
		"actions": [
			{
				"id": "ADD_SNIPPET_ide_init_b4bd454391b847c8b8a24db7576071f1",
				"type": "ADD_SNIPPET",
				"codeSnippet": "this.init();",
				"callbackType": null
			}
		]
	}
}