{
	"AS_Form_cc710570e51243648838747da9cbb4b3": {
		"id": "AS_Form_cc710570e51243648838747da9cbb4b3",
		"type": "ACTION_SEQUENCE",
		"params": [
			{
				"datatype": "collection",
				"name": "eventobject"
			}
		],
		"contextObj": {
			"type": "forms",
			"platform": "",
			"KUID": "f8d248cd1139495eb43a4acf88a4bb4c"
		},
		"language": "js",
		"actions": [
			{
				"id": "ADD_SNIPPET__b4cddd986178415382ff9c6c96cc64c8",
				"type": "ADD_SNIPPET",
				"codeSnippet": "this.init();",
				"parentId": null,
				"callbackType": null
			}
		]
	}
}