{
	"AS_FlexContainer_gf9aa11d13f74fc5a58251da770527d0": {
		"id": "AS_FlexContainer_gf9aa11d13f74fc5a58251da770527d0",
		"type": "ACTION_SEQUENCE",
		"params": [
			{
				"datatype": "collection",
				"name": "eventobject"
			}
		],
		"language": "js",
		"actions": [
			{
				"id": "INVOKE_FUNCTION__ide_onClick_b4d9db12d17a4550b04e62840876f001",
				"type": "INVOKE_FUNCTION",
				"sequenceKUID": "flxCheckBoxOnClick",
				"display": "flxCheckBoxOnClick",
				"inputparams": [],
				"callbackType": null,
				"disabled": null,
				"source": "controller"
			}
		]
	}
}