{
	"AS_Form_h7727a656ba14614acd949ee3c789a15": {
		"id": "AS_Form_h7727a656ba14614acd949ee3c789a15",
		"type": "ACTION_SEQUENCE",
		"params": [
			{
				"datatype": "collection",
				"name": "eventobject"
			}
		],
		"contextObj": {
			"type": "forms",
			"platform": "",
			"KUID": "i3118711fd6c40ea81cdb40c7895503f"
		},
		"language": "js",
		"actions": [
			{
				"id": "ADD_SNIPPET_b8d261112d3a41a7af46882456450156",
				"type": "ADD_SNIPPET",
				"codeSnippet": "this.init();",
				"parentId": null
			}
		]
	}
}