{
	"AS_Form_c9c12c11a87a43559a808dbab6c17681": {
		"id": "AS_Form_c9c12c11a87a43559a808dbab6c17681",
		"type": "ACTION_SEQUENCE",
		"params": [
			{
				"datatype": "collection",
				"name": "eventobject"
			}
		],
		"contextObj": {
			"type": "forms",
			"platform": null,
			"KUID": "b3760224e13b4a54bedc9ae3272d4607"
		},
		"language": "js",
		"actions": [
			{
				"id": "ADD_SNIPPET_ide_preShow_i4a671765eff404982e1ec9407080c23",
				"type": "ADD_SNIPPET",
				"codeSnippet": "this.preShow();",
				"callbackType": null
			}
		]
	}
}