{
	"AS_Form_f4fe0105a0bf410a95554a63abee029d": {
		"id": "AS_Form_f4fe0105a0bf410a95554a63abee029d",
		"type": "ACTION_SEQUENCE",
		"params": [
			{
				"datatype": "collection",
				"name": "eventobject"
			}
		],
		"contextObj": {
			"type": "forms",
			"platform": null,
			"KUID": "f15bbffe49a042f2ab33922dba01ccd9"
		},
		"language": "js",
		"actions": [
			{
				"id": "ADD_SNIPPET_ide_init_bc482435e3b34f559106d6baf0417273",
				"type": "ADD_SNIPPET",
				"codeSnippet": "this.init();",
				"callbackType": null
			}
		]
	}
}