{
	"AS_Form_e3e86d20897847a890c56b133238b9b5": {
		"id": "AS_Form_e3e86d20897847a890c56b133238b9b5",
		"type": "ACTION_SEQUENCE",
		"params": [
			{
				"datatype": "collection",
				"name": "eventobject"
			}
		],
		"contextObj": {
			"type": "forms",
			"platform": null,
			"KUID": "b46331bec2644b91ac4241181315e63c"
		},
		"language": "js",
		"actions": [
			{
				"id": "ADD_SNIPPET_ide_preShow_g8e6a5820fa847a2b7e0dc177ee2678c",
				"type": "ADD_SNIPPET",
				"codeSnippet": "this.preshow();"
			}
		]
	}
}