{
	"AS_Form_d230d4dd93d943ea9badc7b411c0ddd9": {
		"id": "AS_Form_d230d4dd93d943ea9badc7b411c0ddd9",
		"type": "ACTION_SEQUENCE",
		"params": [
			{
				"datatype": "collection",
				"name": "eventobject"
			}
		],
		"contextObj": {
			"type": "forms",
			"platform": null,
			"KUID": "e3b845b9f11e4c829a51a8c95f61f61a"
		},
		"language": "js",
		"actions": [
			{
				"id": "ADD_SNIPPET_ide_preShow_ecf11d9c26f144be97095635c99a6db2",
				"type": "ADD_SNIPPET",
				"codeSnippet": "this.preShow();",
				"callbackType": null
			}
		]
	}
}