{
	"AS_Form_cab1b95d28444aadb26b01451a79e03b": {
		"id": "AS_Form_cab1b95d28444aadb26b01451a79e03b",
		"type": "ACTION_SEQUENCE",
		"params": [
			{
				"datatype": "collection",
				"name": "eventobject"
			}
		],
		"contextObj": {
			"type": "forms",
			"platform": "",
			"KUID": "c3f408c6ec1342d9866011c098ad9256"
		},
		"language": "js",
		"actions": [
			{
				"id": "INVOKE_FUNCTION__c00c6e53d1d94bf3adabba08d1a099a5",
				"type": "INVOKE_FUNCTION",
				"sequenceKUID": "preShowSelectUsername",
				"display": "preShowSelectUsername",
				"inputparams": [],
				"parentId": null,
				"callbackType": null,
				"disabled": null,
				"source": "controller"
			}
		]
	}
}