{
	"AS_Form_bc10cde1c0524f5f8348008c3c7ea68a": {
		"id": "AS_Form_bc10cde1c0524f5f8348008c3c7ea68a",
		"type": "ACTION_SEQUENCE",
		"params": [
			{
				"datatype": "collection",
				"name": "eventobject"
			}
		],
		"contextObj": {
			"type": "forms",
			"platform": "",
			"KUID": "f3d941f0c60342c18a733d365499db2f"
		},
		"language": "js",
		"actions": [
			{
				"id": "ADD_SNIPPET_fc290e7eadff4e80ba881131434cc684",
				"type": "ADD_SNIPPET",
				"codeSnippet": "this.postShow();",
				"parentId": null,
				"callbackType": null
			}
		]
	}
}