{
	"AS_Form_a39021b32cbc4251b00ffcff371790ef": {
		"id": "AS_Form_a39021b32cbc4251b00ffcff371790ef",
		"type": "ACTION_SEQUENCE",
		"params": [
			{
				"datatype": "collection",
				"name": "eventobject"
			}
		],
		"contextObj": {
			"type": "forms",
			"platform": null,
			"KUID": "c5c6f9aff3db47f99a581f08652f815c"
		},
		"language": "js",
		"actions": [
			{
				"id": "ADD_SNIPPET_ide_preShow_a050a6e81b5742f2a6cec3bfd90c2022",
				"type": "ADD_SNIPPET",
				"codeSnippet": "this.preShow();",
				"callbackType": null
			}
		]
	}
}