{
	"AS_Form_f399ae6093714314872e39c18cacd208": {
		"id": "AS_Form_f399ae6093714314872e39c18cacd208",
		"type": "ACTION_SEQUENCE",
		"params": [
			{
				"datatype": "collection",
				"name": "eventobject"
			}
		],
		"contextObj": {
			"type": "forms",
			"platform": null,
			"KUID": "bf59cf7e3742404b84cd6f7f7adb1356"
		},
		"language": "js",
		"actions": [
			{
				"id": "ADD_SNIPPET_ide_init_e57949f7bd3d4633921e8e82643716e7",
				"type": "ADD_SNIPPET",
				"codeSnippet": "this.init();",
				"callbackType": null
			}
		]
	}
}