{
	"AS_Form_i9c7a4fbe2504d58a4b6ad92711b8bf0": {
		"id": "AS_Form_i9c7a4fbe2504d58a4b6ad92711b8bf0",
		"type": "ACTION_SEQUENCE",
		"params": [
			{
				"datatype": "collection",
				"name": "eventobject"
			}
		],
		"contextObj": {
			"type": "forms",
			"platform": null,
			"KUID": "i47ad109145242cb896589eaa0be557e"
		},
		"language": "js",
		"actions": [
			{
				"id": "ADD_SNIPPET_ide_preShow_f9fca303fdfb48ff9a8e726ac8a38e17",
				"type": "ADD_SNIPPET",
				"codeSnippet": "this.preShow();",
				"callbackType": null
			}
		]
	}
}