{
	"AS_Form_d34108a610024c22b1a892512e72726e": {
		"id": "AS_Form_d34108a610024c22b1a892512e72726e",
		"type": "ACTION_SEQUENCE",
		"params": [
			{
				"datatype": "collection",
				"name": "eventobject"
			}
		],
		"contextObj": {
			"type": "forms",
			"platform": "",
			"KUID": "efbe813827254864b6664ee04ba7eb46"
		},
		"language": "js",
		"actions": [
			{
				"id": "ADD_SNIPPET_e056d8a17733406d89fea942f817afa5",
				"type": "ADD_SNIPPET",
				"codeSnippet": "this.preshow();",
				"parentId": null
			}
		]
	}
}