{
	"AS_Form_dad50aba9b324740a3a7e562dda46b71": {
		"id": "AS_Form_dad50aba9b324740a3a7e562dda46b71",
		"type": "ACTION_SEQUENCE",
		"params": [
			{
				"datatype": "collection",
				"name": "eventobject"
			}
		],
		"contextObj": {
			"type": "forms",
			"platform": null,
			"KUID": "ffd6e948e7e4440cb94181c68871ec08"
		},
		"language": "js",
		"actions": [
			{
				"id": "INVOKE_FUNCTION___jd0f153710dc476392c3343d7e01ddee",
				"type": "INVOKE_FUNCTION",
				"sequenceKUID": "preShow",
				"display": "preShow",
				"inputparams": [],
				"parentId": null,
				"callbackType": null,
				"disabled": null,
				"source": "controller"
			}
		]
	}
}