{
	"AS_Form_fce4e45070e44c198f9cab2601a5dfea": {
		"id": "AS_Form_fce4e45070e44c198f9cab2601a5dfea",
		"type": "ACTION_SEQUENCE",
		"params": [
			{
				"datatype": "collection",
				"name": "eventobject"
			}
		],
		"contextObj": {
			"type": "forms",
			"platform": null,
			"KUID": "j286c06b9d8a438e95e4de3410a4f0ce"
		},
		"language": "js",
		"actions": [
			{
				"id": "ADD_SNIPPET_g18b8a4e36f54c84a13f377eaf152e2e",
				"type": "ADD_SNIPPET",
				"codeSnippet": "this.preShow();",
				"parentId": null
			}
		]
	}
}