{
	"AS_FlexContainer_ecf964ad4f6b4c0891b48edc58e603e2": {
		"id": "AS_FlexContainer_ecf964ad4f6b4c0891b48edc58e603e2",
		"type": "ACTION_SEQUENCE",
		"params": [
			{
				"datatype": "collection",
				"name": "eventobject"
			}
		],
		"language": "js",
		"actions": [
			{
				"id": "NAVIGATE_TO_FORM__ide_onClick_a0e28b54664b4cce8d29618ca890c3a8",
				"type": "NAVIGATE_TO_FORM",
				"formId": "frmTransactionMode",
				"friendlyName": "frmTransactionMode",
				"formKUID": "a25ff90b6fc0481b8b5c54893b15b6d5",
				"mappings": {},
				"mappingsOrder": [],
				"parentId": "",
				"callbackType": null,
				"enableMappingEditor": true,
				"package": "TransferModule",
				"navigationObj": "{\n    \"_meta_\": {\n        \"eventName\": \"\",\n        \"widgetId\": \"\"\n    }\n}",
				"isCustomInput": false
			}
		]
	}
}