{
	"AS_Form_ff7a3658e62d45b88cf95089e3138c04": {
		"id": "AS_Form_ff7a3658e62d45b88cf95089e3138c04",
		"type": "ACTION_SEQUENCE",
		"params": [
			{
				"datatype": "collection",
				"name": "eventobject"
			}
		],
		"contextObj": {
			"type": "forms",
			"platform": null,
			"KUID": "f93f2216e1db4cb69563d8ae1985be73"
		},
		"language": "js",
		"actions": [
			{
				"id": "ADD_SNIPPET_ide_init_d804c3125acd4832901b5ca5eed3e8fd",
				"type": "ADD_SNIPPET",
				"codeSnippet": "this.init();",
				"callbackType": null
			}
		]
	}
}