{
	"AS_Form_g322f4d97ce642fd931953faf04de96f": {
		"id": "AS_Form_g322f4d97ce642fd931953faf04de96f",
		"type": "ACTION_SEQUENCE",
		"params": [
			{
				"datatype": "collection",
				"name": "eventobject"
			}
		],
		"contextObj": {
			"type": "forms",
			"platform": "",
			"KUID": "f7c9388f7ebf464891858805103cc37b"
		},
		"language": "js",
		"actions": [
			{
				"id": "ADD_SNIPPET__h00e4961dba74b70b3d56298b8a0f9e0",
				"type": "ADD_SNIPPET",
				"codeSnippet": "this.init();",
				"parentId": null,
				"callbackType": null
			}
		]
	}
}