{
	"AS_FlexContainer_be476c8f119d4ace8b5fdc71737512db": {
		"id": "AS_FlexContainer_be476c8f119d4ace8b5fdc71737512db",
		"type": "ACTION_SEQUENCE",
		"params": [
			{
				"datatype": "collection",
				"name": "eventobject"
			}
		],
		"language": "js",
		"actions": [
			{
				"id": "NAVIGATE_TO_FORM__ide_onClick_g062dc88232f4436aa2ed8386de78fa7",
				"type": "NAVIGATE_TO_FORM",
				"formId": "frmTransactionMode",
				"friendlyName": "frmTransactionMode",
				"formKUID": "a25ff90b6fc0481b8b5c54893b15b6d5",
				"mappings": {},
				"mappingsOrder": [],
				"parentId": "",
				"callbackType": null,
				"enableMappingEditor": true,
				"package": "TransferModule",
				"navigationObj": "{\n    \"_meta_\": {\n        \"eventName\": \"\",\n        \"widgetId\": \"\"\n    }\n}",
				"isCustomInput": false
			}
		]
	}
}