{
	"AS_Form_gbe72c4f530148f18317cd1b410af263": {
		"id": "AS_Form_gbe72c4f530148f18317cd1b410af263",
		"type": "ACTION_SEQUENCE",
		"params": [
			{
				"datatype": "collection",
				"name": "eventobject"
			}
		],
		"contextObj": {
			"type": "forms",
			"platform": "",
			"KUID": "a7b80889f7d44c8d9f1807fe32f3b1d1"
		},
		"language": "js",
		"actions": [
			{
				"id": "ADD_SNIPPET__ee878e116a024ad8a1c2062c00288abc",
				"type": "ADD_SNIPPET",
				"codeSnippet": "this.frmPreshow();",
				"parentId": null,
				"callbackType": null
			}
		]
	}
}