{
	"AS_Form_b147749e99d3499b8cda81d679f39dbb": {
		"id": "AS_Form_b147749e99d3499b8cda81d679f39dbb",
		"type": "ACTION_SEQUENCE",
		"params": [
			{
				"datatype": "collection",
				"name": "eventobject"
			}
		],
		"contextObj": {
			"type": "forms",
			"platform": "",
			"KUID": "d81c2803d82d4387813dd3778ccf7ef5"
		},
		"language": "js",
		"actions": [
			{
				"id": "ADD_SNIPPET__jb937f27359247fe82e9b84e317c3d23",
				"type": "ADD_SNIPPET",
				"codeSnippet": "this.init();",
				"parentId": null,
				"callbackType": null
			}
		]
	}
}