{
	"AS_Form_b3085755712f4421a4c62ad367cd41c1": {
		"id": "AS_Form_b3085755712f4421a4c62ad367cd41c1",
		"type": "ACTION_SEQUENCE",
		"params": [
			{
				"datatype": "collection",
				"name": "eventobject"
			}
		],
		"contextObj": {
			"type": "forms",
			"platform": "",
			"KUID": "d31df5820d5b44d8bfcc1bc4f52d6349"
		},
		"language": "js",
		"actions": [
			{
				"id": "ADD_SNIPPET__fcfa7d0d72924decb8b3f515315dbef5",
				"type": "ADD_SNIPPET",
				"codeSnippet": "this.init();",
				"parentId": null,
				"callbackType": null
			}
		]
	}
}