{
	"AS_Form_fb37c082f8664b52a4c0fcbccd50fbf7": {
		"id": "AS_Form_fb37c082f8664b52a4c0fcbccd50fbf7",
		"type": "ACTION_SEQUENCE",
		"params": [
			{
				"datatype": "collection",
				"name": "eventobject"
			}
		],
		"contextObj": {
			"type": "forms",
			"platform": "",
			"KUID": "f3f28eced61f4d5a90c1460748331157"
		},
		"language": "js",
		"actions": [
			{
				"id": "ADD_SNIPPET__g76a5f39f3c641febdcba34bf8097ae7",
				"type": "ADD_SNIPPET",
				"codeSnippet": "this.init();",
				"parentId": null,
				"callbackType": null
			}
		]
	}
}