{
	"AS_Form_b2d8a5f195e34b368821ebc0e8ca83fc": {
		"id": "AS_Form_b2d8a5f195e34b368821ebc0e8ca83fc",
		"type": "ACTION_SEQUENCE",
		"params": [
			{
				"datatype": "collection",
				"name": "eventobject"
			}
		],
		"contextObj": {
			"type": "forms",
			"platform": "",
			"KUID": "eb884581c9154390af4af6572938d7c4"
		},
		"language": "js",
		"actions": [
			{
				"id": "ADD_SNIPPET__j18e107545b84ab4a444e10e1a7c4556",
				"type": "ADD_SNIPPET",
				"codeSnippet": "this.init();",
				"parentId": null,
				"callbackType": null
			}
		]
	}
}