{
	"AS_Form_f31b12c56ea74901a2cd82728425c44c": {
		"id": "AS_Form_f31b12c56ea74901a2cd82728425c44c",
		"type": "ACTION_SEQUENCE",
		"params": [
			{
				"datatype": "collection",
				"name": "eventobject"
			}
		],
		"contextObj": {
			"type": "forms",
			"platform": "",
			"KUID": "b04e32d8ae324b5ea26ac361ceddddb5"
		},
		"language": "js",
		"actions": [
			{
				"id": "ADD_SNIPPET_gcf4a895654248d9b6d77df57b8273df",
				"type": "ADD_SNIPPET",
				"codeSnippet": "this.init();",
				"parentId": null
			}
		]
	}
}