{
	"AS_Form_f874647b49a846cd935713722a1123bd": {
		"id": "AS_Form_f874647b49a846cd935713722a1123bd",
		"type": "ACTION_SEQUENCE",
		"params": [
			{
				"datatype": "collection",
				"name": "eventobject"
			}
		],
		"contextObj": {
			"type": "forms",
			"platform": "",
			"KUID": "i951a66396dc4e2c83b1e019f7f0cb40"
		},
		"language": "js",
		"actions": [
			{
				"id": "ADD_SNIPPET__ed16b54b61b943a8b399805cb533f6aa",
				"type": "ADD_SNIPPET",
				"codeSnippet": "this.init();",
				"parentId": null,
				"callbackType": null
			}
		]
	}
}