{
	"AS_Form_ia705a6e10314ae19d4ea307cbffa874": {
		"id": "AS_Form_ia705a6e10314ae19d4ea307cbffa874",
		"type": "ACTION_SEQUENCE",
		"params": [
			{
				"datatype": "collection",
				"name": "eventobject"
			}
		],
		"contextObj": {
			"type": "forms",
			"platform": null,
			"KUID": "c3dd2c4f9620421f99d934467b8411dd"
		},
		"language": "js",
		"actions": [
			{
				"id": "ADD_SNIPPET_ide_init_f15b7b5fbd1843e2b62d8642deec41e2",
				"type": "ADD_SNIPPET",
				"codeSnippet": "this.init();",
				"callbackType": null
			}
		]
	}
}