{
	"AS_Form_ea34e4399b2d40d8bece16a5cf8f3449": {
		"id": "AS_Form_ea34e4399b2d40d8bece16a5cf8f3449",
		"type": "ACTION_SEQUENCE",
		"params": [
			{
				"datatype": "collection",
				"name": "eventobject"
			}
		],
		"contextObj": {
			"type": "forms",
			"platform": "",
			"KUID": "i3b34d99b83d4b20ba8595a35997c5ed"
		},
		"language": "js",
		"actions": [
			{
				"id": "ADD_SNIPPET__de003111d6b54a27b29cd1ba804cf36c",
				"type": "ADD_SNIPPET",
				"codeSnippet": "this.init();",
				"parentId": null,
				"callbackType": null
			}
		]
	}
}