{
	"AS_Form_c443d43ea44943109e1212c39eab9fea": {
		"id": "AS_Form_c443d43ea44943109e1212c39eab9fea",
		"type": "ACTION_SEQUENCE",
		"params": [
			{
				"datatype": "collection",
				"name": "eventobject"
			}
		],
		"contextObj": {
			"type": "forms",
			"platform": "",
			"KUID": "jff553924cfb4065b67b4387c56ca666"
		},
		"language": "js",
		"actions": [
			{
				"id": "ADD_SNIPPET__e7ee66d34dcb44bbb4cadcf9d2e2dc10",
				"type": "ADD_SNIPPET",
				"codeSnippet": "this.postShow();",
				"parentId": null,
				"callbackType": null
			}
		]
	}
}