{
	"AS_Form_b960c0a56cd5456399b093e931d35421": {
		"id": "AS_Form_b960c0a56cd5456399b093e931d35421",
		"type": "ACTION_SEQUENCE",
		"params": [
			{
				"datatype": "collection",
				"name": "eventobject"
			}
		],
		"contextObj": {
			"type": "forms",
			"platform": "",
			"KUID": "d6ac4e6e4ce4414db7d6c9979900f257"
		},
		"language": "js",
		"actions": [
			{
				"id": "ADD_SNIPPET__je8d94dba5ab489dbbc96a91e6c33937",
				"type": "ADD_SNIPPET",
				"codeSnippet": "this.init();",
				"parentId": null,
				"callbackType": null
			}
		]
	}
}