{
	"AS_Form_hd7212e127274490a09b789bc8c61d9b": {
		"id": "AS_Form_hd7212e127274490a09b789bc8c61d9b",
		"type": "ACTION_SEQUENCE",
		"params": [
			{
				"datatype": "collection",
				"name": "eventobject"
			}
		],
		"contextObj": {
			"type": "forms",
			"platform": "",
			"KUID": "g4582e392c054106b9e743c29610e98c"
		},
		"language": "js",
		"actions": [
			{
				"id": "INVOKE_FUNCTION___b35b73bd5b114648b77fb7e14343e61a",
				"type": "INVOKE_FUNCTION",
				"sequenceKUID": "faceIdPreShow",
				"display": "faceIdPreShow",
				"inputparams": [],
				"parentId": null,
				"callbackType": null,
				"disabled": null,
				"source": "controller"
			}
		]
	}
}