{
	"AS_Form_ae488ece5bb9459bb0b6577ace9d47d3": {
		"id": "AS_Form_ae488ece5bb9459bb0b6577ace9d47d3",
		"type": "ACTION_SEQUENCE",
		"params": [
			{
				"datatype": "collection",
				"name": "eventobject"
			}
		],
		"contextObj": {
			"type": "forms",
			"platform": "",
			"KUID": "i3b34d99b83d4b20ba8595a35997c5ed"
		},
		"language": "js",
		"actions": [
			{
				"id": "ADD_SNIPPET__cc45bf044eac4a8f994af801ab871923",
				"type": "ADD_SNIPPET",
				"codeSnippet": "this.preShow();",
				"parentId": null,
				"callbackType": null
			}
		]
	}
}