{
	"AS_Form_ecdcfd3b9a8642fdbd8c3e6c243dff4b": {
		"id": "AS_Form_ecdcfd3b9a8642fdbd8c3e6c243dff4b",
		"type": "ACTION_SEQUENCE",
		"params": [
			{
				"datatype": "collection",
				"name": "eventobject"
			}
		],
		"contextObj": {
			"type": "forms",
			"platform": null,
			"KUID": "f6a5a6d5d9bb413fa4cec8e26cc06a88"
		},
		"language": "js",
		"actions": [
			{
				"id": "INVOKE_FUNCTION___i0afe5ebdda14f1cb6b9ea6f9ed09542",
				"type": "INVOKE_FUNCTION",
				"sequenceKUID": "frmAccountStatementsPreshow",
				"display": "frmAccountStatementsPreshow",
				"inputparams": [],
				"parentId": null,
				"callbackType": null,
				"disabled": null,
				"source": "controller"
			}
		]
	}
}