{
	"AS_Form_eff24c9d8c094f3680dbbc8874c6177f": {
		"id": "AS_Form_eff24c9d8c094f3680dbbc8874c6177f",
		"type": "ACTION_SEQUENCE",
		"params": [
			{
				"datatype": "collection",
				"name": "eventobject"
			}
		],
		"contextObj": {
			"type": "forms",
			"platform": "",
			"KUID": "j2321d4e3efd4efda4c71d50c5f396f2"
		},
		"language": "js",
		"actions": [
			{
				"id": "ADD_SNIPPET__ef450c84eab34151a164cbdc51700a13",
				"type": "ADD_SNIPPET",
				"codeSnippet": "this.preShow();",
				"parentId": null,
				"callbackType": null
			}
		]
	}
}