{
	"AS_Form_f0a1fffaf9474972bb33304dc611a142": {
		"id": "AS_Form_f0a1fffaf9474972bb33304dc611a142",
		"type": "ACTION_SEQUENCE",
		"params": [
			{
				"datatype": "collection",
				"name": "eventobject"
			}
		],
		"contextObj": {
			"type": "forms",
			"platform": null,
			"KUID": "a52e5e79964d44c1b52ba7ca797e8ead"
		},
		"language": "js",
		"actions": [
			{
				"id": "ADD_SNIPPET_afd13bc5dfa945f4aead53b1ad937ab2",
				"type": "ADD_SNIPPET",
				"codeSnippet": "this.init();",
				"parentId": null,
				"callbackType": null
			}
		]
	}
}