{
	"AS_Form_h51770029092459a957c4a9a9cbb878e": {
		"id": "AS_Form_h51770029092459a957c4a9a9cbb878e",
		"type": "ACTION_SEQUENCE",
		"params": [
			{
				"datatype": "collection",
				"name": "eventobject"
			}
		],
		"contextObj": {
			"type": "forms",
			"platform": null,
			"KUID": "i7cc2c5e9e40432f8a19169cc5d7d0c2"
		},
		"language": "js",
		"actions": [
			{
				"id": "ADD_SNIPPET_ide_init_i29eed75eeeb4ea8a57dffa839e1f9b5",
				"type": "ADD_SNIPPET",
				"codeSnippet": "this.init();",
				"callbackType": null
			}
		]
	}
}