{
	"AS_Form_c4e2ee9a30f44c21bd5292d763b1873d": {
		"id": "AS_Form_c4e2ee9a30f44c21bd5292d763b1873d",
		"type": "ACTION_SEQUENCE",
		"params": [
			{
				"datatype": "collection",
				"name": "eventobject"
			}
		],
		"contextObj": {
			"type": "forms",
			"platform": "",
			"KUID": "a748a03d782b43219216f7c8b9b0d43a"
		},
		"language": "js",
		"actions": [
			{
				"id": "ADD_SNIPPET_bfc4dd83002248a591ced1a67190242d",
				"type": "ADD_SNIPPET",
				"codeSnippet": "this.preShow();",
				"parentId": null,
				"callbackType": null
			}
		]
	}
}