{
	"AS_Form_d22db0f11c9d45cb8cf3b054a36cab3c": {
		"id": "AS_Form_d22db0f11c9d45cb8cf3b054a36cab3c",
		"type": "ACTION_SEQUENCE",
		"params": [
			{
				"datatype": "collection",
				"name": "eventobject"
			}
		],
		"contextObj": {
			"type": "forms",
			"platform": null,
			"KUID": "c74750f1be16404a90b2fe7f67623e16"
		},
		"language": "js",
		"actions": [
			{
				"id": "ADD_SNIPPET_ide_preShow_j90d09a268aa4eb08dd60742e4ca4663",
				"type": "ADD_SNIPPET",
				"codeSnippet": "this.preShow();",
				"callbackType": null
			}
		]
	}
}