{
	"AS_Form_fc0133c1430849df9e8aaa29e735cdac": {
		"id": "AS_Form_fc0133c1430849df9e8aaa29e735cdac",
		"type": "ACTION_SEQUENCE",
		"params": [
			{
				"datatype": "collection",
				"name": "eventobject"
			}
		],
		"contextObj": {
			"type": "forms",
			"platform": "",
			"KUID": "a89f664bbdf7497da555d01574e1fe3c"
		},
		"language": "js",
		"actions": [
			{
				"id": "ADD_SNIPPET__e661c16ea581479082fa62ea2618476c",
				"type": "ADD_SNIPPET",
				"codeSnippet": "this.init();",
				"parentId": null,
				"callbackType": null
			}
		]
	}
}