{
	"AS_Form_da0d615f051648d398ff55a195ba31de": {
		"id": "AS_Form_da0d615f051648d398ff55a195ba31de",
		"type": "ACTION_SEQUENCE",
		"params": [
			{
				"datatype": "collection",
				"name": "eventobject"
			}
		],
		"contextObj": {
			"type": "forms",
			"platform": "",
			"KUID": "c3dd2c4f9620421f99d934467b8411dd"
		},
		"language": "js",
		"actions": [
			{
				"id": "ADD_SNIPPET_e0407c4014cd48e8b52b66b616a30557",
				"type": "ADD_SNIPPET",
				"codeSnippet": "this.init();",
				"parentId": null
			}
		]
	}
}