{
	"AS_Form_fb0497b34a7d4284a894e44d226f3c4d": {
		"id": "AS_Form_fb0497b34a7d4284a894e44d226f3c4d",
		"type": "ACTION_SEQUENCE",
		"params": [
			{
				"datatype": "collection",
				"name": "eventobject"
			}
		],
		"contextObj": {
			"type": "forms",
			"platform": null,
			"KUID": "f8a585cbe0a44924bb74912b013978fc"
		},
		"language": "js",
		"actions": [
			{
				"id": "ADD_SNIPPET_a194fc4a769d4d2882ac339b92d1e10a",
				"type": "ADD_SNIPPET",
				"codeSnippet": "this.preShow();",
				"parentId": null
			}
		]
	}
}