{
	"AS_Form_j9c7c8d571094dcab8c9f422ecc90e73": {
		"id": "AS_Form_j9c7c8d571094dcab8c9f422ecc90e73",
		"type": "ACTION_SEQUENCE",
		"params": [
			{
				"datatype": "collection",
				"name": "eventobject"
			}
		],
		"contextObj": {
			"type": "forms",
			"platform": null,
			"KUID": "i478aeb81aa84e7ba1d760efdbb6b815"
		},
		"language": "js",
		"actions": [
			{
				"id": "ADD_SNIPPET_ide_preShow_b46820c83e58427590c4d1b3515c9771",
				"type": "ADD_SNIPPET",
				"codeSnippet": "this.preShow();",
				"callbackType": null
			}
		]
	}
}