{
	"AS_Form_b66b3952600e4a4f9e5459d433a115af": {
		"id": "AS_Form_b66b3952600e4a4f9e5459d433a115af",
		"type": "ACTION_SEQUENCE",
		"params": [
			{
				"datatype": "collection",
				"name": "eventobject"
			}
		],
		"contextObj": {
			"type": "forms",
			"platform": null,
			"KUID": "j21d8aaf0a434a598861e8edd1d907c1"
		},
		"language": "js",
		"actions": [
			{
				"id": "ADD_SNIPPET_ide_init_g6033e9ada4940b68c75ad7bf569ddf6",
				"type": "ADD_SNIPPET",
				"codeSnippet": "this.init();"
			}
		]
	}
}