{
	"AS_FlexContainer_b6edbc45eae343f984a06310395afc7c": {
		"id": "AS_FlexContainer_b6edbc45eae343f984a06310395afc7c",
		"type": "ACTION_SEQUENCE",
		"params": [
			{
				"datatype": "collection",
				"name": "eventobject"
			}
		],
		"contextObj": {
			"type": "forms",
			"platform": "",
			"KUID": "dfaa4f25248643a0bd711535623059de"
		},
		"language": "js",
		"actions": [
			{
				"id": "ADD_SNIPPET__c38a18ccb24848c2800eb52094f65e6c",
				"type": "ADD_SNIPPET",
				"codeSnippet": "this.imgbackAction();",
				"parentId": null,
				"callbackType": null
			}
		]
	}
}