{
	"AS_FlexContainer_c876c4a5137e40c087d38cc94cbf9964": {
		"id": "AS_FlexContainer_c876c4a5137e40c087d38cc94cbf9964",
		"type": "ACTION_SEQUENCE",
		"params": [
			{
				"datatype": "collection",
				"name": "eventobject"
			}
		],
		"contextObj": {
			"type": "forms",
			"platform": null,
			"KUID": "i22192bd6a814bb6ac54447e1391a469"
		},
		"language": "js",
		"actions": [
			{
				"id": "ADD_SNIPPET_ide_onClick_e7dee28ef347462fa067b0fabcba92ae",
				"type": "ADD_SNIPPET",
				"codeSnippet": "this.navigateToAdvanceSearch();",
				"callbackType": null
			}
		]
	}
}