{
	"AS_Form_a6a298ed21b341838a820c0e1f27f1f9": {
		"id": "AS_Form_a6a298ed21b341838a820c0e1f27f1f9",
		"type": "ACTION_SEQUENCE",
		"params": [
			{
				"datatype": "collection",
				"name": "eventobject"
			}
		],
		"contextObj": {
			"type": "forms",
			"platform": null,
			"KUID": "c2d98b9cdbfe40cf831bdf0d9d1a7bb2"
		},
		"language": "js",
		"actions": [
			{
				"id": "ADD_SNIPPET_ide_preShow_fa01a9ec176f453ab5d7bbb0bffb5e51",
				"type": "ADD_SNIPPET",
				"codeSnippet": "this.preShow();",
				"callbackType": null
			}
		]
	}
}