{
	"AS_Form_e271814b10b144c5ad9ea99b2f00c1e8": {
		"id": "AS_Form_e271814b10b144c5ad9ea99b2f00c1e8",
		"type": "ACTION_SEQUENCE",
		"params": [
			{
				"datatype": "collection",
				"name": "eventobject"
			}
		],
		"contextObj": {
			"type": "forms",
			"platform": "",
			"KUID": "e817adb43e384568b14ef4a1769efd61"
		},
		"language": "js",
		"actions": [
			{
				"id": "ADD_SNIPPET__fdc1953b548a4e2aa32a469ed7b8a6d6",
				"type": "ADD_SNIPPET",
				"codeSnippet": "this.init();",
				"parentId": null,
				"callbackType": null
			}
		]
	}
}