{
	"AS_Form_b03617e1df39413dbe281457023af7de": {
		"id": "AS_Form_b03617e1df39413dbe281457023af7de",
		"type": "ACTION_SEQUENCE",
		"params": [
			{
				"datatype": "collection",
				"name": "eventobject"
			}
		],
		"contextObj": {
			"type": "forms",
			"platform": "",
			"KUID": "bccc5366ec894da1acf4e8c15deec0b6"
		},
		"language": "js",
		"actions": [
			{
				"id": "ADD_SNIPPET_f17ba5fd43974199b75725f17e445595",
				"type": "ADD_SNIPPET",
				"codeSnippet": "this.preShow();",
				"parentId": null,
				"callbackType": null
			}
		]
	}
}