{
	"AS_Form_g6d83dc42b484582b03e84958b14342a": {
		"id": "AS_Form_g6d83dc42b484582b03e84958b14342a",
		"type": "ACTION_SEQUENCE",
		"params": [
			{
				"datatype": "collection",
				"name": "eventobject"
			}
		],
		"contextObj": {
			"type": "forms",
			"platform": null,
			"KUID": "db956de710cb4c2995174375e7197fac"
		},
		"language": "js",
		"actions": [
			{
				"id": "INVOKE_FUNCTION__bf451727cf984ee48c1bfbb1d33495db",
				"type": "INVOKE_FUNCTION",
				"sequenceKUID": "init",
				"display": "init",
				"inputparams": [],
				"parentId": null,
				"callbackType": null,
				"disabled": null,
				"source": "controller"
			}
		]
	}
}