{
	"AS_Form_ea8a54e15a154b628b571c097e2bb828": {
		"id": "AS_Form_ea8a54e15a154b628b571c097e2bb828",
		"type": "ACTION_SEQUENCE",
		"params": [
			{
				"datatype": "collection",
				"name": "eventobject"
			}
		],
		"contextObj": {
			"type": "forms",
			"platform": null,
			"KUID": "e8f88ed1a2264eadaaa58f5a79a71e60"
		},
		"language": "js",
		"actions": [
			{
				"id": "ADD_SNIPPET_ide_postShow_a8cc65d314864e9eb4de3f42da42e561",
				"type": "ADD_SNIPPET",
				"codeSnippet": "this.postShow();",
				"callbackType": null
			}
		]
	}
}