{
	"AS_Form_dda5352f17de4f4f9669f32e7e2c8efd": {
		"id": "AS_Form_dda5352f17de4f4f9669f32e7e2c8efd",
		"type": "ACTION_SEQUENCE",
		"params": [
			{
				"datatype": "collection",
				"name": "eventobject"
			}
		],
		"contextObj": {
			"type": "forms",
			"platform": null,
			"KUID": "a0640e7e5fd044cf9ff6a028d0cc4fbd"
		},
		"language": "js",
		"actions": [
			{
				"id": "ADD_SNIPPET_c19ae4976dd540ef9f8e79f0564d7b61",
				"type": "ADD_SNIPPET",
				"codeSnippet": "this.preShow();",
				"parentId": null
			}
		]
	}
}