{
	"AS_Form_g4a56a9c842d4da490ee695eb714097c": {
		"id": "AS_Form_g4a56a9c842d4da490ee695eb714097c",
		"type": "ACTION_SEQUENCE",
		"params": [
			{
				"datatype": "collection",
				"name": "eventobject"
			}
		],
		"contextObj": {
			"type": "forms",
			"platform": null,
			"KUID": "a64321f49f32425bada133a00fa11662"
		},
		"language": "js",
		"actions": [
			{
				"id": "INVOKE_FUNCTION__ide_onNavigate_ca568a035fbf4a6cb17ad5aa67186533",
				"type": "INVOKE_FUNCTION",
				"sequenceKUID": "onNavigate",
				"display": "onNavigate",
				"inputparams": [],
				"callbackType": null,
				"disabled": null,
				"source": "controller"
			}
		]
	}
}