{
	"AS_Form_a42799d51cbd4fb6aa6a39470e0d0148": {
		"id": "AS_Form_a42799d51cbd4fb6aa6a39470e0d0148",
		"type": "ACTION_SEQUENCE",
		"params": [
			{
				"datatype": "collection",
				"name": "eventobject"
			}
		],
		"contextObj": {
			"type": "forms",
			"platform": "",
			"KUID": "d0ec916ea28746d78e86dcb5f6e90eae"
		},
		"language": "js",
		"actions": [
			{
				"id": "ADD_SNIPPET__a01bd1ae0c0448f693e00084211e43b9",
				"type": "ADD_SNIPPET",
				"codeSnippet": "this.init();",
				"parentId": null,
				"callbackType": null
			}
		]
	}
}