{
	"AS_Form_a9216fa9baa547758724d2cb7b72ff6a": {
		"id": "AS_Form_a9216fa9baa547758724d2cb7b72ff6a",
		"type": "ACTION_SEQUENCE",
		"params": [
			{
				"datatype": "collection",
				"name": "eventobject"
			}
		],
		"contextObj": {
			"type": "forms",
			"platform": null,
			"KUID": "de0df0a7c75c459f895475852531d9ed"
		},
		"language": "js",
		"actions": [
			{
				"id": "ADD_SNIPPET_ide_preShow_a72108acb7744313b3024c485a2349ca",
				"type": "ADD_SNIPPET",
				"codeSnippet": "this.preShow();",
				"callbackType": null
			}
		]
	}
}