{
	"AS_FlexContainer_b3c5f016efc14e00beba7a59c8a3079f": {
		"id": "AS_FlexContainer_b3c5f016efc14e00beba7a59c8a3079f",
		"type": "ACTION_SEQUENCE",
		"params": [
			{
				"datatype": "collection",
				"name": "eventobject"
			}
		],
		"contextObj": {
			"type": "forms",
			"platform": null,
			"KUID": "c3816dc191134a879f46b33b9a224f45"
		},
		"language": "js",
		"actions": [
			{
				"id": "INVOKE_FUNCTION___iadb92aeedc54bc9aa154473662c9b1b",
				"type": "INVOKE_FUNCTION",
				"sequenceKUID": "flxCheckBoxOnClick",
				"display": "flxCheckBoxOnClick",
				"inputparams": [],
				"parentId": null,
				"callbackType": null,
				"disabled": null,
				"source": "controller"
			}
		]
	}
}