{
	"AS_Form_ae418f868c3c483a804be8923c4f6e47": {
		"id": "AS_Form_ae418f868c3c483a804be8923c4f6e47",
		"type": "ACTION_SEQUENCE",
		"params": [
			{
				"datatype": "collection",
				"name": "eventobject"
			}
		],
		"contextObj": {
			"type": "forms",
			"platform": "",
			"KUID": "fe8884036d3048d7b276be4e989b1e75"
		},
		"language": "js",
		"actions": [
			{
				"id": "ADD_SNIPPET__a8ce0c0927544b6cbdd533487c9deed2",
				"type": "ADD_SNIPPET",
				"codeSnippet": "this.frmLocationPreshow();",
				"parentId": null,
				"callbackType": null
			}
		]
	}
}