{
	"AS_Form_e1db13f6b0214f9c9b1af800ab776ad7": {
		"id": "AS_Form_e1db13f6b0214f9c9b1af800ab776ad7",
		"type": "ACTION_SEQUENCE",
		"params": [
			{
				"datatype": "collection",
				"name": "eventobject"
			}
		],
		"contextObj": {
			"type": "forms",
			"platform": "",
			"KUID": "b64444c111204667904d827ea6c25e6c"
		},
		"language": "js",
		"actions": [
			{
				"id": "ADD_SNIPPET__g452653a967f4855b9eb2f4c5bc7cfb0",
				"type": "ADD_SNIPPET",
				"codeSnippet": "this.preShow();",
				"parentId": null,
				"callbackType": null
			}
		]
	}
}