{
	"AS_FlexContainer_g4eafa9b97c74a1c81c2eed992281565": {
		"id": "AS_FlexContainer_g4eafa9b97c74a1c81c2eed992281565",
		"type": "ACTION_SEQUENCE",
		"params": [
			{
				"datatype": "collection",
				"name": "eventobject"
			}
		],
		"contextObj": {
			"type": "forms",
			"platform": "",
			"KUID": "h65c10a2cabc493c8ac9ef9c703d1486"
		},
		"language": "js",
		"actions": [
			{
				"id": "ADD_SNIPPET__b2382b27aa2b4065b739049864393bb6",
				"type": "ADD_SNIPPET",
				"codeSnippet": "this.navToNUOPhone();",
				"parentId": null,
				"callbackType": null
			}
		]
	}
}