{
	"AS_Form_c099ac427eb74ef5b54dcdfc8ee82243": {
		"id": "AS_Form_c099ac427eb74ef5b54dcdfc8ee82243",
		"type": "ACTION_SEQUENCE",
		"params": [
			{
				"datatype": "collection",
				"name": "eventobject"
			}
		],
		"contextObj": {
			"type": "forms",
			"platform": "",
			"KUID": "j099081935a34ea2a7939750a23afa32"
		},
		"language": "js",
		"actions": [
			{
				"id": "ADD_SNIPPET__bbdc95ec91214042ba51e3ccdbdd00f4",
				"type": "ADD_SNIPPET",
				"codeSnippet": "this.init();",
				"parentId": null,
				"callbackType": null
			}
		]
	}
}