{
	"AS_Form_d0934201db79496280125fa38ad4c5de": {
		"id": "AS_Form_d0934201db79496280125fa38ad4c5de",
		"type": "ACTION_SEQUENCE",
		"params": [
			{
				"datatype": "collection",
				"name": "eventobject"
			}
		],
		"contextObj": {
			"type": "forms",
			"platform": null,
			"KUID": "j5191a10646c4d9f883a613552762a2a"
		},
		"language": "js",
		"actions": [
			{
				"id": "ADD_SNIPPET_i16979a1b35449db968f8fdd98b75472",
				"type": "ADD_SNIPPET",
				"codeSnippet": "this.init();",
				"parentId": null
			}
		]
	}
}