{
	"AS_Form_h549bdbd161b48e3b0e651c511e55732": {
		"id": "AS_Form_h549bdbd161b48e3b0e651c511e55732",
		"type": "ACTION_SEQUENCE",
		"params": [
			{
				"datatype": "collection",
				"name": "eventobject"
			}
		],
		"contextObj": {
			"type": "forms",
			"platform": null,
			"KUID": "e35e0e4d9d9249389c355a3d3b4571e4"
		},
		"language": "js",
		"actions": [
			{
				"id": "ADD_SNIPPET_ide_preShow_f1cb84aa0a324002a4c80d8e78fbe716",
				"type": "ADD_SNIPPET",
				"codeSnippet": "this.frmPreshow();",
				"callbackType": null
			}
		]
	}
}