{
	"AS_Form_c2a3520d9e99485d9c77256583801878": {
		"id": "AS_Form_c2a3520d9e99485d9c77256583801878",
		"type": "ACTION_SEQUENCE",
		"params": [
			{
				"datatype": "collection",
				"name": "eventobject"
			}
		],
		"contextObj": {
			"type": "forms",
			"platform": null,
			"KUID": "b482b6efffaf4a9f9f24e84f96dfe5f7"
		},
		"language": "js",
		"actions": [
			{
				"id": "INVOKE_FUNCTION__ide_preShow_i1206ebc41854960bb7227e2a19b9613",
				"type": "INVOKE_FUNCTION",
				"sequenceKUID": "frmPreshow",
				"display": "frmPreshow",
				"inputparams": [],
				"callbackType": null,
				"disabled": null,
				"source": "controller"
			}
		]
	}
}