{
	"AS_Form_d40fc79f89714cf5a8c643fa005d1fc0": {
		"id": "AS_Form_d40fc79f89714cf5a8c643fa005d1fc0",
		"type": "ACTION_SEQUENCE",
		"params": [
			{
				"datatype": "collection",
				"name": "eventobject"
			}
		],
		"contextObj": {
			"type": "forms",
			"platform": null,
			"KUID": "bd032a53ff35448caad8e8501551f6ed"
		},
		"language": "js",
		"actions": [
			{
				"id": "ADD_SNIPPET_ide_preShow_a1f2c134d78943e29e469cc5f33e79d6",
				"type": "ADD_SNIPPET",
				"codeSnippet": "this.preShow();",
				"callbackType": null
			}
		]
	}
}