{
	"AS_Form_c018cfa70ff14469a199c23071721cf6": {
		"id": "AS_Form_c018cfa70ff14469a199c23071721cf6",
		"type": "ACTION_SEQUENCE",
		"params": [
			{
				"datatype": "collection",
				"name": "eventobject"
			}
		],
		"contextObj": {
			"type": "forms",
			"platform": null,
			"KUID": "db61174655a04dd2a75101b9efd9b24f"
		},
		"language": "js",
		"actions": [
			{
				"id": "ADD_SNIPPET_ide_init_bafc4e7fbd1f4907853e36af54d2b2b0",
				"type": "ADD_SNIPPET",
				"codeSnippet": "this.init();",
				"callbackType": null
			}
		]
	}
}