{
	"AS_Form_add9db7150c44206810426165d3c7e08": {
		"id": "AS_Form_add9db7150c44206810426165d3c7e08",
		"type": "ACTION_SEQUENCE",
		"params": [
			{
				"datatype": "collection",
				"name": "eventobject"
			}
		],
		"contextObj": {
			"type": "forms",
			"platform": null,
			"KUID": "hc3606ac0ae04f91859fdd483e672375"
		},
		"language": "js",
		"actions": [
			{
				"id": "ADD_SNIPPET_ide_init_c21fd3a0358f43bf96f7f4661a9c17b2",
				"type": "ADD_SNIPPET",
				"codeSnippet": "this.init();",
				"callbackType": null
			}
		]
	}
}