{
	"AS_Form_af1b7ef7c8ef4a1e91933cea412ae006": {
		"id": "AS_Form_af1b7ef7c8ef4a1e91933cea412ae006",
		"type": "ACTION_SEQUENCE",
		"params": [
			{
				"datatype": "collection",
				"name": "eventobject"
			}
		],
		"contextObj": {
			"type": "forms",
			"platform": null,
			"KUID": "fea040cd4a714d209c71890e2a642fb9"
		},
		"language": "js",
		"actions": [
			{
				"id": "ADD_SNIPPET_ide_init_bfe4584d911e491eb35daa3d84281a4e",
				"type": "ADD_SNIPPET",
				"codeSnippet": "this.init();"
			}
		]
	}
}