{
	"AS_Form_ebb975fa2c0a451e91fe31d8a710bd91": {
		"id": "AS_Form_ebb975fa2c0a451e91fe31d8a710bd91",
		"type": "ACTION_SEQUENCE",
		"params": [
			{
				"datatype": "collection",
				"name": "eventobject"
			}
		],
		"contextObj": {
			"type": "forms",
			"platform": "",
			"KUID": "b30e09d8c30740b4b3a6416c9ccc4fc9"
		},
		"language": "js",
		"actions": [
			{
				"id": "ADD_SNIPPET__b8c80a2d4f074bfe81568a0ac169995f",
				"type": "ADD_SNIPPET",
				"codeSnippet": "applicationManager.getPresentationUtility().dismissLoadingScreen();",
				"parentId": null,
				"callbackType": null
			}
		]
	}
}