{
	"AS_Form_g3dc95f355f0476db0891c145cd19a58": {
		"id": "AS_Form_g3dc95f355f0476db0891c145cd19a58",
		"type": "ACTION_SEQUENCE",
		"params": [
			{
				"datatype": "collection",
				"name": "eventobject"
			}
		],
		"contextObj": {
			"type": "forms",
			"platform": null,
			"KUID": "c046950dd87a464e9ffb7a7e6e8c6fa6"
		},
		"language": "js",
		"actions": [
			{
				"id": "ADD_SNIPPET_ide_init_ba90b007872344ff889cf73ecc77d84f",
				"type": "ADD_SNIPPET",
				"codeSnippet": "this.init();",
				"callbackType": null
			}
		]
	}
}