{
	"AS_Form_ca1ba59b895d46689d370aeec4845dd6": {
		"id": "AS_Form_ca1ba59b895d46689d370aeec4845dd6",
		"type": "ACTION_SEQUENCE",
		"params": [
			{
				"datatype": "collection",
				"name": "eventobject"
			}
		],
		"contextObj": {
			"type": "forms",
			"platform": null,
			"KUID": "d0d81d43004144de9a14ad0b419cf299"
		},
		"language": "js",
		"actions": [
			{
				"id": "ADD_SNIPPET_ide_preShow_ib1955dd3c934b57b7999925cc4e848b",
				"type": "ADD_SNIPPET",
				"codeSnippet": "this.preShow();",
				"callbackType": null
			}
		]
	}
}