{
	"AS_Form_c68cc0bab8094fda99a85ef10ef959f9": {
		"id": "AS_Form_c68cc0bab8094fda99a85ef10ef959f9",
		"type": "ACTION_SEQUENCE",
		"params": [
			{
				"datatype": "collection",
				"name": "eventobject"
			}
		],
		"contextObj": {
			"type": "forms",
			"platform": null,
			"KUID": "c63698ab374d4959a398fc0585d080e8"
		},
		"language": "js",
		"actions": [
			{
				"id": "ADD_SNIPPET_f78c03b093cc4a0fb469109cb50def0d",
				"type": "ADD_SNIPPET",
				"codeSnippet": "this.preshow();",
				"parentId": null
			}
		]
	}
}