{
	"AS_Form_d52d46a823e84fa7a769dc7fb38942ed": {
		"id": "AS_Form_d52d46a823e84fa7a769dc7fb38942ed",
		"type": "ACTION_SEQUENCE",
		"params": [
			{
				"datatype": "collection",
				"name": "eventobject"
			}
		],
		"contextObj": {
			"type": "forms",
			"platform": null,
			"KUID": "fd6efa06d64147e7b8e59cdf145e932d"
		},
		"language": "js",
		"actions": [
			{
				"id": "ADD_SNIPPET_ide_preShow_e8f99a30c4434e16b610c9378b7e8776",
				"type": "ADD_SNIPPET",
				"codeSnippet": "this.preShow();",
				"callbackType": null
			}
		]
	}
}