{
	"AS_Form_ddcc55509d334af9a75e84f7d2550a90": {
		"id": "AS_Form_ddcc55509d334af9a75e84f7d2550a90",
		"type": "ACTION_SEQUENCE",
		"params": [
			{
				"datatype": "collection",
				"name": "eventobject"
			}
		],
		"contextObj": {
			"type": "forms",
			"platform": "",
			"KUID": "e015394a64e342a494e7ed35e3dedacf"
		},
		"language": "js",
		"actions": [
			{
				"id": "ADD_SNIPPET__b78e8b821bab4506ba6c4ce418405ceb",
				"type": "ADD_SNIPPET",
				"codeSnippet": "this.init();",
				"parentId": null,
				"callbackType": null
			}
		]
	}
}