{
	"AS_Form_e449edd296b44838bb617506412f4b08": {
		"id": "AS_Form_e449edd296b44838bb617506412f4b08",
		"type": "ACTION_SEQUENCE",
		"params": [
			{
				"datatype": "collection",
				"name": "eventobject"
			}
		],
		"contextObj": {
			"type": "forms",
			"platform": null,
			"KUID": "f411a2a5a2cd4efba1cca27485df0902"
		},
		"language": "js",
		"actions": [
			{
				"id": "ADD_SNIPPET__efe231a849544b5b95de1469597e6d96",
				"type": "ADD_SNIPPET",
				"codeSnippet": "this.frmEnrollCVVPreshow();",
				"parentId": null,
				"callbackType": null
			}
		]
	}
}