{
	"AS_Form_i1dde7e3df064289a702a65d6184cd27": {
		"id": "AS_Form_i1dde7e3df064289a702a65d6184cd27",
		"type": "ACTION_SEQUENCE",
		"params": [
			{
				"datatype": "collection",
				"name": "eventobject"
			}
		],
		"contextObj": {
			"type": "forms",
			"platform": null,
			"KUID": "dc138329d393442387071de84ea635cd"
		},
		"language": "js",
		"actions": [
			{
				"id": "ADD_SNIPPET_ide_init_gd38ce62ee1e41aeb358fd1780bda30f",
				"type": "ADD_SNIPPET",
				"codeSnippet": "this.init();",
				"callbackType": null
			}
		]
	}
}