{
	"AS_Form_bd676377fd5945c68133233e4c2f2289": {
		"id": "AS_Form_bd676377fd5945c68133233e4c2f2289",
		"type": "ACTION_SEQUENCE",
		"params": [
			{
				"datatype": "collection",
				"name": "eventobject"
			}
		],
		"contextObj": {
			"type": "forms",
			"platform": "",
			"KUID": "a069acf360ab44c89384769eb7fcbe20"
		},
		"language": "js",
		"actions": [
			{
				"id": "ADD_SNIPPET__f042e57942b04a74986017c64057b643",
				"type": "ADD_SNIPPET",
				"codeSnippet": "this.init();",
				"parentId": null,
				"callbackType": null
			}
		]
	}
}