{
	"AS_Form_f70770bb12ac4097972c3795a342d888": {
		"id": "AS_Form_f70770bb12ac4097972c3795a342d888",
		"type": "ACTION_SEQUENCE",
		"params": [
			{
				"datatype": "collection",
				"name": "eventobject"
			}
		],
		"contextObj": {
			"type": "forms",
			"platform": null,
			"KUID": "edd6f2b029f149268bbfd2d9c45f7b9a"
		},
		"language": "js",
		"actions": [
			{
				"id": "ADD_SNIPPET_b09f5730f0434f15a52fb88cccdd87da",
				"type": "ADD_SNIPPET",
				"codeSnippet": "this.init();",
				"parentId": null
			}
		]
	}
}