{
	"AS_Form_h53b48e9fc9b44178c419a66135da80a": {
		"id": "AS_Form_h53b48e9fc9b44178c419a66135da80a",
		"type": "ACTION_SEQUENCE",
		"params": [
			{
				"datatype": "collection",
				"name": "eventobject"
			}
		],
		"contextObj": {
			"type": "forms",
			"platform": "",
			"KUID": "h76b5507ecd042e68db710edd8877a76"
		},
		"language": "js",
		"actions": [
			{
				"id": "ADD_SNIPPET__b83d132ce5c04beba9cd0e4ffed3a136",
				"type": "ADD_SNIPPET",
				"codeSnippet": "this.init();",
				"parentId": null,
				"callbackType": null
			}
		]
	}
}