{
	"AS_Form_a346d929df954279884198710fa59322": {
		"id": "AS_Form_a346d929df954279884198710fa59322",
		"type": "ACTION_SEQUENCE",
		"params": [
			{
				"datatype": "collection",
				"name": "eventobject"
			}
		],
		"contextObj": {
			"type": "forms",
			"platform": "",
			"KUID": "gde5f469c8f143e6971d45e514f9ab62"
		},
		"language": "js",
		"actions": [
			{
				"id": "ADD_SNIPPET__d6fad477b026460f90aff5ee450c3bf4",
				"type": "ADD_SNIPPET",
				"codeSnippet": "this.checkDepositToInit();",
				"parentId": null,
				"callbackType": null
			}
		]
	}
}