{
	"AS_Form_e0492e8c2e2642fe811899348e78c797": {
		"id": "AS_Form_e0492e8c2e2642fe811899348e78c797",
		"type": "ACTION_SEQUENCE",
		"params": [
			{
				"datatype": "collection",
				"name": "eventobject"
			}
		],
		"contextObj": {
			"type": "forms",
			"platform": "",
			"KUID": "i2691268918c4ae6ab7775aa7b8aa2f9"
		},
		"language": "js",
		"actions": [
			{
				"id": "ADD_SNIPPET_d6e0f1afc655445e8180487a621a04ae",
				"type": "ADD_SNIPPET",
				"codeSnippet": "this.preshow();",
				"parentId": null
			}
		]
	}
}