{
	"AS_Form_j457fe50e13f455aa2f85f344ac92afb": {
		"id": "AS_Form_j457fe50e13f455aa2f85f344ac92afb",
		"type": "ACTION_SEQUENCE",
		"params": [
			{
				"datatype": "collection",
				"name": "eventobject"
			}
		],
		"contextObj": {
			"type": "forms",
			"platform": "",
			"KUID": "a748a03d782b43219216f7c8b9b0d43a"
		},
		"language": "js",
		"actions": [
			{
				"id": "ADD_SNIPPET_f7426ff6d4e243d8bfea501adf02bebe",
				"type": "ADD_SNIPPET",
				"codeSnippet": "this.init();",
				"parentId": null,
				"callbackType": null
			}
		]
	}
}