{
	"AS_Form_j3d3bcf89ee24aa094f9597a3199a745": {
		"id": "AS_Form_j3d3bcf89ee24aa094f9597a3199a745",
		"type": "ACTION_SEQUENCE",
		"params": [
			{
				"datatype": "collection",
				"name": "eventobject"
			}
		],
		"contextObj": {
			"type": "forms",
			"platform": "",
			"KUID": "f67eb5f3ddc244a98a54d1a66abc4505"
		},
		"language": "js",
		"actions": [
			{
				"id": "INVOKE_FUNCTION___hebae8adf8e643198300b0ec3f8afef5",
				"type": "INVOKE_FUNCTION",
				"sequenceKUID": "preShow",
				"display": "preShow",
				"inputparams": [],
				"parentId": null,
				"callbackType": null,
				"disabled": null,
				"source": "controller"
			}
		]
	}
}