{
	"AS_Form_ic2730a370824202b52e0b2c8c6a3a9e": {
		"id": "AS_Form_ic2730a370824202b52e0b2c8c6a3a9e",
		"type": "ACTION_SEQUENCE",
		"params": [
			{
				"datatype": "collection",
				"name": "eventobject"
			}
		],
		"contextObj": {
			"type": "forms",
			"platform": "",
			"KUID": "d7812ca28ed14cca86e27be15527b1a7"
		},
		"language": "js",
		"actions": [
			{
				"id": "ADD_SNIPPET__b38632e7429d4c87b669a2d34d7b3c79",
				"type": "ADD_SNIPPET",
				"codeSnippet": "this.preShow();",
				"parentId": null,
				"callbackType": null
			}
		]
	}
}