{
	"AS_Form_fdac697bdba64726878c5d285152a618": {
		"id": "AS_Form_fdac697bdba64726878c5d285152a618",
		"type": "ACTION_SEQUENCE",
		"params": [
			{
				"datatype": "collection",
				"name": "eventobject"
			}
		],
		"contextObj": {
			"type": "forms",
			"platform": "",
			"KUID": "ca231daa4214490bb26e21baab5db0db"
		},
		"language": "js",
		"actions": [
			{
				"id": "ADD_SNIPPET__h9ff908b93a14bb5a363301af320d7d7",
				"type": "ADD_SNIPPET",
				"codeSnippet": "this.resetDashboardFlex();",
				"parentId": null,
				"callbackType": null
			}
		]
	}
}