{
	"AS_Form_d44d9df7a46042edb891a00df8dc7d7a": {
		"id": "AS_Form_d44d9df7a46042edb891a00df8dc7d7a",
		"type": "ACTION_SEQUENCE",
		"params": [
			{
				"datatype": "collection",
				"name": "eventobject"
			}
		],
		"contextObj": {
			"type": "forms",
			"platform": null,
			"KUID": "h653f834a94f4f3c912480c214fc0cd9"
		},
		"language": "js",
		"actions": [
			{
				"id": "ADD_SNIPPET_ide_init_jfdbc0e5f9fe4533b94db9516b35461f",
				"type": "ADD_SNIPPET",
				"codeSnippet": "this.init();",
				"callbackType": null
			}
		]
	}
}