{
	"AS_Form_a5b2ea118e3141538505d3a9713db657": {
		"id": "AS_Form_a5b2ea118e3141538505d3a9713db657",
		"type": "ACTION_SEQUENCE",
		"params": [
			{
				"datatype": "collection",
				"name": "eventobject"
			}
		],
		"contextObj": {
			"type": "forms",
			"platform": null,
			"KUID": "aa554ec40c91435e86050dcd910cad7e"
		},
		"language": "js",
		"actions": [
			{
				"id": "ADD_SNIPPET_ide_preShow_cec76bc6e9994c0f8ff6133ab95aa8b5",
				"type": "ADD_SNIPPET",
				"codeSnippet": "this.preShow();",
				"callbackType": null
			}
		]
	}
}