{
	"AS_Form_g3652ebd553b4889a52f34976ab26c31": {
		"id": "AS_Form_g3652ebd553b4889a52f34976ab26c31",
		"type": "ACTION_SEQUENCE",
		"params": [
			{
				"datatype": "collection",
				"name": "eventobject"
			}
		],
		"contextObj": {
			"type": "forms",
			"platform": "",
			"KUID": "ac4e07b674bf4d3c9ce044d67156498e"
		},
		"language": "js",
		"actions": [
			{
				"id": "ADD_SNIPPET__f8ee2cc09e214178a7a2871bfb1a33ba",
				"type": "ADD_SNIPPET",
				"codeSnippet": "this.init();",
				"parentId": null,
				"callbackType": null
			}
		]
	}
}