{
	"AS_Form_c751cdac9c2d4d14a1d40d5a56f36857": {
		"id": "AS_Form_c751cdac9c2d4d14a1d40d5a56f36857",
		"type": "ACTION_SEQUENCE",
		"params": [
			{
				"datatype": "collection",
				"name": "eventobject"
			}
		],
		"contextObj": {
			"type": "forms",
			"platform": "",
			"KUID": "jff553924cfb4065b67b4387c56ca666"
		},
		"language": "js",
		"actions": [
			{
				"id": "ADD_SNIPPET__ebeeb92b34714216b2adec7425044ff2",
				"type": "ADD_SNIPPET",
				"codeSnippet": "this.init();",
				"parentId": null,
				"callbackType": null
			}
		]
	}
}