{
	"AS_Form_h813d79e0f4c42e88fb4cd144c988795": {
		"id": "AS_Form_h813d79e0f4c42e88fb4cd144c988795",
		"type": "ACTION_SEQUENCE",
		"params": [
			{
				"datatype": "collection",
				"name": "eventobject"
			}
		],
		"contextObj": {
			"type": "forms",
			"platform": null,
			"KUID": "cec4292bdef34e88824d84cb2d4fa07b"
		},
		"language": "js",
		"actions": [
			{
				"id": "ADD_SNIPPET_ide_preShow_b3ffa83c321f410686bd9b7b99b80244",
				"type": "ADD_SNIPPET",
				"codeSnippet": "this.frmPreshow();",
				"callbackType": null
			}
		]
	}
}