{
	"AS_Form_e3916ef3b5d44389a98ea25163de5511": {
		"id": "AS_Form_e3916ef3b5d44389a98ea25163de5511",
		"type": "ACTION_SEQUENCE",
		"params": [
			{
				"datatype": "collection",
				"name": "eventobject"
			}
		],
		"contextObj": {
			"type": "forms",
			"platform": null,
			"KUID": "c2a240e77d844495bc2985daf47e39d3"
		},
		"language": "js",
		"actions": [
			{
				"id": "ADD_SNIPPET_ide_preShow_da81acda13904fab9a73374c4a7d847f",
				"type": "ADD_SNIPPET",
				"codeSnippet": "this.preShow();",
				"callbackType": null
			}
		]
	}
}