{
	"AS_Form_d37a0e12769848e1a1cd5cb62694157e": {
		"id": "AS_Form_d37a0e12769848e1a1cd5cb62694157e",
		"type": "ACTION_SEQUENCE",
		"params": [
			{
				"datatype": "collection",
				"name": "eventobject"
			}
		],
		"contextObj": {
			"type": "forms",
			"platform": "",
			"KUID": "a66a13b337f3485e829879dac1640d69"
		},
		"language": "js",
		"actions": [
			{
				"id": "ADD_SNIPPET_a44e07cbc17c4af3b827dc448db8f53c",
				"type": "ADD_SNIPPET",
				"codeSnippet": "this.preShow();",
				"parentId": null
			}
		]
	}
}