{
	"AS_Form_ad8224be31974614893122a874e089a7": {
		"id": "AS_Form_ad8224be31974614893122a874e089a7",
		"type": "ACTION_SEQUENCE",
		"params": [
			{
				"datatype": "collection",
				"name": "eventobject"
			}
		],
		"contextObj": {
			"type": "forms",
			"platform": "",
			"KUID": "g8d112c54f70404aa2605b373ca8050e"
		},
		"language": "js",
		"actions": [
			{
				"id": "ADD_SNIPPET__gf870c6b05574a88a62dd7ade9c07ac7",
				"type": "ADD_SNIPPET",
				"codeSnippet": "this.init();",
				"parentId": null,
				"callbackType": null
			}
		]
	}
}