{
	"AS_Form_b61392c95f7f46d5adb5f4a90e75f147": {
		"id": "AS_Form_b61392c95f7f46d5adb5f4a90e75f147",
		"type": "ACTION_SEQUENCE",
		"params": [
			{
				"datatype": "collection",
				"name": "eventobject"
			}
		],
		"contextObj": {
			"type": "forms",
			"platform": "",
			"KUID": "j97d5d90deb94de5a3898063cc1dd212"
		},
		"language": "js",
		"actions": [
			{
				"id": "ADD_SNIPPET_h3ac1482b6bf437fa0f1164291bdda1d",
				"type": "ADD_SNIPPET",
				"codeSnippet": "this.init();",
				"parentId": null
			}
		]
	}
}