{
	"AS_Form_a9e1c7d06c694b03a7c24ba7d855fa1a": {
		"id": "AS_Form_a9e1c7d06c694b03a7c24ba7d855fa1a",
		"type": "ACTION_SEQUENCE",
		"params": [
			{
				"datatype": "collection",
				"name": "eventobject"
			}
		],
		"contextObj": {
			"type": "forms",
			"platform": null,
			"KUID": "bf59cf7e3742404b84cd6f7f7adb1356"
		},
		"language": "js",
		"actions": [
			{
				"id": "ADD_SNIPPET_ide_preShow_d315eeeaf07a4c3ebba4ee096abe724f",
				"type": "ADD_SNIPPET",
				"codeSnippet": "this.preShow();",
				"callbackType": null
			}
		]
	}
}