{
	"AS_Form_ae0932f223a8466fafe79ccf522ada12": {
		"id": "AS_Form_ae0932f223a8466fafe79ccf522ada12",
		"type": "ACTION_SEQUENCE",
		"params": [
			{
				"datatype": "collection",
				"name": "eventobject"
			}
		],
		"contextObj": {
			"type": "forms",
			"platform": "",
			"KUID": "a3facb56f28c4dd196d7e047c817eda1"
		},
		"language": "js",
		"actions": [
			{
				"id": "ADD_SNIPPET__ic401a27674b4ce2b2f1570f06d52917",
				"type": "ADD_SNIPPET",
				"codeSnippet": "this.init();",
				"parentId": null,
				"callbackType": null
			}
		]
	}
}