{
	"AS_Form_h7642715460c4459847b76512630db28": {
		"id": "AS_Form_h7642715460c4459847b76512630db28",
		"type": "ACTION_SEQUENCE",
		"params": [
			{
				"datatype": "collection",
				"name": "eventobject"
			}
		],
		"contextObj": {
			"type": "forms",
			"platform": "",
			"KUID": "b3a32cd120a545158b3815abc4ed2cf6"
		},
		"language": "js",
		"actions": [
			{
				"id": "ADD_SNIPPET__d0343b9528d242669fcf2c17d0e054b3",
				"type": "ADD_SNIPPET",
				"codeSnippet": "this.init();",
				"parentId": null,
				"callbackType": null
			}
		]
	}
}