{
	"AS_Form_bbb6e1223f8547b78c3609f41bb9e311": {
		"id": "AS_Form_bbb6e1223f8547b78c3609f41bb9e311",
		"type": "ACTION_SEQUENCE",
		"params": [
			{
				"datatype": "collection",
				"name": "eventobject"
			}
		],
		"contextObj": {
			"type": "forms",
			"platform": "",
			"KUID": "f4bcec6abba0401b906b5489637c869e"
		},
		"language": "js",
		"actions": [
			{
				"id": "ADD_SNIPPET_d4ba4cbf3ea74e919f0743517149cf71",
				"type": "ADD_SNIPPET",
				"codeSnippet": "this.init();",
				"parentId": null
			}
		]
	}
}