{
	"AS_FlexContainer_ae259a84ec694255999e83a3d1ac2bd3": {
		"id": "AS_FlexContainer_ae259a84ec694255999e83a3d1ac2bd3",
		"type": "ACTION_SEQUENCE",
		"params": [
			{
				"datatype": "collection",
				"name": "eventobject"
			},
			{
				"datatype": "collection",
				"name": "context"
			}
		],
		"contextObj": {
			"type": "templates",
			"platform": "",
			"KUID": "ee07c0bdb5eb4ada8a4061a96eea9736"
		},
		"language": "js",
		"actions": [
			{
				"id": "INVOKE_FUNCTION__e7fb96a00df94c1e8fa6f0c5f0709603",
				"type": "INVOKE_FUNCTION",
				"sequenceKUID": "onSectionClick",
				"display": "onSectionClick",
				"inputparams": [
					{
						"name": "context",
						"value": "context\n"
					}
				],
				"parentId": null,
				"callbackType": null,
				"disabled": null,
				"source": "controller"
			}
		]
	}
}