{
	"AS_Form_f0a94f8abeb44cf7a3416fe791b496e7": {
		"id": "AS_Form_f0a94f8abeb44cf7a3416fe791b496e7",
		"type": "ACTION_SEQUENCE",
		"params": [
			{
				"datatype": "collection",
				"name": "eventobject"
			}
		],
		"contextObj": {
			"type": "forms",
			"platform": "",
			"KUID": "j5f6b4ea75f3470dad1a09f2afcf0c09"
		},
		"language": "js",
		"actions": [
			{
				"id": "ADD_SNIPPET__ja84c3bbd95044628c649400eb5e50b7",
				"type": "ADD_SNIPPET",
				"codeSnippet": "this.init();",
				"parentId": null,
				"callbackType": null
			}
		]
	}
}