{
	"AS_Form_ac9932802471414ca861af44ec408a7d": {
		"id": "AS_Form_ac9932802471414ca861af44ec408a7d",
		"type": "ACTION_SEQUENCE",
		"params": [
			{
				"datatype": "collection",
				"name": "eventobject"
			}
		],
		"contextObj": {
			"type": "forms",
			"platform": "",
			"KUID": "hebe0fd302d9412eabd37b7c0795519c"
		},
		"language": "js",
		"actions": [
			{
				"id": "ADD_SNIPPET_i143063f2dee4ae9a1620613137bbb14",
				"type": "ADD_SNIPPET",
				"codeSnippet": "this.initActions();",
				"parentId": null
			}
		]
	}
}