{
	"AS_Form_f4be0bb2efd246b883fd611c6e4ea1f6": {
		"id": "AS_Form_f4be0bb2efd246b883fd611c6e4ea1f6",
		"type": "ACTION_SEQUENCE",
		"params": [
			{
				"datatype": "collection",
				"name": "eventobject"
			}
		],
		"contextObj": {
			"type": "forms",
			"platform": "",
			"KUID": "f3fb65e8c9864560bbd98277c8431c5a"
		},
		"language": "js",
		"actions": [
			{
				"id": "ADD_SNIPPET__gf670836171b407d8db522036a49482d",
				"type": "ADD_SNIPPET",
				"codeSnippet": "this.init();",
				"parentId": null,
				"callbackType": null
			}
		]
	}
}