{
	"AS_Form_c3bb9f3b2d0c4bcc9c94fef6b64cc1b1": {
		"id": "AS_Form_c3bb9f3b2d0c4bcc9c94fef6b64cc1b1",
		"type": "ACTION_SEQUENCE",
		"params": [
			{
				"datatype": "collection",
				"name": "eventobject"
			}
		],
		"contextObj": {
			"type": "forms",
			"platform": "",
			"KUID": "fe21355b9d46462a8db787248e2ccf00"
		},
		"language": "js",
		"actions": [
			{
				"id": "ADD_SNIPPET__f8ed0ee4838546938921075b1a86b333",
				"type": "ADD_SNIPPET",
				"codeSnippet": "this.init();",
				"parentId": null,
				"callbackType": null
			}
		]
	}
}