{
	"AS_Form_ddf2c6d5109441e9820dbd14406f2175": {
		"id": "AS_Form_ddf2c6d5109441e9820dbd14406f2175",
		"type": "ACTION_SEQUENCE",
		"params": [
			{
				"datatype": "collection",
				"name": "eventobject"
			}
		],
		"contextObj": {
			"type": "forms",
			"platform": null,
			"KUID": "b3afa378678e4ca3be10897a0b1fa246"
		},
		"language": "js",
		"actions": [
			{
				"id": "ADD_SNIPPET_ide_preShow_b630760db15d4676b7e67b15d7d198e6",
				"type": "ADD_SNIPPET",
				"codeSnippet": "this.preShow();",
				"callbackType": null
			}
		]
	}
}