{
	"AS_Form_gcbb1c170143426280794a2c2a96dd6e": {
		"id": "AS_Form_gcbb1c170143426280794a2c2a96dd6e",
		"type": "ACTION_SEQUENCE",
		"params": [
			{
				"datatype": "collection",
				"name": "eventobject"
			}
		],
		"contextObj": {
			"type": "forms",
			"platform": "",
			"KUID": "g116859904954eb28f098d833436a84a"
		},
		"language": "js",
		"actions": [
			{
				"id": "ADD_SNIPPET__f7a2da69e03b4826929229e35efbc3b1",
				"type": "ADD_SNIPPET",
				"codeSnippet": "this.init();",
				"parentId": null,
				"callbackType": null
			}
		]
	}
}