{
	"AS_Form_e5e1865d864b42efbe366c210b02bd49": {
		"id": "AS_Form_e5e1865d864b42efbe366c210b02bd49",
		"type": "ACTION_SEQUENCE",
		"params": [
			{
				"datatype": "collection",
				"name": "eventobject"
			}
		],
		"contextObj": {
			"type": "forms",
			"platform": "",
			"KUID": "f6eedbc5fd16494d9ab3183336e43762"
		},
		"language": "js",
		"actions": [
			{
				"id": "ADD_SNIPPET_b1967f12f7f34e3db09491142e503c12",
				"type": "ADD_SNIPPET",
				"codeSnippet": "this.postShow();",
				"parentId": null
			}
		]
	}
}