{
	"AS_Form_c16be9d07d6a4e2ea4ddbeaf3910d4f0": {
		"id": "AS_Form_c16be9d07d6a4e2ea4ddbeaf3910d4f0",
		"type": "ACTION_SEQUENCE",
		"params": [
			{
				"datatype": "collection",
				"name": "eventobject"
			}
		],
		"contextObj": {
			"type": "forms",
			"platform": null,
			"KUID": "df6fc61b90a5499699c6677fd923938c"
		},
		"language": "js",
		"actions": [
			{
				"id": "INVOKE_FUNCTION___c5732c2746cc4bbb8b0b7069aa01796e",
				"type": "INVOKE_FUNCTION",
				"sequenceKUID": "preShow",
				"display": "preShow",
				"inputparams": [],
				"parentId": null,
				"callbackType": null,
				"disabled": null,
				"source": "controller"
			}
		]
	}
}