{
	"AS_Image_e01fd9b6207840acab8658ac45b8b5d2": {
		"id": "AS_Image_e01fd9b6207840acab8658ac45b8b5d2",
		"type": "ACTION_SEQUENCE",
		"params": [
			{
				"datatype": "collection",
				"name": "eventobject"
			},
			{
				"datatype": "string",
				"name": "x"
			},
			{
				"datatype": "string",
				"name": "y"
			}
		],
		"contextObj": {
			"type": "forms",
			"platform": "",
			"KUID": "g16216c13a4d42ad862416961fd3928f"
		},
		"language": "js",
		"actions": [
			{
				"id": "ADD_SNIPPET__b13a62fa374443529bde254354f383a9",
				"type": "ADD_SNIPPET",
				"codeSnippet": "this.clearKeypadChar();",
				"parentId": null,
				"callbackType": null
			}
		]
	}
}