{
	"AS_Image_g91bb5a3d2d8430f89c74e93c9faf64e": {
		"id": "AS_Image_g91bb5a3d2d8430f89c74e93c9faf64e",
		"type": "ACTION_SEQUENCE",
		"params": [
			{
				"datatype": "collection",
				"name": "eventobject"
			},
			{
				"datatype": "string",
				"name": "x"
			},
			{
				"datatype": "string",
				"name": "y"
			}
		],
		"contextObj": {
			"type": "forms",
			"platform": null,
			"KUID": "j21d8aaf0a434a598861e8edd1d907c1"
		},
		"language": "js",
		"actions": [
			{
				"id": "ADD_SNIPPET_ide_onTouchEnd_ef2996280b634dd8a49d2af61133c422",
				"type": "ADD_SNIPPET",
				"codeSnippet": "this.clearKeypadChar()",
				"callbackType": null
			}
		]
	}
}