{
	"AS_Image_h06747e2dadc4fdb88cc1a43838554aa": {
		"id": "AS_Image_h06747e2dadc4fdb88cc1a43838554aa",
		"type": "ACTION_SEQUENCE",
		"params": [
			{
				"datatype": "collection",
				"name": "eventobject"
			},
			{
				"datatype": "string",
				"name": "x"
			},
			{
				"datatype": "string",
				"name": "y"
			}
		],
		"contextObj": {
			"type": "forms",
			"platform": null,
			"KUID": "g116859904954eb28f098d833436a84a"
		},
		"language": "js",
		"actions": [
			{
				"id": "ADD_SNIPPET_ide_onTouchEnd_e337609dfa3a40dca103126bf536e6a4",
				"type": "ADD_SNIPPET",
				"codeSnippet": "this.clearKeypadChar();",
				"callbackType": null
			}
		]
	}
}