{
	"AS_Image_c9306b65c2ea40ad9fb6edf21db4194a": {
		"id": "AS_Image_c9306b65c2ea40ad9fb6edf21db4194a",
		"type": "ACTION_SEQUENCE",
		"params": [
			{
				"datatype": "collection",
				"name": "eventobject"
			},
			{
				"datatype": "string",
				"name": "imagesrc"
			},
			{
				"datatype": "boolean",
				"name": "issuccess"
			}
		],
		"language": "js",
		"actions": [
			{
				"id": "ADD_SNIPPET_ide_onDownloadComplete_e89b6a130c874ec1b6c454ce30dc9524",
				"type": "ADD_SNIPPET",
				"codeSnippet": "this.onAdDownloadComplete(issuccess,1);",
				"callbackType": null
			}
		]
	}
}