{
	"AS_Image_b83a4fb80df5471a8af8239dbd28c4b9": {
		"id": "AS_Image_b83a4fb80df5471a8af8239dbd28c4b9",
		"type": "ACTION_SEQUENCE",
		"params": [
			{
				"datatype": "collection",
				"name": "eventobject"
			},
			{
				"datatype": "string",
				"name": "imagesrc"
			},
			{
				"datatype": "boolean",
				"name": "issuccess"
			}
		],
		"contextObj": {
			"type": "forms",
			"platform": "",
			"KUID": "ia1a2f716ce24132a52e758ad3f25840"
		},
		"language": "js",
		"actions": [
			{
				"id": "ADD_SNIPPET_ecf323b5844f4abd961919722dce4b6c",
				"type": "ADD_SNIPPET",
				"codeSnippet": "this.onAdDownloadComplete(issuccess,4);",
				"parentId": null
			}
		]
	}
}