{
	"AS_Segment_b2ea93c408774da5a0c350b379bb7ef8": {
		"id": "AS_Segment_b2ea93c408774da5a0c350b379bb7ef8",
		"type": "ACTION_SEQUENCE",
		"params": [
			{
				"datatype": "collection",
				"name": "eventobject"
			},
			{
				"datatype": "number",
				"name": "sectionNumber"
			},
			{
				"datatype": "number",
				"name": "rowNumber"
			}
		],
		"contextObj": {
			"type": "forms",
			"platform": "",
			"KUID": "ae1a926984ff4cd48905f7e0a0102adb"
		},
		"language": "js",
		"actions": [
			{
				"id": "SET_FORM_WIDGET_PROPERTY_Untitled___efa1e683afcb4699b78f2dea3fb75b04",
				"type": "SET_WIDGET_PROPERTY",
				"itemType": "FORM",
				"itemId": "frmTransfersToAccountEurope",
				"widgetId": "segToAccount",
				"propertyName": "isVisible",
				"propertyValue": "false",
				"itemKUID": "ae1a926984ff4cd48905f7e0a0102adb",
				"widgetKUID": "ifa092584ac245c799db4010969ef9e4",
				"isSkinProperty": false,
				"wType": "Segment",
				"forkedPlatform": "all",
				"parentId": null,
				"callbackType": null,
				"widgetPath": "this.view.segToAccount"
			},
			{
				"id": "SET_FORM_WIDGET_PROPERTY_Untitled___eccba0462e5948198d712f35cd143af0",
				"type": "SET_WIDGET_PROPERTY",
				"itemType": "FORM",
				"itemId": "frmTransfersToAccountEurope",
				"widgetId": "flxNewRecipient",
				"propertyName": "isVisible",
				"propertyValue": "true",
				"itemKUID": "ae1a926984ff4cd48905f7e0a0102adb",
				"widgetKUID": "aec255d29afd43e4bf0d513091aa211b",
				"isSkinProperty": false,
				"wType": "FlexContainer",
				"forkedPlatform": "all",
				"parentId": null,
				"callbackType": null,
				"widgetPath": "this.view.flxNewRecipient"
			},
			{
				"id": "SET_FORM_WIDGET_PROPERTY_Untitled___e583abaa277843f6ba19505bc15cfb93",
				"type": "SET_WIDGET_PROPERTY",
				"itemType": "FORM",
				"itemId": "frmTransfersToAccountEurope",
				"widgetId": "tbxTo",
				"propertyName": "text",
				"propertyValue": "FR 4567 7456 3425 4532 1423 4356 664 ",
				"itemKUID": "ae1a926984ff4cd48905f7e0a0102adb",
				"widgetKUID": "d410c3974fef46f69c9810be4bc408ae",
				"isSkinProperty": false,
				"wType": "TextField",
				"forkedPlatform": "all",
				"parentId": null,
				"callbackType": null,
				"widgetPath": "this.view.tbxTo"
			}
		]
	}
}