{
	"AS_Segment_ba7add50a71c4631a5ddec4a5fe1bbb3": {
		"id": "AS_Segment_ba7add50a71c4631a5ddec4a5fe1bbb3",
		"type": "ACTION_SEQUENCE",
		"params": [
			{
				"datatype": "collection",
				"name": "eventobject"
			},
			{
				"datatype": "number",
				"name": "sectionNumber"
			},
			{
				"datatype": "number",
				"name": "rowNumber"
			}
		],
		"contextObj": {
			"type": "forms",
			"platform": "",
			"KUID": "gde5f469c8f143e6971d45e514f9ab62"
		},
		"language": "js",
		"actions": [
			{
				"id": "ADD_SNIPPET__a9e32411daaf4788b6cc37be4187fbd9",
				"type": "ADD_SNIPPET",
				"codeSnippet": "this.segToAccountOnClick();",
				"parentId": null,
				"callbackType": null
			}
		]
	}
}