{
	"AS_TextField_i62462251c6c4ba8b6748719b1b1c83c": {
		"id": "AS_TextField_i62462251c6c4ba8b6748719b1b1c83c",
		"type": "ACTION_SEQUENCE",
		"params": [
			{
				"datatype": "collection",
				"name": "eventobject"
			},
			{
				"datatype": "string",
				"name": "changedtext"
			}
		],
		"contextObj": {
			"type": "forms",
			"platform": "",
			"KUID": "h65c10a2cabc493c8ac9ef9c703d1486"
		},
		"language": "js",
		"actions": [
			{
				"id": "INVOKE_FUNCTION___ac2ca8256537461b81c93dbd9b380c85",
				"type": "INVOKE_FUNCTION",
				"sequenceKUID": "resetSkinsOfUsernameAndPwd",
				"display": "resetSkinsOfUsernameAndPwd",
				"inputparams": [],
				"parentId": null,
				"callbackType": null,
				"disabled": null,
				"source": "controller"
			}
		]
	}
}