{
    "@class": "com.kony.gen.viz.model.component.KVizButton",
    "DNDConfig": null,
    "_bottom_": {
        "type": "string",
        "value": "20dp"
    },
    "_height_": {
        "type": "string",
        "value": "48dp"
    },
    "_margin_": [
        6,
        6,
        6,
        6
    ],
    "_padding_": [
        0,
        0,
        0,
        0
    ],
    "_skin_": "s30d39ca8c744d388569c1d52d0824b6",
    "_text_": "Continue",
    "_width_": {
        "type": "string",
        "value": "88%"
    },
    "accessibilityconfig": {
        "a11yLabel": "CONFIRM"
    },
    "canUpdateUI": true,
    "centerx": {
        "type": "string",
        "value": "50%"
    },
    "containerweight": 100,
    "contentalignment": 5,
    "disabledSkins": {},
    "displaytext": true,
    "focusskin": "s1ba251bcd374b38a477c71e7d26bfd5",
    "id": "btnDownload",
    "info": null,
    "iphone": {
        "psp": {
            "showProgressIndicator": false
        }
    },
    "isvisible": true,
    "kuid": "c1275b042a0c4df39b5fb3a4f4c793b9",
    "name": "kony.ui.Button",
    "parent": "flxbtnDownload",
    "pf": "frmCombinedStatement",
    "texti18n": "kony.mb.common.continue",
    "wType": "Button",
    "zindex": 1
}