{
    "@class": "com.kony.gen.viz.model.component.KVizLabel",
    "DNDConfig": null,
    "__parentReadjusting__": false,
    "_height_": {
        "type": "string",
        "value": "100%"
    },
    "_left_": {
        "type": "string",
        "value": "0dp"
    },
    "_margin_": [
        1,
        1,
        1,
        1
    ],
    "_padding_": [
        0,
        0,
        0,
        0
    ],
    "_skin_": "s2104b97809a4127bd7e3bc6542982ad",
    "_text_": "Y",
    "_top_": {
        "type": "string",
        "value": "0dp"
    },
    "_width_": {
        "type": "string",
        "value": "17dp"
    },
    "_wrapping_": 2,
    "accessibilityconfig": {
        "a11yLabel": "Y"
    },
    "android": {
        "textStyle": {
            "letterSpacing": 0,
            "strikeThrough": false
        }
    },
    "canUpdateUI": true,
    "containerweight": 100,
    "contentalignment": 5,
    "id": "lblYearTwo",
    "info": null,
    "ipad": {
        "psp": {
            "wrapping": 2
        }
    },
    "iphone": {
        "psp": {
            "wrapping": 2
        }
    },
    "isvisible": true,
    "kuid": "i5b7dbf57dbe44668148c6848d160e3e",
    "name": "kony.ui.Label",
    "parent": "flxDateValue",
    "pf": "frmEuropeStartDate",
    "textstyle": {},
    "tooltip": "",
    "wType": "Label",
    "zindex": 1
}