{
    "ModuleName": "BusinessUserManager",
    "BusinessControllerConfig": {
        "CommandHandler": [],
        "BusinessControllerClass": "BusinessUserManager/BusinessControllers/BusinessController"
    }
}