{
    "@class": "com.kony.gen.viz.model.component.KVizButton",
    "DNDConfig": null,
    "__parentReadjusting__": false,
    "_height_": {
        "type": "string",
        "value": "100%"
    },
    "_left_": {
        "type": "string",
        "value": "0dp"
    },
    "_margin_": [
        6,
        6,
        6,
        6
    ],
    "_padding_": [
        0,
        0,
        0,
        0
    ],
    "_skin_": "s14771d54d8f464a84bd5bb98fd10b96",
    "_text_": "1",
    "_top_": {
        "type": "string",
        "value": "0dp"
    },
    "_width_": {
        "type": "string",
        "value": "33%"
    },
    "accessibilityconfig": {
        "a11yLabel": "1"
    },
    "canUpdateUI": true,
    "containerweight": 100,
    "contentalignment": 5,
    "disabledSkins": {},
    "displaytext": true,
    "focusskin": "s37232e53b2840a7bae8615e86f2b445",
    "id": "btnOne",
    "info": null,
    "isvisible": true,
    "kuid": "hc9bb69e77304fd7a9de1f054d5498fb",
    "name": "kony.ui.Button",
    "parent": "flxKeypadRowOne",
    "pf": "userwidgetmodel",
    "wType": "Button",
    "zindex": 1,
    "iphone": {
        "psp": {
            "showProgressIndicator": false
        }
    }
}