{
  "customCode" : {
    "requestProcessorName" : "com.kony.transaction.preprocessors.DeleteExternalAccountPreProcessor",
    "responseProcessorName" : "com.kony.postprocessors.DeleteExternalRecipientObjectServicePostProcessor"
  },
  "operationConfig" : {
    "name" : "deleteExternalAccount9243",
    "type" : "MappedToBackend",
    "cachable" : false,
    "smsEnabled" : false,
    "security" : "authorized_app_user",
    "responseEncoding" : "UTF-8",
    "httpMethod" : "GET",
    "decodeResponseBody" : false,
    "iMapping" : "<?xml version=\"1.0\" encoding=\"UTF-8\" standalone=\"yes\"?><mapper xmlns=\"http://www.kony.com/ns/mapper\">    <map inputpath=\"request_in\" outputpath=\"request_out\">        <set-param inputpath=\"IBAN\" outputpath=\"IBAN\"/>        <set-param inputpath=\"accountNumber\" outputpath=\"accountNumber\"/>    <set-param inputpath=\"beneficiaryId\" outputpath=\"beneficiaryId\"/>  </map></mapper>",
    "oMapping" : "<?xml version=\"1.0\" encoding=\"UTF-8\" standalone=\"yes\"?><mapper xmlns=\"http://www.kony.com/ns/mapper\"><map inputpath=\"response_in\" outputpath=\"response_out\"><set-param inputpath=\"success\" outputpath=\"success\"/></map></mapper>",
    "iVisualMappingData" : "{\"nodeDataArray\":[{\"isGroup\":true,\"key\":\"request_in\",\"text\":\"ExternalAccounts\",\"xy\":\"150 100\",\"__gohashid\":322},{\"isGroup\":true,\"key\":\"request_out\",\"text\":\"dbpNonProductServices (1.0).deleteExternalAccount\",\"xy\":\"770 100\",\"__gohashid\":323}],\"linkDataArray\":[{\"from\":\"source\",\"to\":\"source:ExternalAccounts\",\"fromPort\":\"source\",\"toPort\":\"source:ExternalAccounts\",\"visible\":true,\"common\":false,\"__gohashid\":361},{\"from\":\"source:ExternalAccounts\",\"to\":\"source:ExternalAccounts:fields\",\"fromPort\":\"source:ExternalAccounts\",\"toPort\":\"source:ExternalAccounts:fields\",\"visible\":true,\"common\":false,\"__gohashid\":362},{\"from\":\"source:ExternalAccounts:fields\",\"to\":\"source:ExternalAccounts:accountNumber:\",\"fromPort\":\"source:ExternalAccounts:fields\",\"toPort\":\"source:ExternalAccounts:accountNumber:\",\"visible\":true,\"common\":false,\"__gohashid\":363},{\"from\":\"source:ExternalAccounts:fields\",\"to\":\"source:ExternalAccounts:accountType:\",\"fromPort\":\"source:ExternalAccounts:fields\",\"toPort\":\"source:ExternalAccounts:accountType:\",\"visible\":true,\"common\":false,\"__gohashid\":364},{\"from\":\"source:ExternalAccounts:fields\",\"to\":\"source:ExternalAccounts:bankName:\",\"fromPort\":\"source:ExternalAccounts:fields\",\"toPort\":\"source:ExternalAccounts:bankName:\",\"visible\":true,\"common\":false,\"__gohashid\":365},{\"from\":\"source:ExternalAccounts:fields\",\"to\":\"source:ExternalAccounts:beneficiaryName:\",\"fromPort\":\"source:ExternalAccounts:fields\",\"toPort\":\"source:ExternalAccounts:beneficiaryName:\",\"visible\":true,\"common\":false,\"__gohashid\":366},{\"from\":\"source:ExternalAccounts:fields\",\"to\":\"source:ExternalAccounts:countryName:\",\"fromPort\":\"source:ExternalAccounts:fields\",\"toPort\":\"source:ExternalAccounts:countryName:\",\"visible\":true,\"common\":false,\"__gohashid\":367},{\"from\":\"source:ExternalAccounts:fields\",\"to\":\"source:ExternalAccounts:createdOn:\",\"fromPort\":\"source:ExternalAccounts:fields\",\"toPort\":\"source:ExternalAccounts:createdOn:\",\"visible\":true,\"common\":false,\"__gohashid\":368},{\"from\":\"source:ExternalAccounts:fields\",\"to\":\"source:ExternalAccounts:errmsg:\",\"fromPort\":\"source:ExternalAccounts:fields\",\"toPort\":\"source:ExternalAccounts:errmsg:\",\"visible\":true,\"common\":false,\"__gohashid\":369},{\"from\":\"source:ExternalAccounts:fields\",\"to\":\"source:ExternalAccounts:firstName:\",\"fromPort\":\"source:ExternalAccounts:fields\",\"toPort\":\"source:ExternalAccounts:firstName:\",\"visible\":true,\"common\":false,\"__gohashid\":370},{\"from\":\"source:ExternalAccounts:fields\",\"to\":\"source:ExternalAccounts:Id:\",\"fromPort\":\"source:ExternalAccounts:fields\",\"toPort\":\"source:ExternalAccounts:Id:\",\"visible\":true,\"common\":false,\"__gohashid\":371},{\"from\":\"source:ExternalAccounts:fields\",\"to\":\"source:ExternalAccounts:isInternationalAccount:\",\"fromPort\":\"source:ExternalAccounts:fields\",\"toPort\":\"source:ExternalAccounts:isInternationalAccount:\",\"visible\":true,\"common\":false,\"__gohashid\":372},{\"from\":\"source:ExternalAccounts:fields\",\"to\":\"source:ExternalAccounts:isSameBankAccount:\",\"fromPort\":\"source:ExternalAccounts:fields\",\"toPort\":\"source:ExternalAccounts:isSameBankAccount:\",\"visible\":true,\"common\":false,\"__gohashid\":373},{\"from\":\"source:ExternalAccounts:fields\",\"to\":\"source:ExternalAccounts:isVerified:\",\"fromPort\":\"source:ExternalAccounts:fields\",\"toPort\":\"source:ExternalAccounts:isVerified:\",\"visible\":true,\"common\":false,\"__gohashid\":374},{\"from\":\"source:ExternalAccounts:fields\",\"to\":\"source:ExternalAccounts:lastName:\",\"fromPort\":\"source:ExternalAccounts:fields\",\"toPort\":\"source:ExternalAccounts:lastName:\",\"visible\":true,\"common\":false,\"__gohashid\":375},{\"from\":\"source:ExternalAccounts:fields\",\"to\":\"source:ExternalAccounts:limit:\",\"fromPort\":\"source:ExternalAccounts:fields\",\"toPort\":\"source:ExternalAccounts:limit:\",\"visible\":true,\"common\":false,\"__gohashid\":376},{\"from\":\"source:ExternalAccounts:fields\",\"to\":\"source:ExternalAccounts:nickName:\",\"fromPort\":\"source:ExternalAccounts:fields\",\"toPort\":\"source:ExternalAccounts:nickName:\",\"visible\":true,\"common\":false,\"__gohashid\":377},{\"from\":\"source:ExternalAccounts:fields\",\"to\":\"source:ExternalAccounts:notes:\",\"fromPort\":\"source:ExternalAccounts:fields\",\"toPort\":\"source:ExternalAccounts:notes:\",\"visible\":true,\"common\":false,\"__gohashid\":378},{\"from\":\"source:ExternalAccounts:fields\",\"to\":\"source:ExternalAccounts:offset:\",\"fromPort\":\"source:ExternalAccounts:fields\",\"toPort\":\"source:ExternalAccounts:offset:\",\"visible\":true,\"common\":false,\"__gohashid\":379},{\"from\":\"source:ExternalAccounts:fields\",\"to\":\"source:ExternalAccounts:order:\",\"fromPort\":\"source:ExternalAccounts:fields\",\"toPort\":\"source:ExternalAccounts:order:\",\"visible\":true,\"common\":false,\"__gohashid\":380},{\"from\":\"source:ExternalAccounts:fields\",\"to\":\"source:ExternalAccounts:routingNumber:\",\"fromPort\":\"source:ExternalAccounts:fields\",\"toPort\":\"source:ExternalAccounts:routingNumber:\",\"visible\":true,\"common\":false,\"__gohashid\":381},{\"from\":\"source:ExternalAccounts:fields\",\"to\":\"source:ExternalAccounts:searchString:\",\"fromPort\":\"source:ExternalAccounts:fields\",\"toPort\":\"source:ExternalAccounts:searchString:\",\"visible\":true,\"common\":false,\"__gohashid\":382},{\"from\":\"source:ExternalAccounts:fields\",\"to\":\"source:ExternalAccounts:sortBy:\",\"fromPort\":\"source:ExternalAccounts:fields\",\"toPort\":\"source:ExternalAccounts:sortBy:\",\"visible\":true,\"common\":false,\"__gohashid\":383},{\"from\":\"source:ExternalAccounts:fields\",\"to\":\"source:ExternalAccounts:success:\",\"fromPort\":\"source:ExternalAccounts:fields\",\"toPort\":\"source:ExternalAccounts:success:\",\"visible\":true,\"common\":false,\"__gohashid\":384},{\"from\":\"source:ExternalAccounts:fields\",\"to\":\"source:ExternalAccounts:swiftCode:\",\"fromPort\":\"source:ExternalAccounts:fields\",\"toPort\":\"source:ExternalAccounts:swiftCode:\",\"visible\":true,\"common\":false,\"__gohashid\":385},{\"from\":\"source:ExternalAccounts:fields\",\"to\":\"source:ExternalAccounts:IBAN:\",\"fromPort\":\"source:ExternalAccounts:fields\",\"toPort\":\"source:ExternalAccounts:IBAN:\",\"visible\":true,\"common\":false,\"__gohashid\":386},{\"from\":\"source:ExternalAccounts:fields\",\"to\":\"source:ExternalAccounts:sortCode:\",\"fromPort\":\"source:ExternalAccounts:fields\",\"toPort\":\"source:ExternalAccounts:sortCode:\",\"visible\":true,\"common\":false,\"__gohashid\":387},{\"from\":\"source:ExternalAccounts:fields\",\"to\":\"source:ExternalAccounts:phoneExtension:\",\"fromPort\":\"source:ExternalAccounts:fields\",\"toPort\":\"source:ExternalAccounts:phoneExtension:\",\"visible\":true,\"common\":false,\"__gohashid\":388},{\"from\":\"source:ExternalAccounts:fields\",\"to\":\"source:ExternalAccounts:phoneNumber:\",\"fromPort\":\"source:ExternalAccounts:fields\",\"toPort\":\"source:ExternalAccounts:phoneNumber:\",\"visible\":true,\"common\":false,\"__gohashid\":389},{\"from\":\"source:ExternalAccounts:fields\",\"to\":\"source:ExternalAccounts:phoneCountryCode:\",\"fromPort\":\"source:ExternalAccounts:fields\",\"toPort\":\"source:ExternalAccounts:phoneCountryCode:\",\"visible\":true,\"common\":false,\"__gohashid\":390},{\"from\":\"source:ExternalAccounts:fields\",\"to\":\"source:ExternalAccounts:beneficiaryId:\",\"fromPort\":\"source:ExternalAccounts:fields\",\"toPort\":\"source:ExternalAccounts:beneficiaryId:\",\"visible\":true,\"common\":false,\"__gohashid\":391},{\"from\":\"target\",\"to\":\"target:parameters\",\"fromPort\":\"target\",\"toPort\":\"target:parameters\",\"visible\":true,\"common\":false,\"__gohashid\":392},{\"from\":\"target:parameters\",\"to\":\"target:accountNumber:\",\"fromPort\":\"target:parameters\",\"toPort\":\"target:accountNumber:\",\"visible\":true,\"common\":false,\"__gohashid\":393},{\"from\":\"target:parameters\",\"to\":\"target:IBAN:\",\"fromPort\":\"target:parameters\",\"toPort\":\"target:IBAN:\",\"visible\":true,\"common\":false,\"__gohashid\":394}],\"blockCount\":{\"variableCount\":0},\"variableMap\":{},\"xmlMappingOverride\":true}",
    "applyCommonMapping" : false,
    "applyRequestCommonMapping" : false,
    "applyResponseCommonMapping" : true,
    "backendMeta" : {
      "serviceName" : "dbpNonProductServices",
      "serviceVersion" : "1.0",
      "operationName" : "deleteExternalAccount"
    },
    "relationshipHierarchyMapping" : {
      "children" : [ ],
      "name" : "ExternalAccounts",
      "actions" : { },
      "selected" : true
    },
    "requestXmlMappingOverride" : true,
    "responseXmlMappingOverride" : true
  }
}